<?xml version="1.0" encoding="utf-8"?>
<svg xmlns="http://www.w3.org/2000/svg" xmlns:xlink="http://www.w3.org/1999/xlink" width="600" height="400" viewBox="0 0 2400 1600">
<defs>
  <clipPath id="clip760">
    <rect x="0" y="0" width="2400" height="1600"/>
  </clipPath>
</defs>
<path clip-path="url(#clip760)" d="
M0 1600 L2400 1600 L2400 0 L0 0  Z
  " fill="#ffffff" fill-rule="evenodd" fill-opacity="1"/>
<defs>
  <clipPath id="clip761">
    <rect x="480" y="0" width="1681" height="1600"/>
  </clipPath>
</defs>
<path clip-path="url(#clip760)" d="
M223.103 1486.45 L2352.76 1486.45 L2352.76 123.472 L223.103 123.472  Z
  " fill="#ffffff" fill-rule="evenodd" fill-opacity="1"/>
<defs>
  <clipPath id="clip762">
    <rect x="223" y="123" width="2131" height="1364"/>
  </clipPath>
</defs>
<polyline clip-path="url(#clip762)" style="stroke:#000000; stroke-linecap:round; stroke-linejoin:round; stroke-width:2; stroke-opacity:0.1; fill:none" points="
  283.376,1486.45 283.376,123.472 
  "/>
<polyline clip-path="url(#clip762)" style="stroke:#000000; stroke-linecap:round; stroke-linejoin:round; stroke-width:2; stroke-opacity:0.1; fill:none" points="
  954.644,1486.45 954.644,123.472 
  "/>
<polyline clip-path="url(#clip762)" style="stroke:#000000; stroke-linecap:round; stroke-linejoin:round; stroke-width:2; stroke-opacity:0.1; fill:none" points="
  1625.91,1486.45 1625.91,123.472 
  "/>
<polyline clip-path="url(#clip762)" style="stroke:#000000; stroke-linecap:round; stroke-linejoin:round; stroke-width:2; stroke-opacity:0.1; fill:none" points="
  2297.18,1486.45 2297.18,123.472 
  "/>
<polyline clip-path="url(#clip760)" style="stroke:#000000; stroke-linecap:round; stroke-linejoin:round; stroke-width:4; stroke-opacity:1; fill:none" points="
  223.103,1486.45 2352.76,1486.45 
  "/>
<polyline clip-path="url(#clip760)" style="stroke:#000000; stroke-linecap:round; stroke-linejoin:round; stroke-width:4; stroke-opacity:1; fill:none" points="
  283.376,1486.45 283.376,1467.55 
  "/>
<polyline clip-path="url(#clip760)" style="stroke:#000000; stroke-linecap:round; stroke-linejoin:round; stroke-width:4; stroke-opacity:1; fill:none" points="
  954.644,1486.45 954.644,1467.55 
  "/>
<polyline clip-path="url(#clip760)" style="stroke:#000000; stroke-linecap:round; stroke-linejoin:round; stroke-width:4; stroke-opacity:1; fill:none" points="
  1625.91,1486.45 1625.91,1467.55 
  "/>
<polyline clip-path="url(#clip760)" style="stroke:#000000; stroke-linecap:round; stroke-linejoin:round; stroke-width:4; stroke-opacity:1; fill:none" points="
  2297.18,1486.45 2297.18,1467.55 
  "/>
<path clip-path="url(#clip760)" d="M283.376 1517.37 Q279.765 1517.37 277.936 1520.93 Q276.13 1524.47 276.13 1531.6 Q276.13 1538.71 277.936 1542.27 Q279.765 1545.82 283.376 1545.82 Q287.01 1545.82 288.816 1542.27 Q290.644 1538.71 290.644 1531.6 Q290.644 1524.47 288.816 1520.93 Q287.01 1517.37 283.376 1517.37 M283.376 1513.66 Q289.186 1513.66 292.241 1518.27 Q295.32 1522.85 295.32 1531.6 Q295.32 1540.33 292.241 1544.94 Q289.186 1549.52 283.376 1549.52 Q277.566 1549.52 274.487 1544.94 Q271.431 1540.33 271.431 1531.6 Q271.431 1522.85 274.487 1518.27 Q277.566 1513.66 283.376 1513.66 Z" fill="#000000" fill-rule="evenodd" fill-opacity="1" /><path clip-path="url(#clip760)" d="M929.331 1544.91 L936.97 1544.91 L936.97 1518.55 L928.66 1520.21 L928.66 1515.95 L936.924 1514.29 L941.6 1514.29 L941.6 1544.91 L949.239 1544.91 L949.239 1548.85 L929.331 1548.85 L929.331 1544.91 Z" fill="#000000" fill-rule="evenodd" fill-opacity="1" /><path clip-path="url(#clip760)" d="M968.683 1517.37 Q965.072 1517.37 963.243 1520.93 Q961.438 1524.47 961.438 1531.6 Q961.438 1538.71 963.243 1542.27 Q965.072 1545.82 968.683 1545.82 Q972.317 1545.82 974.123 1542.27 Q975.952 1538.71 975.952 1531.6 Q975.952 1524.47 974.123 1520.93 Q972.317 1517.37 968.683 1517.37 M968.683 1513.66 Q974.493 1513.66 977.549 1518.27 Q980.627 1522.85 980.627 1531.6 Q980.627 1540.33 977.549 1544.94 Q974.493 1549.52 968.683 1549.52 Q962.873 1549.52 959.794 1544.94 Q956.739 1540.33 956.739 1531.6 Q956.739 1522.85 959.794 1518.27 Q962.873 1513.66 968.683 1513.66 Z" fill="#000000" fill-rule="evenodd" fill-opacity="1" /><path clip-path="url(#clip760)" d="M1604.69 1544.91 L1621 1544.91 L1621 1548.85 L1599.06 1548.85 L1599.06 1544.91 Q1601.72 1542.16 1606.31 1537.53 Q1610.91 1532.88 1612.09 1531.53 Q1614.34 1529.01 1615.22 1527.27 Q1616.12 1525.51 1616.12 1523.82 Q1616.12 1521.07 1614.18 1519.33 Q1612.25 1517.6 1609.15 1517.6 Q1606.95 1517.6 1604.5 1518.36 Q1602.07 1519.13 1599.29 1520.68 L1599.29 1515.95 Q1602.12 1514.82 1604.57 1514.24 Q1607.02 1513.66 1609.06 1513.66 Q1614.43 1513.66 1617.62 1516.35 Q1620.82 1519.03 1620.82 1523.52 Q1620.82 1525.65 1620.01 1527.57 Q1619.22 1529.47 1617.12 1532.07 Q1616.54 1532.74 1613.44 1535.95 Q1610.33 1539.15 1604.69 1544.91 Z" fill="#000000" fill-rule="evenodd" fill-opacity="1" /><path clip-path="url(#clip760)" d="M1640.82 1517.37 Q1637.21 1517.37 1635.38 1520.93 Q1633.57 1524.47 1633.57 1531.6 Q1633.57 1538.71 1635.38 1542.27 Q1637.21 1545.82 1640.82 1545.82 Q1644.45 1545.82 1646.26 1542.27 Q1648.09 1538.71 1648.09 1531.6 Q1648.09 1524.47 1646.26 1520.93 Q1644.45 1517.37 1640.82 1517.37 M1640.82 1513.66 Q1646.63 1513.66 1649.68 1518.27 Q1652.76 1522.85 1652.76 1531.6 Q1652.76 1540.33 1649.68 1544.94 Q1646.63 1549.52 1640.82 1549.52 Q1635.01 1549.52 1631.93 1544.94 Q1628.87 1540.33 1628.87 1531.6 Q1628.87 1522.85 1631.93 1518.27 Q1635.01 1513.66 1640.82 1513.66 Z" fill="#000000" fill-rule="evenodd" fill-opacity="1" /><path clip-path="url(#clip760)" d="M2286.02 1530.21 Q2289.38 1530.93 2291.25 1533.2 Q2293.15 1535.47 2293.15 1538.8 Q2293.15 1543.92 2289.63 1546.72 Q2286.12 1549.52 2279.63 1549.52 Q2277.46 1549.52 2275.14 1549.08 Q2272.85 1548.66 2270.4 1547.81 L2270.4 1543.29 Q2272.34 1544.43 2274.66 1545.01 Q2276.97 1545.58 2279.49 1545.58 Q2283.89 1545.58 2286.18 1543.85 Q2288.5 1542.11 2288.5 1538.8 Q2288.5 1535.75 2286.35 1534.03 Q2284.22 1532.3 2280.4 1532.3 L2276.37 1532.3 L2276.37 1528.45 L2280.58 1528.45 Q2284.03 1528.45 2285.86 1527.09 Q2287.69 1525.7 2287.69 1523.11 Q2287.69 1520.45 2285.79 1519.03 Q2283.92 1517.6 2280.4 1517.6 Q2278.48 1517.6 2276.28 1518.01 Q2274.08 1518.43 2271.44 1519.31 L2271.44 1515.14 Q2274.1 1514.4 2276.42 1514.03 Q2278.75 1513.66 2280.81 1513.66 Q2286.14 1513.66 2289.24 1516.09 Q2292.34 1518.5 2292.34 1522.62 Q2292.34 1525.49 2290.7 1527.48 Q2289.06 1529.45 2286.02 1530.21 Z" fill="#000000" fill-rule="evenodd" fill-opacity="1" /><path clip-path="url(#clip760)" d="M2312.02 1517.37 Q2308.41 1517.37 2306.58 1520.93 Q2304.77 1524.47 2304.77 1531.6 Q2304.77 1538.71 2306.58 1542.27 Q2308.41 1545.82 2312.02 1545.82 Q2315.65 1545.82 2317.46 1542.27 Q2319.29 1538.71 2319.29 1531.6 Q2319.29 1524.47 2317.46 1520.93 Q2315.65 1517.37 2312.02 1517.37 M2312.02 1513.66 Q2317.83 1513.66 2320.88 1518.27 Q2323.96 1522.85 2323.96 1531.6 Q2323.96 1540.33 2320.88 1544.94 Q2317.83 1549.52 2312.02 1549.52 Q2306.21 1549.52 2303.13 1544.94 Q2300.07 1540.33 2300.07 1531.6 Q2300.07 1522.85 2303.13 1518.27 Q2306.21 1513.66 2312.02 1513.66 Z" fill="#000000" fill-rule="evenodd" fill-opacity="1" /><polyline clip-path="url(#clip762)" style="stroke:#000000; stroke-linecap:round; stroke-linejoin:round; stroke-width:2; stroke-opacity:0.1; fill:none" points="
  223.103,1260.99 2352.76,1260.99 
  "/>
<polyline clip-path="url(#clip762)" style="stroke:#000000; stroke-linecap:round; stroke-linejoin:round; stroke-width:2; stroke-opacity:0.1; fill:none" points="
  223.103,901.316 2352.76,901.316 
  "/>
<polyline clip-path="url(#clip762)" style="stroke:#000000; stroke-linecap:round; stroke-linejoin:round; stroke-width:2; stroke-opacity:0.1; fill:none" points="
  223.103,541.641 2352.76,541.641 
  "/>
<polyline clip-path="url(#clip762)" style="stroke:#000000; stroke-linecap:round; stroke-linejoin:round; stroke-width:2; stroke-opacity:0.1; fill:none" points="
  223.103,181.966 2352.76,181.966 
  "/>
<polyline clip-path="url(#clip760)" style="stroke:#000000; stroke-linecap:round; stroke-linejoin:round; stroke-width:4; stroke-opacity:1; fill:none" points="
  223.103,1486.45 223.103,123.472 
  "/>
<polyline clip-path="url(#clip760)" style="stroke:#000000; stroke-linecap:round; stroke-linejoin:round; stroke-width:4; stroke-opacity:1; fill:none" points="
  223.103,1260.99 242,1260.99 
  "/>
<polyline clip-path="url(#clip760)" style="stroke:#000000; stroke-linecap:round; stroke-linejoin:round; stroke-width:4; stroke-opacity:1; fill:none" points="
  223.103,901.316 242,901.316 
  "/>
<polyline clip-path="url(#clip760)" style="stroke:#000000; stroke-linecap:round; stroke-linejoin:round; stroke-width:4; stroke-opacity:1; fill:none" points="
  223.103,541.641 242,541.641 
  "/>
<polyline clip-path="url(#clip760)" style="stroke:#000000; stroke-linecap:round; stroke-linejoin:round; stroke-width:4; stroke-opacity:1; fill:none" points="
  223.103,181.966 242,181.966 
  "/>
<path clip-path="url(#clip760)" d="M50.9921 1261.44 L80.6679 1261.44 L80.6679 1265.38 L50.9921 1265.38 L50.9921 1261.44 Z" fill="#000000" fill-rule="evenodd" fill-opacity="1" /><path clip-path="url(#clip760)" d="M100.76 1246.79 Q97.1493 1246.79 95.3206 1250.35 Q93.515 1253.9 93.515 1261.03 Q93.515 1268.13 95.3206 1271.7 Q97.1493 1275.24 100.76 1275.24 Q104.395 1275.24 106.2 1271.7 Q108.029 1268.13 108.029 1261.03 Q108.029 1253.9 106.2 1250.35 Q104.395 1246.79 100.76 1246.79 M100.76 1243.09 Q106.571 1243.09 109.626 1247.69 Q112.705 1252.28 112.705 1261.03 Q112.705 1269.75 109.626 1274.36 Q106.571 1278.94 100.76 1278.94 Q94.9502 1278.94 91.8715 1274.36 Q88.816 1269.75 88.816 1261.03 Q88.816 1252.28 91.8715 1247.69 Q94.9502 1243.09 100.76 1243.09 Z" fill="#000000" fill-rule="evenodd" fill-opacity="1" /><path clip-path="url(#clip760)" d="M120.922 1272.39 L125.807 1272.39 L125.807 1278.27 L120.922 1278.27 L120.922 1272.39 Z" fill="#000000" fill-rule="evenodd" fill-opacity="1" /><path clip-path="url(#clip760)" d="M145.992 1246.79 Q142.381 1246.79 140.552 1250.35 Q138.746 1253.9 138.746 1261.03 Q138.746 1268.13 140.552 1271.7 Q142.381 1275.24 145.992 1275.24 Q149.626 1275.24 151.431 1271.7 Q153.26 1268.13 153.26 1261.03 Q153.26 1253.9 151.431 1250.35 Q149.626 1246.79 145.992 1246.79 M145.992 1243.09 Q151.802 1243.09 154.857 1247.69 Q157.936 1252.28 157.936 1261.03 Q157.936 1269.75 154.857 1274.36 Q151.802 1278.94 145.992 1278.94 Q140.181 1278.94 137.103 1274.36 Q134.047 1269.75 134.047 1261.03 Q134.047 1252.28 137.103 1247.69 Q140.181 1243.09 145.992 1243.09 Z" fill="#000000" fill-rule="evenodd" fill-opacity="1" /><path clip-path="url(#clip760)" d="M166.2 1243.71 L184.556 1243.71 L184.556 1247.65 L170.482 1247.65 L170.482 1256.12 Q171.501 1255.77 172.519 1255.61 Q173.538 1255.42 174.556 1255.42 Q180.343 1255.42 183.723 1258.6 Q187.103 1261.77 187.103 1267.18 Q187.103 1272.76 183.63 1275.86 Q180.158 1278.94 173.839 1278.94 Q171.663 1278.94 169.394 1278.57 Q167.149 1278.2 164.742 1277.46 L164.742 1272.76 Q166.825 1273.9 169.047 1274.45 Q171.269 1275.01 173.746 1275.01 Q177.751 1275.01 180.089 1272.9 Q182.427 1270.79 182.427 1267.18 Q182.427 1263.57 180.089 1261.47 Q177.751 1259.36 173.746 1259.36 Q171.871 1259.36 169.996 1259.78 Q168.144 1260.19 166.2 1261.07 L166.2 1243.71 Z" fill="#000000" fill-rule="evenodd" fill-opacity="1" /><path clip-path="url(#clip760)" d="M99.765 887.115 Q96.1539 887.115 94.3252 890.68 Q92.5197 894.221 92.5197 901.351 Q92.5197 908.457 94.3252 912.022 Q96.1539 915.564 99.765 915.564 Q103.399 915.564 105.205 912.022 Q107.033 908.457 107.033 901.351 Q107.033 894.221 105.205 890.68 Q103.399 887.115 99.765 887.115 M99.765 883.411 Q105.575 883.411 108.631 888.018 Q111.709 892.601 111.709 901.351 Q111.709 910.078 108.631 914.684 Q105.575 919.267 99.765 919.267 Q93.9549 919.267 90.8762 914.684 Q87.8206 910.078 87.8206 901.351 Q87.8206 892.601 90.8762 888.018 Q93.9549 883.411 99.765 883.411 Z" fill="#000000" fill-rule="evenodd" fill-opacity="1" /><path clip-path="url(#clip760)" d="M119.927 912.716 L124.811 912.716 L124.811 918.596 L119.927 918.596 L119.927 912.716 Z" fill="#000000" fill-rule="evenodd" fill-opacity="1" /><path clip-path="url(#clip760)" d="M144.996 887.115 Q141.385 887.115 139.556 890.68 Q137.751 894.221 137.751 901.351 Q137.751 908.457 139.556 912.022 Q141.385 915.564 144.996 915.564 Q148.63 915.564 150.436 912.022 Q152.265 908.457 152.265 901.351 Q152.265 894.221 150.436 890.68 Q148.63 887.115 144.996 887.115 M144.996 883.411 Q150.806 883.411 153.862 888.018 Q156.941 892.601 156.941 901.351 Q156.941 910.078 153.862 914.684 Q150.806 919.267 144.996 919.267 Q139.186 919.267 136.107 914.684 Q133.052 910.078 133.052 901.351 Q133.052 892.601 136.107 888.018 Q139.186 883.411 144.996 883.411 Z" fill="#000000" fill-rule="evenodd" fill-opacity="1" /><path clip-path="url(#clip760)" d="M175.158 887.115 Q171.547 887.115 169.718 890.68 Q167.913 894.221 167.913 901.351 Q167.913 908.457 169.718 912.022 Q171.547 915.564 175.158 915.564 Q178.792 915.564 180.598 912.022 Q182.427 908.457 182.427 901.351 Q182.427 894.221 180.598 890.68 Q178.792 887.115 175.158 887.115 M175.158 883.411 Q180.968 883.411 184.024 888.018 Q187.103 892.601 187.103 901.351 Q187.103 910.078 184.024 914.684 Q180.968 919.267 175.158 919.267 Q169.348 919.267 166.269 914.684 Q163.214 910.078 163.214 901.351 Q163.214 892.601 166.269 888.018 Q169.348 883.411 175.158 883.411 Z" fill="#000000" fill-rule="evenodd" fill-opacity="1" /><path clip-path="url(#clip760)" d="M100.76 527.44 Q97.1493 527.44 95.3206 531.005 Q93.515 534.546 93.515 541.676 Q93.515 548.782 95.3206 552.347 Q97.1493 555.889 100.76 555.889 Q104.395 555.889 106.2 552.347 Q108.029 548.782 108.029 541.676 Q108.029 534.546 106.2 531.005 Q104.395 527.44 100.76 527.44 M100.76 523.736 Q106.571 523.736 109.626 528.343 Q112.705 532.926 112.705 541.676 Q112.705 550.403 109.626 555.009 Q106.571 559.593 100.76 559.593 Q94.9502 559.593 91.8715 555.009 Q88.816 550.403 88.816 541.676 Q88.816 532.926 91.8715 528.343 Q94.9502 523.736 100.76 523.736 Z" fill="#000000" fill-rule="evenodd" fill-opacity="1" /><path clip-path="url(#clip760)" d="M120.922 553.042 L125.807 553.042 L125.807 558.921 L120.922 558.921 L120.922 553.042 Z" fill="#000000" fill-rule="evenodd" fill-opacity="1" /><path clip-path="url(#clip760)" d="M145.992 527.44 Q142.381 527.44 140.552 531.005 Q138.746 534.546 138.746 541.676 Q138.746 548.782 140.552 552.347 Q142.381 555.889 145.992 555.889 Q149.626 555.889 151.431 552.347 Q153.26 548.782 153.26 541.676 Q153.26 534.546 151.431 531.005 Q149.626 527.44 145.992 527.44 M145.992 523.736 Q151.802 523.736 154.857 528.343 Q157.936 532.926 157.936 541.676 Q157.936 550.403 154.857 555.009 Q151.802 559.593 145.992 559.593 Q140.181 559.593 137.103 555.009 Q134.047 550.403 134.047 541.676 Q134.047 532.926 137.103 528.343 Q140.181 523.736 145.992 523.736 Z" fill="#000000" fill-rule="evenodd" fill-opacity="1" /><path clip-path="url(#clip760)" d="M166.2 524.361 L184.556 524.361 L184.556 528.296 L170.482 528.296 L170.482 536.769 Q171.501 536.421 172.519 536.259 Q173.538 536.074 174.556 536.074 Q180.343 536.074 183.723 539.245 Q187.103 542.417 187.103 547.833 Q187.103 553.412 183.63 556.514 Q180.158 559.593 173.839 559.593 Q171.663 559.593 169.394 559.222 Q167.149 558.852 164.742 558.111 L164.742 553.412 Q166.825 554.546 169.047 555.102 Q171.269 555.657 173.746 555.657 Q177.751 555.657 180.089 553.551 Q182.427 551.444 182.427 547.833 Q182.427 544.222 180.089 542.116 Q177.751 540.009 173.746 540.009 Q171.871 540.009 169.996 540.426 Q168.144 540.843 166.2 541.722 L166.2 524.361 Z" fill="#000000" fill-rule="evenodd" fill-opacity="1" /><path clip-path="url(#clip760)" d="M99.765 167.765 Q96.1539 167.765 94.3252 171.33 Q92.5197 174.872 92.5197 182.001 Q92.5197 189.108 94.3252 192.672 Q96.1539 196.214 99.765 196.214 Q103.399 196.214 105.205 192.672 Q107.033 189.108 107.033 182.001 Q107.033 174.872 105.205 171.33 Q103.399 167.765 99.765 167.765 M99.765 164.061 Q105.575 164.061 108.631 168.668 Q111.709 173.251 111.709 182.001 Q111.709 190.728 108.631 195.334 Q105.575 199.918 99.765 199.918 Q93.9549 199.918 90.8762 195.334 Q87.8206 190.728 87.8206 182.001 Q87.8206 173.251 90.8762 168.668 Q93.9549 164.061 99.765 164.061 Z" fill="#000000" fill-rule="evenodd" fill-opacity="1" /><path clip-path="url(#clip760)" d="M119.927 193.367 L124.811 193.367 L124.811 199.246 L119.927 199.246 L119.927 193.367 Z" fill="#000000" fill-rule="evenodd" fill-opacity="1" /><path clip-path="url(#clip760)" d="M135.806 195.311 L143.445 195.311 L143.445 168.946 L135.135 170.612 L135.135 166.353 L143.399 164.686 L148.075 164.686 L148.075 195.311 L155.714 195.311 L155.714 199.246 L135.806 199.246 L135.806 195.311 Z" fill="#000000" fill-rule="evenodd" fill-opacity="1" /><path clip-path="url(#clip760)" d="M175.158 167.765 Q171.547 167.765 169.718 171.33 Q167.913 174.872 167.913 182.001 Q167.913 189.108 169.718 192.672 Q171.547 196.214 175.158 196.214 Q178.792 196.214 180.598 192.672 Q182.427 189.108 182.427 182.001 Q182.427 174.872 180.598 171.33 Q178.792 167.765 175.158 167.765 M175.158 164.061 Q180.968 164.061 184.024 168.668 Q187.103 173.251 187.103 182.001 Q187.103 190.728 184.024 195.334 Q180.968 199.918 175.158 199.918 Q169.348 199.918 166.269 195.334 Q163.214 190.728 163.214 182.001 Q163.214 173.251 166.269 168.668 Q169.348 164.061 175.158 164.061 Z" fill="#000000" fill-rule="evenodd" fill-opacity="1" /><path clip-path="url(#clip760)" d="M915.347 18.8205 L915.347 41.5461 L925.637 41.5461 Q931.348 41.5461 934.468 38.5889 Q937.587 35.6318 937.587 30.163 Q937.587 24.7348 934.468 21.7777 Q931.348 18.8205 925.637 18.8205 L915.347 18.8205 M907.164 12.096 L925.637 12.096 Q935.804 12.096 940.99 16.714 Q946.215 21.2916 946.215 30.163 Q946.215 39.1155 940.99 43.6931 Q935.804 48.2706 925.637 48.2706 L915.347 48.2706 L915.347 72.576 L907.164 72.576 L907.164 12.096 Z" fill="#000000" fill-rule="evenodd" fill-opacity="1" /><path clip-path="url(#clip760)" d="M981.701 34.1734 Q980.445 33.4443 978.946 33.1202 Q977.488 32.7556 975.706 32.7556 Q969.386 32.7556 965.984 36.8875 Q962.621 40.9789 962.621 48.6757 L962.621 72.576 L955.127 72.576 L955.127 27.2059 L962.621 27.2059 L962.621 34.2544 Q964.971 30.1225 968.738 28.1376 Q972.506 26.1121 977.893 26.1121 Q978.663 26.1121 979.595 26.2337 Q980.526 26.3147 981.661 26.5172 L981.701 34.1734 Z" fill="#000000" fill-rule="evenodd" fill-opacity="1" /><path clip-path="url(#clip760)" d="M1026.5 48.0275 L1026.5 51.6733 L992.233 51.6733 Q992.72 59.3701 996.851 63.421 Q1001.02 67.4314 1008.44 67.4314 Q1012.73 67.4314 1016.74 66.3781 Q1020.79 65.3249 1024.76 63.2184 L1024.76 70.267 Q1020.75 71.9684 1016.54 72.8596 Q1012.33 73.7508 1007.99 73.7508 Q997.135 73.7508 990.775 67.4314 Q984.456 61.1119 984.456 50.3365 Q984.456 39.1965 990.451 32.6746 Q996.487 26.1121 1006.7 26.1121 Q1015.85 26.1121 1021.16 32.0264 Q1026.5 37.9003 1026.5 48.0275 M1019.05 45.84 Q1018.97 39.7232 1015.61 36.0774 Q1012.29 32.4315 1006.78 32.4315 Q1000.54 32.4315 996.77 35.9558 Q993.044 39.4801 992.477 45.8805 L1019.05 45.84 Z" fill="#000000" fill-rule="evenodd" fill-opacity="1" /><path clip-path="url(#clip760)" d="M1068.59 34.0924 L1068.59 9.54393 L1076.05 9.54393 L1076.05 72.576 L1068.59 72.576 L1068.59 65.7705 Q1066.24 69.8214 1062.64 71.8063 Q1059.07 73.7508 1054.05 73.7508 Q1045.83 73.7508 1040.64 67.1883 Q1035.5 60.6258 1035.5 49.9314 Q1035.5 39.2371 1040.64 32.6746 Q1045.83 26.1121 1054.05 26.1121 Q1059.07 26.1121 1062.64 28.0971 Q1066.24 30.0415 1068.59 34.0924 M1043.19 49.9314 Q1043.19 58.1548 1046.56 62.8538 Q1049.96 67.5124 1055.87 67.5124 Q1061.79 67.5124 1065.19 62.8538 Q1068.59 58.1548 1068.59 49.9314 Q1068.59 41.7081 1065.19 37.0496 Q1061.79 32.3505 1055.87 32.3505 Q1049.96 32.3505 1046.56 37.0496 Q1043.19 41.7081 1043.19 49.9314 Z" fill="#000000" fill-rule="evenodd" fill-opacity="1" /><path clip-path="url(#clip760)" d="M1091.4 27.2059 L1098.85 27.2059 L1098.85 72.576 L1091.4 72.576 L1091.4 27.2059 M1091.4 9.54393 L1098.85 9.54393 L1098.85 18.9825 L1091.4 18.9825 L1091.4 9.54393 Z" fill="#000000" fill-rule="evenodd" fill-opacity="1" /><path clip-path="url(#clip760)" d="M1147.1 28.9478 L1147.1 35.9153 Q1143.94 34.1734 1140.74 33.3227 Q1137.58 32.4315 1134.34 32.4315 Q1127.09 32.4315 1123.08 37.0496 Q1119.07 41.6271 1119.07 49.9314 Q1119.07 58.2358 1123.08 62.8538 Q1127.09 67.4314 1134.34 67.4314 Q1137.58 67.4314 1140.74 66.5807 Q1143.94 65.6895 1147.1 63.9476 L1147.1 70.8341 Q1143.98 72.2924 1140.62 73.0216 Q1137.3 73.7508 1133.53 73.7508 Q1123.28 73.7508 1117.24 67.3098 Q1111.21 60.8689 1111.21 49.9314 Q1111.21 38.832 1117.28 32.472 Q1123.4 26.1121 1134.02 26.1121 Q1137.46 26.1121 1140.74 26.8413 Q1144.02 27.5299 1147.1 28.9478 Z" fill="#000000" fill-rule="evenodd" fill-opacity="1" /><path clip-path="url(#clip760)" d="M1167.44 14.324 L1167.44 27.2059 L1182.79 27.2059 L1182.79 32.9987 L1167.44 32.9987 L1167.44 57.6282 Q1167.44 63.1779 1168.93 64.7578 Q1170.47 66.3376 1175.13 66.3376 L1182.79 66.3376 L1182.79 72.576 L1175.13 72.576 Q1166.5 72.576 1163.22 69.3758 Q1159.94 66.1351 1159.94 57.6282 L1159.94 32.9987 L1154.47 32.9987 L1154.47 27.2059 L1159.94 27.2059 L1159.94 14.324 L1167.44 14.324 Z" fill="#000000" fill-rule="evenodd" fill-opacity="1" /><path clip-path="url(#clip760)" d="M1192.59 27.2059 L1200.04 27.2059 L1200.04 72.576 L1192.59 72.576 L1192.59 27.2059 M1192.59 9.54393 L1200.04 9.54393 L1200.04 18.9825 L1192.59 18.9825 L1192.59 9.54393 Z" fill="#000000" fill-rule="evenodd" fill-opacity="1" /><path clip-path="url(#clip760)" d="M1210.29 27.2059 L1218.19 27.2059 L1232.37 65.2844 L1246.55 27.2059 L1254.45 27.2059 L1237.43 72.576 L1227.31 72.576 L1210.29 27.2059 Z" fill="#000000" fill-rule="evenodd" fill-opacity="1" /><path clip-path="url(#clip760)" d="M1303.55 48.0275 L1303.55 51.6733 L1269.27 51.6733 Q1269.76 59.3701 1273.89 63.421 Q1278.07 67.4314 1285.48 67.4314 Q1289.77 67.4314 1293.78 66.3781 Q1297.83 65.3249 1301.8 63.2184 L1301.8 70.267 Q1297.79 71.9684 1293.58 72.8596 Q1289.37 73.7508 1285.03 73.7508 Q1274.18 73.7508 1267.82 67.4314 Q1261.5 61.1119 1261.5 50.3365 Q1261.5 39.1965 1267.49 32.6746 Q1273.53 26.1121 1283.74 26.1121 Q1292.89 26.1121 1298.2 32.0264 Q1303.55 37.9003 1303.55 48.0275 M1296.09 45.84 Q1296.01 39.7232 1292.65 36.0774 Q1289.33 32.4315 1283.82 32.4315 Q1277.58 32.4315 1273.81 35.9558 Q1270.08 39.4801 1269.52 45.8805 L1296.09 45.84 Z" fill="#000000" fill-rule="evenodd" fill-opacity="1" /><path clip-path="url(#clip760)" d="M1349.36 65.7705 L1349.36 89.8329 L1341.87 89.8329 L1341.87 27.2059 L1349.36 27.2059 L1349.36 34.0924 Q1351.71 30.0415 1355.28 28.0971 Q1358.88 26.1121 1363.86 26.1121 Q1372.13 26.1121 1377.27 32.6746 Q1382.46 39.2371 1382.46 49.9314 Q1382.46 60.6258 1377.27 67.1883 Q1372.13 73.7508 1363.86 73.7508 Q1358.88 73.7508 1355.28 71.8063 Q1351.71 69.8214 1349.36 65.7705 M1374.72 49.9314 Q1374.72 41.7081 1371.32 37.0496 Q1367.95 32.3505 1362.04 32.3505 Q1356.13 32.3505 1352.72 37.0496 Q1349.36 41.7081 1349.36 49.9314 Q1349.36 58.1548 1352.72 62.8538 Q1356.13 67.5124 1362.04 67.5124 Q1367.95 67.5124 1371.32 62.8538 Q1374.72 58.1548 1374.72 49.9314 Z" fill="#000000" fill-rule="evenodd" fill-opacity="1" /><path clip-path="url(#clip760)" d="M1394.81 9.54393 L1402.27 9.54393 L1402.27 72.576 L1394.81 72.576 L1394.81 9.54393 Z" fill="#000000" fill-rule="evenodd" fill-opacity="1" /><path clip-path="url(#clip760)" d="M1435.44 32.4315 Q1429.45 32.4315 1425.96 37.1306 Q1422.48 41.7891 1422.48 49.9314 Q1422.48 58.0738 1425.92 62.7728 Q1429.41 67.4314 1435.44 67.4314 Q1441.4 67.4314 1444.88 62.7323 Q1448.37 58.0333 1448.37 49.9314 Q1448.37 41.8701 1444.88 37.1711 Q1441.4 32.4315 1435.44 32.4315 M1435.44 26.1121 Q1445.17 26.1121 1450.71 32.4315 Q1456.26 38.7509 1456.26 49.9314 Q1456.26 61.0714 1450.71 67.4314 Q1445.17 73.7508 1435.44 73.7508 Q1425.68 73.7508 1420.13 67.4314 Q1414.62 61.0714 1414.62 49.9314 Q1414.62 38.7509 1420.13 32.4315 Q1425.68 26.1121 1435.44 26.1121 Z" fill="#000000" fill-rule="evenodd" fill-opacity="1" /><path clip-path="url(#clip760)" d="M1475.99 14.324 L1475.99 27.2059 L1491.35 27.2059 L1491.35 32.9987 L1475.99 32.9987 L1475.99 57.6282 Q1475.99 63.1779 1477.49 64.7578 Q1479.03 66.3376 1483.69 66.3376 L1491.35 66.3376 L1491.35 72.576 L1483.69 72.576 Q1475.06 72.576 1471.78 69.3758 Q1468.5 66.1351 1468.5 57.6282 L1468.5 32.9987 L1463.03 32.9987 L1463.03 27.2059 L1468.5 27.2059 L1468.5 14.324 L1475.99 14.324 Z" fill="#000000" fill-rule="evenodd" fill-opacity="1" /><path clip-path="url(#clip760)" d="M1527.52 27.2059 L1534.97 27.2059 L1534.97 72.576 L1527.52 72.576 L1527.52 27.2059 M1527.52 9.54393 L1534.97 9.54393 L1534.97 18.9825 L1527.52 18.9825 L1527.52 9.54393 Z" fill="#000000" fill-rule="evenodd" fill-opacity="1" /><path clip-path="url(#clip760)" d="M1588.28 45.1919 L1588.28 72.576 L1580.83 72.576 L1580.83 45.4349 Q1580.83 38.994 1578.32 35.7938 Q1575.81 32.5936 1570.78 32.5936 Q1564.75 32.5936 1561.26 36.4419 Q1557.78 40.2903 1557.78 46.9338 L1557.78 72.576 L1550.29 72.576 L1550.29 27.2059 L1557.78 27.2059 L1557.78 34.2544 Q1560.45 30.163 1564.06 28.1376 Q1567.7 26.1121 1572.44 26.1121 Q1580.26 26.1121 1584.27 30.9732 Q1588.28 35.7938 1588.28 45.1919 Z" fill="#000000" fill-rule="evenodd" fill-opacity="1" /><path clip-path="url(#clip760)" d="M1636.98 69.7809 L1636.98 89.8329 L1629.48 89.8329 L1629.48 27.4894 Q1629.48 9.01731 1646.74 9.01731 Q1664.32 9.01731 1664.32 24.6133 Q1664.32 35.7128 1657.35 39.7637 Q1668.69 43.4095 1668.69 54.2254 Q1668.69 73.4267 1649.17 73.4267 Q1640.58 73.4267 1636.98 69.7809 M1636.98 60.0587 Q1641.47 67.0668 1649.45 67.0668 Q1661.12 67.0668 1661.12 54.3469 Q1661.12 42.9234 1642.32 43.8146 L1642.32 36.928 Q1657.03 36.928 1657.03 23.9651 Q1657.03 15.0937 1647.55 15.0937 Q1636.98 15.0937 1636.98 27.7325 L1636.98 60.0587 Z" fill="#000000" fill-rule="evenodd" fill-opacity="1" /><polyline clip-path="url(#clip762)" style="stroke:#009af9; stroke-linecap:round; stroke-linejoin:round; stroke-width:4.8; stroke-opacity:1; fill:none" points="
  283.376,881.385 284.047,873.844 284.718,866.413 285.389,858.898 286.06,851.12 286.731,842.921 287.402,834.154 288.073,824.676 288.744,814.346 289.415,803.027 
  290.086,790.586 290.757,776.892 291.428,761.822 292.099,745.27 292.77,727.158 293.441,707.46 294.112,686.193 294.783,663.451 295.455,639.472 296.126,614.684 
  296.797,589.771 297.468,565.656 298.139,543.583 298.81,525.231 299.481,512.758 300.152,508.619 300.823,515.678 301.494,536.696 302.165,573.787 302.836,628.156 
  303.507,699.898 304.178,787.052 304.849,885.825 305.52,990.972 306.191,1096.19 306.862,1194.89 307.533,1281.36 308.204,1351.36 308.875,1402.47 309.546,1434.21 
  310.217,1447.87 310.889,1445.97 311.56,1431.45 312.231,1407.45 312.902,1376.98 313.573,1342.61 314.244,1306.39 314.915,1269.96 315.586,1234.45 316.257,1200.66 
  316.928,1169.1 317.599,1140.08 318.27,1113.77 318.941,1090.17 319.612,1069.21 320.283,1050.77 320.954,1034.69 321.625,1020.75 322.296,1008.76 322.967,998.502 
  323.638,989.844 324.309,982.646 324.98,976.733 325.652,971.919 326.323,968.024 326.994,964.897 327.665,962.434 328.336,960.544 329.007,959.118 329.678,958.038 
  330.349,957.194 331.02,956.488 331.691,955.844 332.362,955.205 333.033,954.516 333.704,953.711 334.375,952.718 335.046,951.469 335.717,949.91 336.388,948 
  337.059,945.724 337.73,943.068 338.401,940.026 339.072,936.594 339.743,932.772 340.414,928.567 341.086,924.001 341.757,919.115 342.428,913.966 343.099,908.627 
  343.77,903.175 344.441,897.682 345.112,892.222 345.783,886.875 346.454,881.72 347.125,876.832 347.796,872.278 348.467,868.116 349.138,864.397 349.809,861.168 
  350.48,858.479 351.151,856.362 351.822,854.833 352.493,853.888 353.164,853.508 353.835,853.665 354.506,854.332 355.177,855.48 355.849,857.08 356.52,859.101 
  357.191,861.514 357.862,864.279 358.533,867.345 359.204,870.657 359.875,874.169 360.546,877.838 361.217,881.637 361.888,885.541 362.559,889.521 363.23,893.547 
  363.901,897.587 364.572,901.594 365.243,905.534 365.914,909.401 366.585,913.201 367.256,916.948 367.927,920.647 368.598,924.267 369.269,927.763 369.94,931.089 
  370.611,934.201 371.283,937.053 371.954,939.6 372.625,941.797 373.296,943.632 373.967,945.113 374.638,946.239 375.309,947.002 375.98,947.374 376.651,947.306 
  377.322,946.761 377.993,945.725 378.664,944.182 379.335,942.115 380.006,939.51 380.677,936.371 381.348,932.718 382.019,928.59 382.69,924.037 383.361,919.119 
  384.032,913.897 384.703,908.442 385.374,902.829 386.046,897.134 386.717,891.433 387.388,885.801 388.059,880.314 388.73,875.06 389.401,870.14 390.072,865.65 
  390.743,861.666 391.414,858.24 392.085,855.393 392.756,853.132 393.427,851.463 394.098,850.395 394.769,849.934 395.44,850.086 396.111,850.83 396.782,852.124 
  397.453,853.91 398.124,856.127 398.795,858.718 399.466,861.646 400.137,864.873 400.808,868.365 401.48,872.085 402.151,875.995 402.822,880.06 403.493,884.225 
  404.164,888.442 404.835,892.679 405.506,896.92 406.177,901.158 406.848,905.394 407.519,909.606 408.19,913.76 408.861,917.821 409.532,921.756 410.203,925.529 
  410.874,929.108 411.545,932.462 412.216,935.579 412.887,938.46 413.558,941.108 414.229,943.516 414.9,945.66 415.571,947.497 416.243,948.977 416.914,950.051 
  417.585,950.672 418.256,950.79 418.927,950.358 419.598,949.337 420.269,947.744 420.94,945.59 421.611,942.882 422.282,939.626 422.953,935.822 423.624,931.476 
  424.295,926.652 424.966,921.421 425.637,915.853 426.308,910.02 426.979,903.991 427.65,897.838 428.321,891.634 428.992,885.479 429.663,879.492 430.334,873.795 
  431.005,868.493 431.677,863.665 432.348,859.355 433.019,855.596 433.69,852.423 434.361,849.872 435.032,847.978 435.703,846.775 436.374,846.27 437.045,846.439 
  437.716,847.23 438.387,848.581 439.058,850.427 439.729,852.724 440.4,855.436 441.071,858.525 441.742,861.954 442.413,865.685 443.084,869.681 443.755,873.897 
  444.426,878.258 445.097,882.7 445.768,887.176 446.44,891.663 447.111,896.153 447.782,900.65 448.453,905.13 449.124,909.56 449.795,913.912 450.466,918.154 
  451.137,922.255 451.808,926.169 452.479,929.874 453.15,933.377 453.821,936.699 454.492,939.858 455.163,942.855 455.834,945.643 456.505,948.158 457.176,950.338 
  457.847,952.122 458.518,953.445 459.189,954.247 459.86,954.464 460.531,954.052 461.202,953.046 461.874,951.466 462.545,949.319 463.216,946.596 463.887,943.27 
  464.558,939.314 465.229,934.779 465.9,929.728 466.571,924.224 467.242,918.329 467.913,912.107 468.584,905.615 469.255,898.927 469.926,892.162 470.597,885.462 
  471.268,878.975 471.939,872.83 472.61,867.112 473.281,861.87 473.952,857.148 474.623,852.994 475.294,849.454 475.965,846.573 476.637,844.416 477.308,843.024 
  477.979,842.4 478.65,842.507 479.321,843.283 479.992,844.651 480.663,846.558 481.334,848.965 482.005,851.831 482.676,855.116 483.347,858.778 484.018,862.779 
  484.689,867.053 485.36,871.518 486.031,876.103 486.702,880.756 487.373,885.448 488.044,890.175 488.715,894.929 489.386,899.681 490.057,904.402 490.728,909.063 
  491.399,913.635 492.071,918.069 492.742,922.316 493.413,926.372 494.084,930.27 494.755,934.047 495.426,937.74 496.097,941.333 496.768,944.758 497.439,947.943 
  498.11,950.818 498.781,953.312 499.452,955.356 500.123,956.878 500.794,957.809 501.465,958.101 502.136,957.801 502.807,956.934 503.478,955.503 504.149,953.485 
  504.82,950.828 505.491,947.475 506.162,943.459 506.834,938.825 507.505,933.618 508.176,927.881 508.847,921.659 509.518,914.985 510.189,907.944 510.86,900.675 
  511.531,893.347 512.202,886.13 512.873,879.171 513.544,872.549 514.215,866.321 514.886,860.545 515.557,855.277 516.228,850.575 516.899,846.503 517.57,843.166 
  518.241,840.648 518.912,838.989 519.583,838.18 520.254,838.164 520.925,838.853 521.596,840.194 522.268,842.143 522.939,844.654 523.61,847.684 524.281,851.187 
  524.952,855.096 525.623,859.325 526.294,863.794 526.965,868.435 527.636,873.2 528.307,878.068 528.978,883.018 529.649,888.019 530.32,893.041 530.991,898.053 
  531.662,903.025 532.333,907.883 533.004,912.575 533.675,917.112 534.346,921.538 535.017,925.914 535.688,930.293 536.359,934.648 537.031,938.906 537.702,942.996 
  538.373,946.847 539.044,950.385 539.715,953.54 540.386,956.239 541.057,958.41 541.728,959.994 542.399,961.033 543.07,961.565 543.741,961.6 544.412,961.112 
  545.083,960.034 545.754,958.263 546.425,955.779 547.096,952.585 547.767,948.682 548.438,944.073 549.109,938.757 549.78,932.73 550.451,926.059 551.122,918.875 
  551.793,911.351 552.465,903.667 553.136,895.976 553.807,888.363 554.478,880.899 555.149,873.656 555.82,866.707 556.491,860.124 557.162,853.982 557.833,848.43 
  558.504,843.635 559.175,839.724 559.846,836.77 560.517,834.769 561.188,833.643 561.859,833.335 562.53,833.808 563.201,835.024 563.872,836.948 564.543,839.532 
  565.214,842.699 565.885,846.356 566.556,850.407 567.228,854.769 567.899,859.38 568.57,864.205 569.241,869.205 569.912,874.341 570.583,879.577 571.254,884.874 
  571.925,890.176 572.596,895.424 573.267,900.597 573.938,905.704 574.609,910.765 575.28,915.808 575.951,920.826 576.622,925.773 577.293,930.6 577.964,935.259 
  578.635,939.704 579.306,943.887 579.977,947.761 580.648,951.294 581.319,954.494 581.99,957.369 582.662,959.917 583.333,962.112 584.004,963.894 584.675,965.182 
  585.346,965.913 586.017,966.022 586.688,965.447 587.359,964.121 588.03,961.989 588.701,959.039 589.372,955.275 590.043,950.709 590.714,945.373 591.385,939.313 
  592.056,932.582 592.727,925.281 593.398,917.521 594.069,909.415 594.74,901.073 595.411,892.607 596.082,884.128 596.753,875.761 597.425,867.669 598.096,860.036 
  598.767,853.032 599.438,846.793 600.109,841.402 600.78,836.889 601.451,833.274 602.122,830.582 602.793,828.833 603.464,828.045 604.135,828.199 604.806,829.234 
  605.477,831.059 606.148,833.567 606.819,836.664 607.49,840.281 608.161,844.359 608.832,848.84 609.503,853.666 610.174,858.778 610.845,864.114 611.516,869.59 
  612.187,875.14 612.859,880.716 613.53,886.291 614.201,891.857 614.872,897.415 615.543,902.941 616.214,908.406 616.885,913.785 617.556,919.048 618.227,924.168 
  618.898,929.097 619.569,933.823 620.24,938.368 620.911,942.765 621.582,947.039 622.253,951.192 622.924,955.159 623.595,958.86 624.266,962.215 624.937,965.142 
  625.608,967.56 626.279,969.39 626.95,970.555 627.622,971.059 628.293,970.894 628.964,970.025 629.635,968.398 630.306,965.947 630.977,962.597 631.648,958.361 
  632.319,953.276 632.99,947.38 633.661,940.709 634.332,933.301 635.003,925.186 635.674,916.457 636.345,907.285 637.016,897.892 637.687,888.513 638.358,879.352 
  639.029,870.535 639.7,862.154 640.371,854.297 641.042,847.058 641.713,840.525 642.384,834.831 643.056,830.126 643.727,826.517 644.398,824.046 645.069,822.689 
  645.74,822.353 646.411,822.945 647.082,824.404 647.753,826.664 648.424,829.663 649.095,833.334 649.766,837.579 650.437,842.286 651.108,847.345 651.779,852.659 
  652.45,858.162 653.121,863.815 653.792,869.586 654.463,875.437 655.134,881.334 655.805,887.24 656.476,893.088 657.147,898.837 657.819,904.485 658.49,910.056 
  659.161,915.584 659.832,921.099 660.503,926.575 661.174,931.963 661.845,937.211 662.516,942.272 663.187,947.096 663.858,951.632 664.529,955.835 665.2,959.694 
  665.871,963.224 666.542,966.43 667.213,969.298 667.884,971.778 668.555,973.776 669.226,975.2 669.897,975.965 670.568,975.985 671.239,975.176 671.91,973.46 
  672.581,970.813 673.253,967.212 673.924,962.638 674.595,957.089 675.266,950.585 675.937,943.168 676.608,934.959 677.279,926.091 677.95,916.7 678.621,906.923 
  679.292,896.893 679.963,886.745 680.634,876.632 681.305,866.76 681.976,857.361 682.647,848.655 683.318,840.824 683.989,833.98 684.66,828.173 685.331,823.447 
  686.002,819.844 686.673,817.405 687.344,816.149 688.015,816.037 688.687,816.986 689.358,818.878 690.029,821.587 690.7,825.01 691.371,829.067 692.042,833.679 
  692.713,838.768 693.384,844.257 694.055,850.065 694.726,856.091 695.397,862.244 696.068,868.453 696.739,874.673 697.41,880.882 698.081,887.077 698.752,893.238 
  699.423,899.343 700.094,905.369 700.765,911.295 701.436,917.074 702.107,922.65 702.778,928.039 703.45,933.294 704.121,938.483 704.792,943.667 705.463,948.838 
  706.134,953.912 706.805,958.802 707.476,963.42 708.147,967.678 708.818,971.49 709.489,974.767 710.16,977.423 710.831,979.439 711.502,980.833 712.173,981.586 
  712.844,981.646 713.515,980.926 714.186,979.298 714.857,976.68 715.528,973.047 716.199,968.371 716.87,962.625 717.541,955.775 718.212,947.798 718.884,938.788 
  719.555,928.937 720.226,918.502 720.897,907.753 721.568,896.908 722.239,886.092 722.91,875.42 723.581,865.004 724.252,854.96 724.923,845.402 725.594,836.546 
  726.265,828.671 726.936,822.017 727.607,816.743 728.278,812.895 728.949,810.384 729.62,809.113 730.291,809.024 730.962,810.058 731.633,812.153 732.304,815.208 
  732.975,819.088 733.647,823.644 734.318,828.729 734.989,834.228 735.66,840.065 736.331,846.183 737.002,852.521 737.673,859.022 738.344,865.619 739.015,872.237 
  739.686,878.82 740.357,885.34 741.028,891.791 741.699,898.18 742.37,904.516 743.041,910.778 743.712,916.941 744.383,922.981 745.054,928.875 745.725,934.597 
  746.396,940.124 747.067,945.469 747.738,950.665 748.409,955.739 749.081,960.699 749.752,965.508 750.423,970.083 751.094,974.334 751.765,978.169 752.436,981.498 
  753.107,984.23 753.778,986.309 754.449,987.692 755.12,988.304 755.791,988.047 756.462,986.818 757.133,984.509 757.804,981.063 758.475,976.474 759.146,970.733 
  759.817,963.833 760.488,955.765 761.159,946.524 761.83,936.182 762.501,924.929 763.172,913.037 763.844,900.816 764.515,888.553 765.186,876.452 765.857,864.672 
  766.528,853.367 767.199,842.694 767.87,832.82 768.541,823.993 769.212,816.453 769.883,810.378 770.554,805.853 771.225,802.856 771.896,801.271 772.567,801.007 
  773.238,801.981 773.909,804.112 774.58,807.307 775.251,811.428 775.922,816.312 776.593,821.792 777.264,827.72 777.935,833.987 778.606,840.527 779.278,847.28 
  779.949,854.185 780.62,861.181 781.291,868.189 781.962,875.151 782.633,882.032 783.304,888.824 783.975,895.533 784.646,902.172 785.317,908.728 785.988,915.18 
  786.659,921.509 787.33,927.693 788.001,933.713 788.672,939.551 789.343,945.23 790.014,950.787 790.685,956.254 791.356,961.638 792.027,966.903 792.698,971.966 
  793.369,976.742 794.041,981.142 794.712,985.081 795.383,988.474 796.054,991.271 796.725,993.405 797.396,994.787 798.067,995.313 798.738,994.865 799.409,993.328 
  800.08,990.627 800.751,986.7 801.422,981.484 802.093,974.918 802.764,966.938 803.435,957.538 804.106,946.83 804.777,935.03 805.448,922.425 806.119,909.314 
  806.79,895.95 807.461,882.531 808.132,869.252 808.803,856.308 809.475,843.893 810.146,832.275 810.817,821.782 811.488,812.707 812.159,805.258 812.83,799.522 
  813.501,795.452 814.172,792.962 814.843,791.986 815.514,792.459 816.185,794.302 816.856,797.377 817.527,801.503 818.198,806.484 818.869,812.135 819.54,818.315 
  820.211,824.927 820.882,831.887 821.553,839.107 822.224,846.497 822.895,853.958 823.566,861.41 824.238,868.798 824.909,876.094 825.58,883.29 826.251,890.39 
  826.922,897.382 827.593,904.251 828.264,910.984 828.935,917.566 829.606,923.972 830.277,930.213 830.948,936.336 831.619,942.395 832.29,948.433 832.961,954.459 
  833.632,960.421 834.303,966.251 834.974,971.879 835.645,977.238 836.316,982.259 836.987,986.878 837.658,991.059 838.329,994.763 839,997.937 839.672,1000.5 
  840.343,1002.32 841.014,1003.27 841.685,1003.18 842.356,1001.91 843.027,999.317 843.698,995.259 844.369,989.652 845.04,982.465 845.711,973.718 846.382,963.5 
  847.053,951.95 847.724,939.234 848.395,925.573 849.066,911.203 849.737,896.361 850.408,881.285 851.079,866.218 851.75,851.488 852.421,837.494 853.092,824.629 
  853.763,813.223 854.435,803.492 855.106,795.511 855.777,789.306 856.448,784.904 857.119,782.325 857.79,781.529 858.461,782.393 859.132,784.731 859.803,788.328 
  860.474,792.975 861.145,798.512 861.816,804.801 862.487,811.702 863.158,819.077 863.829,826.784 864.5,834.682 865.171,842.652 865.842,850.604 866.513,858.483 
  867.184,866.263 867.855,873.931 868.526,881.472 869.197,888.872 869.869,896.116 870.54,903.144 871.211,909.937 871.882,916.541 872.553,923.043 873.224,929.539 
  873.895,936.108 874.566,942.733 875.237,949.351 875.908,955.899 876.579,962.314 877.25,968.534 877.921,974.496 878.592,980.138 879.263,985.44 879.934,990.442 
  880.605,995.173 881.276,999.62 881.947,1003.7 882.618,1007.25 883.289,1010.06 883.96,1011.96 884.632,1012.78 885.303,1012.34 885.974,1010.58 886.645,1007.35 
  887.316,1002.48 887.987,995.834 888.658,987.332 889.329,976.981 890,964.973 890.671,951.534 891.342,936.886 892.013,921.254 892.684,904.862 893.355,887.937 
  894.026,870.822 894.697,853.967 895.368,837.855 896.039,822.933 896.71,809.543 897.381,797.874 898.052,788.059 898.723,780.235 899.394,774.517 900.066,770.938 
  900.737,769.432 901.408,769.842 902.079,771.951 902.75,775.532 903.421,780.387 904.092,786.326 904.763,793.156 905.434,800.688 906.105,808.727 906.776,817.085 
  907.447,825.598 908.118,834.14 908.789,842.63 909.46,851.024 910.131,859.296 910.802,867.428 911.473,875.396 912.144,883.165 912.815,890.698 913.486,898.006 
  914.157,905.134 914.829,912.143 915.5,919.096 916.171,926.015 916.842,932.876 917.513,939.654 918.184,946.323 918.855,952.858 919.526,959.238 920.197,965.483 
  920.868,971.652 921.539,977.796 922.21,983.935 922.881,990.035 923.552,995.988 924.223,1001.67 924.894,1006.96 925.565,1011.72 926.236,1015.85 926.907,1019.23 
  927.578,1021.7 928.249,1023.09 928.92,1023.2 929.591,1021.85 930.263,1018.9 930.934,1014.21 931.605,1007.66 932.276,999.141 932.947,988.522 933.618,975.713 
  934.289,960.816 934.96,944.145 935.631,926.163 936.302,907.401 936.973,888.343 937.644,869.337 938.315,850.692 938.986,832.715 939.657,815.734 940.328,800.214 
  940.999,786.637 941.67,775.39 942.341,766.697 943.012,760.579 943.683,756.869 944.354,755.41 945.026,756.057 945.697,758.649 946.368,762.947 947.039,768.661 
  947.71,775.483 948.381,783.133 949.052,791.39 949.723,800.108 950.394,809.154 951.065,818.393 951.736,827.682 952.407,836.896 953.078,845.942 953.749,854.767 
  954.42,863.351 955.091,871.696 955.762,879.801 956.433,887.661 957.104,895.27 957.775,902.612 958.446,909.709 959.117,916.623 959.788,923.434 960.46,930.22 
  961.131,937.03 961.802,943.858 962.473,950.677 963.144,957.46 963.815,964.18 964.486,970.81 965.157,977.35 965.828,983.838 966.499,990.321 967.17,996.814 
  967.841,1003.28 968.512,1009.6 969.183,1015.63 969.854,1021.19 970.525,1026.14 971.196,1030.31 971.867,1033.56 972.538,1035.67 973.209,1036.4 973.88,1035.5 
  974.551,1032.76 975.223,1028.01 975.894,1021.11 976.565,1011.95 977.236,1000.41 977.907,986.36 978.578,969.809 979.249,951.033 979.92,930.532 980.591,908.942 
  981.262,886.913 981.933,864.97 982.604,843.503 983.275,822.893 983.946,803.539 984.617,785.976 985.288,770.756 985.959,758.31 986.63,748.878 987.301,742.465 
  987.972,738.862 988.643,737.855 989.314,739.248 989.985,742.806 990.657,748.213 991.328,755.109 991.999,763.137 992.67,771.982 993.341,781.411 994.012,791.258 
  994.683,801.36 995.354,811.547 996.025,821.661 996.696,831.578 997.367,841.215 998.038,850.534 998.709,859.528 999.38,868.195 1000.05,876.532 1000.72,884.531 
  1001.39,892.179 1002.06,899.51 1002.74,906.596 1003.41,913.528 1004.08,920.39 1004.75,927.236 1005.42,934.059 1006.09,940.847 1006.76,947.587 1007.43,954.263 
  1008.1,960.882 1008.77,967.51 1009.45,974.229 1010.12,981.103 1010.79,988.157 1011.46,995.35 1012.13,1002.59 1012.8,1009.79 1013.47,1016.87 1014.14,1023.67 
  1014.81,1030.07 1015.49,1035.99 1016.16,1041.33 1016.83,1045.96 1017.5,1049.68 1018.17,1052.16 1018.84,1053 1019.51,1051.8 1020.18,1048.18 1020.85,1041.76 
  1021.52,1032.4 1022.2,1020.05 1022.87,1004.76 1023.54,986.713 1024.21,966.166 1024.88,943.426 1025.55,918.995 1026.22,893.416 1026.89,867.252 1027.56,841.22 
  1028.24,816.165 1028.91,792.917 1029.58,772.178 1030.25,754.426 1030.92,739.877 1031.59,728.651 1032.26,720.857 1032.93,716.482 1033.6,715.348 1034.27,717.129 
  1034.95,721.404 1035.62,727.733 1036.29,735.738 1036.96,745.07 1037.63,755.382 1038.3,766.35 1038.97,777.669 1039.64,789.074 1040.31,800.366 1040.98,811.409 
  1041.66,822.117 1042.33,832.454 1043,842.391 1043.67,851.891 1044.34,860.916 1045.01,869.465 1045.68,877.577 1046.35,885.309 1047.02,892.729 1047.7,899.885 
  1048.37,906.786 1049.04,913.438 1049.71,919.855 1050.38,926.099 1051.05,932.26 1051.72,938.426 1052.39,944.677 1053.06,951.055 1053.73,957.565 1054.41,964.219 
  1055.08,971.026 1055.75,977.981 1056.42,985.118 1057.09,992.487 1057.76,1000.13 1058.43,1008.04 1059.1,1016.17 1059.77,1024.38 1060.45,1032.55 1061.12,1040.52 
  1061.79,1048.15 1062.46,1055.23 1063.13,1061.56 1063.8,1066.92 1064.47,1071.04 1065.14,1073.59 1065.81,1074.18 1066.48,1072.33 1067.16,1067.58 1067.83,1059.43 
  1068.5,1047.53 1069.17,1031.74 1069.84,1012.16 1070.51,989.117 1071.18,963.146 1071.85,934.836 1072.52,904.821 1073.19,873.785 1073.87,842.43 1074.54,811.69 
  1075.21,782.673 1075.88,756.445 1076.55,733.864 1077.22,715.459 1077.89,701.367 1078.56,691.603 1079.23,686.116 1079.91,684.656 1080.58,686.796 1081.25,691.992 
  1081.92,699.654 1082.59,709.257 1083.26,720.362 1083.93,732.537 1084.6,745.376 1085.27,758.498 1085.94,771.59 1086.62,784.417 1087.29,796.826 1087.96,808.722 
  1088.63,820.056 1089.3,830.783 1089.97,840.854 1090.64,850.255 1091.31,859.014 1091.98,867.186 1092.66,874.837 1093.33,882.022 1094,888.757 1094.67,895.053 
  1095.34,900.956 1096.01,906.547 1096.68,911.923 1097.35,917.175 1098.02,922.376 1098.69,927.559 1099.37,932.748 1100.04,937.975 1100.71,943.291 1101.38,948.759 
  1102.05,954.444 1102.72,960.404 1103.39,966.679 1104.06,973.293 1104.73,980.264 1105.41,987.609 1106.08,995.3 1106.75,1003.37 1107.42,1011.86 1108.09,1020.84 
  1108.76,1030.3 1109.43,1040.17 1110.1,1050.25 1110.77,1060.32 1111.44,1070.16 1112.12,1079.54 1112.79,1088.17 1113.46,1095.73 1114.13,1101.83 1114.8,1106.02 
  1115.47,1107.74 1116.14,1106.42 1116.81,1101.38 1117.48,1091.95 1118.15,1077.51 1118.83,1057.79 1119.5,1032.77 1120.17,1002.85 1120.84,968.719 1121.51,931.306 
  1122.18,891.615 1122.85,850.793 1123.52,810.203 1124.19,771.408 1124.87,735.921 1125.54,705.006 1126.21,679.531 1126.88,659.894 1127.55,646.231 1128.22,638.43 
  1128.89,636.098 1129.56,638.603 1130.23,645.155 1130.9,654.937 1131.58,667.234 1132.25,681.358 1132.92,696.655 1133.59,712.537 1134.26,728.527 1134.93,744.27 
  1135.6,759.513 1136.27,774.083 1136.94,787.84 1137.62,800.678 1138.29,812.536 1138.96,823.404 1139.63,833.303 1140.3,842.271 1140.97,850.332 1141.64,857.531 
  1142.31,863.94 1142.98,869.643 1143.65,874.726 1144.33,879.256 1145,883.272 1145.67,886.821 1146.34,889.966 1147.01,892.768 1147.68,895.287 1148.35,897.57 
  1149.02,899.647 1149.69,901.553 1150.37,903.326 1151.04,905.005 1151.71,906.621 1152.38,908.199 1153.05,909.756 1153.72,911.318 1154.39,912.908 1155.06,914.555 
  1155.73,916.284 1156.4,918.117 1157.08,920.071 1157.75,922.171 1158.42,924.44 1159.09,926.902 1159.76,929.586 1160.43,932.522 1161.1,935.74 1161.77,939.275 
  1162.44,943.164 1163.11,947.443 1163.79,952.153 1164.46,957.337 1165.13,963.042 1165.8,969.318 1166.47,976.218 1167.14,983.8 1167.81,992.119 1168.48,1001.23 
  1169.15,1011.14 1169.83,1021.89 1170.5,1033.56 1171.17,1046.24 1171.84,1059.94 1172.51,1074.61 1173.18,1090.03 1173.85,1105.96 1174.52,1122.11 1175.19,1138.06 
  1175.86,1153.38 1176.54,1167.59 1177.21,1179.97 1177.88,1189.56 1178.55,1195.09 1179.22,1194.95 1179.89,1187.46 1180.56,1171.37 1181.23,1145.66 1181.9,1109.89 
  1182.58,1064.34 1183.25,1009.98 1183.92,948.26 1184.59,881.388 1185.26,812.329 1185.93,744.474 1186.6,681.187 1187.27,625.411 1187.94,579.312 1188.61,544.072 
  1189.29,520.161 1189.96,507.343 1190.63,504.661 1191.3,510.594 1191.97,523.383 1192.64,541.345 1193.31,562.897 1193.98,586.594 1194.65,611.245 1195.33,635.95 
  1196,660.056 1196.67,683.112 1197.34,704.81 1198.01,724.872 1198.68,743.111 1199.35,759.448 1200.02,773.89 1200.69,786.498 1201.36,797.336 1202.04,806.466 
  1202.71,814.006 1203.38,820.102 1204.05,824.9 1204.72,828.516 1205.39,831.013 1206.06,832.429 1206.73,832.847 1207.4,832.372 1208.07,831.114 1208.75,829.161 
  1209.42,826.569 1210.09,823.356 1210.76,819.559 1211.43,815.231 1212.1,810.439 1212.77,805.255 1213.44,799.758 1214.11,794.021 1214.79,788.127 1215.46,782.172 
  1216.13,776.3 1216.8,770.647 1217.47,765.355 1218.14,760.596 1218.81,756.579 1219.48,753.552 1220.15,751.843 1220.82,751.796 1221.5,753.746 1222.17,757.928 
  1222.84,764.584 1223.51,773.936 1224.18,786.117 1224.85,801.145 1225.52,818.924 1226.19,839.158 1226.86,861.494 1227.54,885.54 1228.21,910.721 1228.88,936.311 
  1229.55,961.518 1230.22,985.578 1230.89,1007.84 1231.56,1027.84 1232.23,1045.12 1232.9,1059.3 1233.57,1070.12 1234.25,1077.51 1234.92,1081.56 1235.59,1082.55 
  1236.26,1080.8 1236.93,1076.66 1237.6,1070.48 1238.27,1062.64 1238.94,1053.52 1239.61,1043.51 1240.29,1032.92 1240.96,1022.01 1241.63,1010.97 1242.3,999.941 
  1242.97,989.059 1243.64,978.452 1244.31,968.211 1244.98,958.388 1245.65,948.998 1246.32,940.033 1247,931.487 1247.67,923.358 1248.34,915.639 1249.01,908.291 
  1249.68,901.246 1250.35,894.424 1251.02,887.752 1251.69,881.178 1252.36,874.684 1253.03,868.261 1253.71,861.898 1254.38,855.556 1255.05,849.165 1255.72,842.653 
  1256.39,835.961 1257.06,829.054 1257.73,821.939 1258.4,814.636 1259.07,807.16 1259.75,799.583 1260.42,791.943 1261.09,784.23 1261.76,776.436 1262.43,768.604 
  1263.1,760.846 1263.77,753.423 1264.44,746.662 1265.11,740.893 1265.78,736.443 1266.46,733.588 1267.13,732.607 1267.8,733.873 1268.47,737.779 1269.14,744.687 
  1269.81,754.895 1270.48,768.541 1271.15,785.637 1271.82,806.198 1272.5,830.16 1273.17,857.058 1273.84,886.074 1274.51,916.182 1275.18,946.332 1275.85,975.654 
  1276.52,1003.58 1277.19,1029.6 1277.86,1053.01 1278.53,1073.01 1279.21,1088.99 1279.88,1100.6 1280.55,1107.83 1281.22,1111.04 1281.89,1110.69 1282.56,1107.14 
  1283.23,1100.9 1283.9,1092.48 1284.57,1082.41 1285.25,1071.19 1285.92,1059.19 1286.59,1046.71 1287.26,1034.01 1287.93,1021.35 1288.6,1008.94 1289.27,996.965 
  1289.94,985.518 1290.61,974.651 1291.28,964.38 1291.96,954.722 1292.63,945.702 1293.3,937.298 1293.97,929.448 1294.64,922.064 1295.31,915.062 1295.98,908.376 
  1296.65,901.995 1297.32,895.918 1297.99,890.144 1298.67,884.614 1299.34,879.23 1300.01,873.887 1300.68,868.493 1301.35,862.984 1302.02,857.345 1302.69,851.557 
  1303.36,845.591 1304.03,839.403 1304.71,832.935 1305.38,826.131 1306.05,818.951 1306.72,811.376 1307.39,803.421 1308.06,795.111 1308.73,786.467 1309.4,777.556 
  1310.07,768.48 1310.74,759.26 1311.42,749.913 1312.09,740.519 1312.76,731.252 1313.43,722.444 1314.1,714.606 1314.77,708.25 1315.44,703.889 1316.11,701.923 
  1316.78,702.827 1317.46,707.171 1318.13,715.499 1318.8,728.252 1319.47,745.719 1320.14,767.877 1320.81,794.579 1321.48,825.679 1322.15,860.602 1322.82,898.199 
  1323.49,936.976 1324.17,975.355 1324.84,1011.96 1325.51,1045.91 1326.18,1076.58 1326.85,1103.12 1327.52,1124.66 1328.19,1140.59 1328.86,1150.69 1329.53,1155.24 
  1330.21,1154.9 1330.88,1150.43 1331.55,1142.48 1332.22,1131.81 1332.89,1119.12 1333.56,1105.09 1334.23,1090.27 1334.9,1075.06 1335.57,1059.81 1336.24,1044.8 
  1336.92,1030.32 1337.59,1016.55 1338.26,1003.61 1338.93,991.563 1339.6,980.434 1340.27,970.228 1340.94,960.921 1341.61,952.458 1342.28,944.773 1342.95,937.803 
  1343.63,931.505 1344.3,925.851 1344.97,920.777 1345.64,916.206 1346.31,912.054 1346.98,908.245 1347.65,904.727 1348.32,901.468 1348.99,898.423 1349.67,895.537 
  1350.34,892.757 1351.01,890.033 1351.68,887.33 1352.35,884.622 1353.02,881.878 1353.69,879.06 1354.36,876.127 1355.03,873.035 1355.7,869.748 1356.38,866.232 
  1357.05,862.457 1357.72,858.386 1358.39,853.979 1359.06,849.195 1359.73,843.989 1360.4,838.318 1361.07,832.139 1361.74,825.405 1362.42,818.071 1363.09,810.091 
  1363.76,801.466 1364.43,792.163 1365.1,782.113 1365.77,771.25 1366.44,759.552 1367.11,747.051 1367.78,733.906 1368.45,720.326 1369.13,706.517 1369.8,692.759 
  1370.47,679.413 1371.14,666.833 1371.81,655.494 1372.48,646.068 1373.15,639.426 1373.82,636.687 1374.49,639.173 1375.16,648.078 1375.84,664.331 1376.51,688.584 
  1377.18,720.988 1377.85,761.125 1378.52,808.112 1379.19,860.672 1379.86,917.246 1380.53,975.841 1381.2,1033.87 1381.88,1088.59 1382.55,1137.5 1383.22,1178.66 
  1383.89,1210.99 1384.56,1234.05 1385.23,1247.88 1385.9,1253.03 1386.57,1250.53 1387.24,1241.73 1387.91,1228 1388.59,1210.63 1389.26,1190.77 1389.93,1169.52 
  1390.6,1147.8 1391.27,1126.33 1391.94,1105.62 1392.61,1086.02 1393.28,1067.65 1393.95,1050.6 1394.63,1034.97 1395.3,1020.89 1395.97,1008.4 1396.64,997.487 
  1397.31,988.082 1397.98,980.08 1398.65,973.399 1399.32,967.982 1399.99,963.73 1400.66,960.522 1401.34,958.244 1402.01,956.81 1402.68,956.184 1403.35,956.359 
  1404.02,957.297 1404.69,958.937 1405.36,961.214 1406.03,964.072 1406.7,967.484 1407.38,971.458 1408.05,976.005 1408.72,981.113 1409.39,986.762 1410.06,992.926 
  1410.73,999.571 1411.4,1006.66 1412.07,1014.17 1412.74,1022.03 1413.41,1030.17 1414.09,1038.43 1414.76,1046.75 1415.43,1055.01 1416.1,1063.09 1416.77,1070.75 
  1417.44,1077.68 1418.11,1083.37 1418.78,1087.32 1419.45,1089.03 1420.12,1088.12 1420.8,1084.14 1421.47,1076.63 1422.14,1065.2 1422.81,1049.58 1423.48,1029.68 
  1424.15,1005.69 1424.82,977.863 1425.49,946.614 1426.16,912.788 1426.84,877.54 1427.51,842.169 1428.18,807.931 1428.85,775.822 1429.52,746.575 1430.19,720.98 
  1430.86,699.807 1431.53,683.597 1432.2,672.559 1432.87,666.537 1433.55,665.061 1434.22,667.559 1434.89,673.472 1435.56,682.175 1436.23,693.02 1436.9,705.395 
  1437.57,718.767 1438.24,732.714 1438.91,746.915 1439.59,761.072 1440.26,774.914 1440.93,788.235 1441.6,800.893 1442.27,812.813 1442.94,823.962 1443.61,834.311 
  1444.28,843.863 1444.95,852.654 1445.62,860.742 1446.3,868.196 1446.97,875.074 1447.64,881.406 1448.31,887.215 1448.98,892.56 1449.65,897.523 1450.32,902.193 
  1450.99,906.648 1451.66,910.949 1452.34,915.122 1453.01,919.205 1453.68,923.252 1454.35,927.321 1455.02,931.472 1455.69,935.76 1456.36,940.226 1457.03,944.904 
  1457.7,949.826 1458.37,955.036 1459.05,960.584 1459.72,966.523 1460.39,972.901 1461.06,979.755 1461.73,987.113 1462.4,994.999 1463.07,1003.43 1463.74,1012.35 
  1464.41,1021.75 1465.08,1031.72 1465.76,1042.31 1466.43,1053.53 1467.1,1065.27 1467.77,1077.23 1468.44,1089.04 1469.11,1100.33 1469.78,1110.72 1470.45,1119.81 
  1471.12,1127.11 1471.8,1132 1472.47,1133.77 1473.14,1131.65 1473.81,1124.84 1474.48,1112.58 1475.15,1094.16 1475.82,1069.14 1476.49,1037.56 1477.16,999.986 
  1477.83,957.472 1478.51,911.422 1479.18,863.32 1479.85,814.762 1480.52,767.648 1481.19,723.95 1481.86,685.421 1482.53,653.376 1483.2,628.572 1483.87,611.2 
  1484.55,601.083 1485.22,597.721 1485.89,600.322 1486.56,607.891 1487.23,619.372 1487.9,633.825 1488.57,650.378 1489.24,668.204 1489.91,686.589 1490.58,704.973 
  1491.26,722.942 1491.93,740.196 1492.6,756.511 1493.27,771.721 1493.94,785.721 1494.61,798.469 1495.28,809.974 1495.95,820.266 1496.62,829.361 1497.3,837.291 
  1497.97,844.132 1498.64,849.983 1499.31,854.946 1499.98,859.106 1500.65,862.507 1501.32,865.18 1501.99,867.185 1502.66,868.589 1503.33,869.456 1504.01,869.836 
  1504.68,869.752 1505.35,869.21 1506.02,868.231 1506.69,866.839 1507.36,865.055 1508.03,862.888 1508.7,860.331 1509.37,857.359 1510.04,853.953 1510.72,850.105 
  1511.39,845.805 1512.06,841.04 1512.73,835.788 1513.4,830.014 1514.07,823.678 1514.74,816.759 1515.41,809.229 1516.08,801.053 1516.76,792.205 1517.43,782.675 
  1518.1,772.474 1518.77,761.658 1519.44,750.3 1520.11,738.512 1520.78,726.48 1521.45,714.326 1522.12,702.208 1522.79,690.408 1523.47,679.365 1524.14,669.72 
  1524.81,662.344 1525.48,658.105 1526.15,657.735 1526.82,662.105 1527.49,672.101 1528.16,688.446 1528.83,711.599 1529.51,741.702 1530.18,778.438 1530.85,821.345 
  1531.52,869.319 1532.19,920.541 1532.86,972.772 1533.53,1023.69 1534.2,1071.27 1534.87,1114.13 1535.54,1150.96 1536.22,1180.54 1536.89,1202.11 1537.56,1215.48 
  1538.23,1221.1 1538.9,1219.96 1539.57,1213.16 1540.24,1201.83 1540.91,1187.07 1541.58,1169.93 1542.26,1151.32 1542.93,1131.98 1543.6,1112.48 1544.27,1093.32 
  1544.94,1074.91 1545.61,1057.54 1546.28,1041.38 1546.95,1026.52 1547.62,1013.03 1548.29,1000.94 1548.97,990.228 1549.64,980.827 1550.31,972.635 1550.98,965.548 
  1551.65,959.498 1552.32,954.474 1552.99,950.455 1553.66,947.359 1554.33,945.083 1555,943.523 1555.68,942.6 1556.35,942.278 1557.02,942.559 1557.69,943.414 
  1558.36,944.804 1559.03,946.691 1559.7,949.054 1560.37,951.891 1561.04,955.227 1561.72,959.081 1562.39,963.457 1563.06,968.351 1563.73,973.762 1564.4,979.694 
  1565.07,986.163 1565.74,993.195 1566.41,1000.79 1567.08,1008.94 1567.75,1017.64 1568.43,1026.92 1569.1,1036.74 1569.77,1047.05 1570.44,1057.69 1571.11,1068.46 
  1571.78,1079.1 1572.45,1089.38 1573.12,1098.96 1573.79,1107.49 1574.47,1114.53 1575.14,1119.54 1575.81,1121.87 1576.48,1120.77 1577.15,1115.4 1577.82,1105.03 
  1578.49,1089.12 1579.16,1067.36 1579.83,1039.78 1580.5,1006.82 1581.18,969.206 1581.85,927.909 1582.52,884.079 1583.19,839.072 1583.86,794.618 1584.53,752.555 
  1585.2,714.574 1585.87,682.009 1586.54,655.668 1587.22,635.952 1587.89,622.964 1588.56,616.463 1589.23,615.875 1589.9,620.372 1590.57,629.023 1591.24,640.963 
  1591.91,655.34 1592.58,671.362 1593.25,688.304 1593.93,705.57 1594.6,722.707 1595.27,739.389 1595.94,755.38 1596.61,770.51 1597.28,784.63 1597.95,797.647 
  1598.62,809.529 1599.29,820.288 1599.96,829.964 1600.64,838.584 1601.31,846.175 1601.98,852.803 1602.65,858.561 1603.32,863.548 1603.99,867.849 1604.66,871.517 
  1605.33,874.575 1606,877.072 1606.68,879.07 1607.35,880.633 1608.02,881.817 1608.69,882.656 1609.36,883.164 1610.03,883.361 1610.7,883.275 1611.37,882.929 
  1612.04,882.339 1612.71,881.51 1613.39,880.435 1614.06,879.109 1614.73,877.535 1615.4,875.711 1616.07,873.634 1616.74,871.289 1617.41,868.652 1618.08,865.695 
  1618.75,862.393 1619.43,858.725 1620.1,854.666 1620.77,850.185 1621.44,845.246 1622.11,839.801 1622.78,833.799 1623.45,827.2 1624.12,819.963 1624.79,812.032 
  1625.46,803.353 1626.14,793.881 1626.81,783.579 1627.48,772.442 1628.15,760.479 1628.82,747.723 1629.49,734.306 1630.16,720.259 1630.83,705.613 1631.5,690.508 
  1632.17,675.262 1632.85,660.408 1633.52,646.788 1634.19,635.281 1634.86,626.707 1635.53,622.072 1636.2,622.543 1636.87,629.313 1637.54,643.483 1638.21,665.964 
  1638.89,697.335 1639.56,737.907 1640.23,787.177 1640.9,843.705 1641.57,905.235 1642.24,968.991 1642.91,1032.13 1643.58,1092.08 1644.25,1146.18 1644.92,1192.13 
  1645.6,1228.33 1646.27,1254.07 1646.94,1269.48 1647.61,1275.39 1648.28,1272.98 1648.95,1263.66 1649.62,1248.94 1650.29,1230.32 1650.96,1209.1 1651.64,1186.36 
  1652.31,1163.07 1652.98,1140.02 1653.65,1117.76 1654.32,1096.67 1654.99,1077.02 1655.66,1058.97 1656.33,1042.64 1657,1028.06 1657.67,1015.2 1658.35,1003.99 
  1659.02,994.367 1659.69,986.286 1660.36,979.653 1661.03,974.345 1661.7,970.233 1662.37,967.204 1663.04,965.186 1663.71,964.14 1664.39,964.004 1665.06,964.694 
  1665.73,966.128 1666.4,968.237 1667.07,970.982 1667.74,974.353 1668.41,978.329 1669.08,982.874 1669.75,987.941 1670.42,993.478 1671.1,999.433 1671.77,1005.76 
  1672.44,1012.41 1673.11,1019.3 1673.78,1026.32 1674.45,1033.39 1675.12,1040.4 1675.79,1047.19 1676.46,1053.58 1677.13,1059.27 1677.81,1063.9 1678.48,1067.11 
  1679.15,1068.59 1679.82,1068.01 1680.49,1064.98 1681.16,1059.12 1681.83,1050.11 1682.5,1037.76 1683.17,1021.98 1683.85,1002.84 1684.52,980.4 1685.19,955.003 
  1685.86,927.25 1686.53,897.964 1687.2,868.08 1687.87,838.503 1688.54,809.998 1689.21,783.294 1689.88,759.187 1690.56,738.418 1691.23,721.538 1691.9,708.829 
  1692.57,700.288 1693.24,695.678 1693.91,694.708 1694.58,697.026 1695.25,702.178 1695.92,709.652 1696.6,718.927 1697.27,729.53 1697.94,741.08 1698.61,753.261 
  1699.28,765.762 1699.95,778.3 1700.62,790.643 1701.29,802.623 1701.96,814.137 1702.63,825.127 1703.31,835.554 1703.98,845.368 1704.65,854.558 1705.32,863.162 
  1705.99,871.248 1706.66,878.897 1707.33,886.178 1708,893.105 1708.67,899.675 1709.35,905.883 1710.02,911.761 1710.69,917.406 1711.36,922.928 1712.03,928.431 
  1712.7,933.992 1713.37,939.642 1714.04,945.387 1714.71,951.257 1715.38,957.296 1716.06,963.56 1716.73,970.107 1717.4,976.983 1718.07,984.216 1718.74,991.803 
  1719.41,999.73 1720.08,1007.98 1720.75,1016.52 1721.42,1025.25 1722.09,1034.18 1722.77,1043.31 1723.44,1052.58 1724.11,1061.85 1724.78,1070.85 1725.45,1079.15 
  1726.12,1086.3 1726.79,1091.89 1727.46,1095.54 1728.13,1096.82 1728.81,1095.19 1729.48,1090.12 1730.15,1081.1 1730.82,1067.76 1731.49,1049.94 1732.16,1027.59 
  1732.83,1000.65 1733.5,969.406 1734.17,934.757 1734.84,897.994 1735.52,860.581 1736.19,823.871 1736.86,788.793 1737.53,756.009 1738.2,726.355 1738.87,700.899 
  1739.54,680.529 1740.21,665.773 1740.88,656.691 1741.56,652.838 1742.23,653.548 1742.9,658.24 1743.57,666.232 1744.24,676.805 1744.91,689.262 1745.58,702.99 
  1746.25,717.502 1746.92,732.421 1747.59,747.386 1748.27,762.074 1748.94,776.235 1749.61,789.696 1750.28,802.361 1750.95,814.181 1751.62,825.121 1752.29,835.178 
  1752.96,844.383 1753.63,852.79 1754.31,860.46 1754.98,867.445 1755.65,873.77 1756.32,879.483 1756.99,884.655 1757.66,889.371 1758.33,893.714 1759,897.75 
  1759.67,901.518 1760.34,905.056 1761.02,908.415 1761.69,911.653 1762.36,914.828 1763.03,917.991 1763.7,921.178 1764.37,924.415 1765.04,927.738 1765.71,931.19 
  1766.38,934.817 1767.05,938.666 1767.73,942.78 1768.4,947.193 1769.07,951.943 1769.74,957.065 1770.41,962.6 1771.08,968.599 1771.75,975.115 1772.42,982.194 
  1773.09,989.878 1773.77,998.192 1774.44,1007.16 1775.11,1016.79 1775.78,1027.11 1776.45,1038.03 1777.12,1049.53 1777.79,1061.65 1778.46,1074.35 1779.13,1087.52 
  1779.8,1100.9 1780.48,1114 1781.15,1126.24 1781.82,1137.07 1782.49,1145.89 1783.16,1151.99 1783.83,1154.51 1784.5,1152.51 1785.17,1145.08 1785.84,1131.36 
  1786.52,1110.63 1787.19,1082.26 1787.86,1046.12 1788.53,1002.84 1789.2,953.74 1789.87,900.684 1790.54,845.804 1791.21,791.101 1791.88,738.71 1792.55,690.89 
  1793.23,649.608 1793.9,616.277 1794.57,591.612 1795.24,575.633 1795.91,567.852 1796.58,567.463 1797.25,573.402 1797.92,584.444 1798.59,599.336 1799.27,616.97 
  1799.94,636.403 1800.61,656.752 1801.28,677.272 1801.95,697.399 1802.62,716.737 1803.29,735.012 1803.96,752.035 1804.63,767.664 1805.3,781.827 1805.98,794.518 
  1806.65,805.775 1807.32,815.651 1807.99,824.18 1808.66,831.407 1809.33,837.423 1810,842.337 1810.67,846.258 1811.34,849.271 1812.01,851.423 1812.69,852.753 
  1813.36,853.326 1814.03,853.209 1814.7,852.463 1815.37,851.125 1816.04,849.204 1816.71,846.694 1817.38,843.61 1818.05,839.974 1818.73,835.811 1819.4,831.134 
  1820.07,825.94 1820.74,820.208 1821.41,813.936 1822.08,807.126 1822.75,799.78 1823.42,791.911 1824.09,783.55 1824.76,774.748 1825.44,765.589 1826.11,756.181 
  1826.78,746.677 1827.45,737.269 1828.12,728.12 1828.79,719.435 1829.46,711.509 1830.13,704.74 1830.8,699.672 1831.48,696.982 1832.15,697.339 1832.82,701.255 
  1833.49,709.273 1834.16,721.893 1834.83,739.447 1835.5,762.033 1836.17,789.515 1836.84,821.393 1837.51,857.056 1838.19,895.612 1838.86,935.767 1839.53,975.995 
  1840.2,1014.74 1840.87,1050.6 1841.54,1082.57 1842.21,1109.83 1842.88,1131.67 1843.55,1147.66 1844.23,1157.72 1844.9,1162.16 1845.57,1161.59 1846.24,1156.75 
  1846.91,1148.37 1847.58,1137.2 1848.25,1124 1848.92,1109.44 1849.59,1094.1 1850.26,1078.45 1850.94,1062.83 1851.61,1047.51 1852.28,1032.77 1852.95,1018.77 
  1853.62,1005.66 1854.29,993.485 1854.96,982.269 1855.63,972.019 1856.3,962.716 1856.97,954.308 1857.65,946.725 1858.32,939.893 1858.99,933.752 1859.66,928.269 
  1860.33,923.396 1861,919.061 1861.67,915.187 1862.34,911.696 1863.01,908.529 1863.69,905.65 1864.36,903.016 1865.03,900.579 1865.7,898.291 1866.37,896.107 
  1867.04,893.996 1867.71,891.936 1868.38,889.899 1869.05,887.849 1869.72,885.753 1870.4,883.576 1871.07,881.288 1871.74,878.868 1872.41,876.289 1873.08,873.522 
  1873.75,870.536 1874.42,867.298 1875.09,863.774 1875.76,859.927 1876.44,855.719 1877.11,851.11 1877.78,846.06 1878.45,840.529 1879.12,834.465 1879.79,827.816 
  1880.46,820.53 1881.13,812.555 1881.8,803.85 1882.47,794.376 1883.15,784.094 1883.82,772.998 1884.49,761.138 1885.16,748.474 1885.83,734.957 1886.5,720.607 
  1887.17,705.562 1887.84,690.128 1888.51,674.828 1889.19,660.204 1889.86,646.833 1890.53,635.404 1891.2,626.742 1891.87,621.828 1892.54,621.789 1893.21,627.832 
  1893.88,641.205 1894.55,663.166 1895.22,694.513 1895.9,735.297 1896.57,784.73 1897.24,841.205 1897.91,902.545 1898.58,966.426 1899.25,1030.2 1899.92,1090.87 
  1900.59,1145.58 1901.26,1192.04 1901.93,1228.68 1902.61,1254.85 1903.28,1270.73 1903.95,1276.98 1904.62,1274.76 1905.29,1265.52 1905.96,1250.86 1906.63,1232.21 
  1907.3,1210.86 1907.97,1188.01 1908.65,1164.65 1909.32,1141.53 1909.99,1119.19 1910.66,1097.98 1911.33,1078.19 1912,1060.01 1912.67,1043.56 1913.34,1028.88 
  1914.01,1015.92 1914.68,1004.64 1915.36,995 1916.03,986.91 1916.7,980.251 1917.37,974.892 1918.04,970.716 1918.71,967.642 1919.38,965.63 1920.05,964.61 
  1920.72,964.492 1921.4,965.181 1922.07,966.597 1922.74,968.691 1923.41,971.451 1924.08,974.854 1924.75,978.86 1925.42,983.419 1926.09,988.477 1926.76,993.986 
  1927.43,999.907 1928.11,1006.2 1928.78,1012.81 1929.45,1019.64 1930.12,1026.62 1930.79,1033.65 1931.46,1040.61 1932.13,1047.31 1932.8,1053.51 1933.47,1058.89 
  1934.14,1063.17 1934.82,1066.07 1935.49,1067.25 1936.16,1066.33 1936.83,1062.92 1937.5,1056.69 1938.17,1047.36 1938.84,1034.77 1939.51,1018.8 1940.18,999.383 
  1940.86,976.708 1941.53,951.221 1942.2,923.595 1942.87,894.648 1943.54,865.207 1944.21,836.029 1944.88,807.873 1945.55,781.591 1946.22,758.041 1946.89,737.933 
  1947.57,721.737 1948.24,709.633 1948.91,701.539 1949.58,697.294 1950.25,696.651 1950.92,699.228 1951.59,704.55 1952.26,712.097 1952.93,721.371 1953.61,731.961 
  1954.28,743.505 1954.95,755.655 1955.62,768.078 1956.29,780.496 1956.96,792.694 1957.63,804.532 1958.3,815.921 1958.97,826.808 1959.64,837.136 1960.32,846.869 
  1960.99,856.013 1961.66,864.605 1962.33,872.699 1963,880.352 1963.67,887.592 1964.34,894.426 1965.01,900.874 1965.68,906.997 1966.36,912.883 1967.03,918.623 
  1967.7,924.301 1968.37,929.971 1969.04,935.655 1969.71,941.383 1970.38,947.191 1971.05,953.134 1971.72,959.275 1972.39,965.67 1973.07,972.363 1973.74,979.374 
  1974.41,986.708 1975.08,994.364 1975.75,1002.32 1976.42,1010.53 1977.09,1019.02 1977.76,1027.81 1978.43,1036.9 1979.1,1046.2 1979.78,1055.53 1980.45,1064.57 
  1981.12,1073 1981.79,1080.5 1982.46,1086.76 1983.13,1091.42 1983.8,1094.06 1984.47,1094.16 1985.14,1091.23 1985.82,1084.75 1986.49,1074.32 1987.16,1059.59 
  1987.83,1040.2 1988.5,1016 1989.17,987.36 1989.84,955.132 1990.51,920.461 1991.18,884.571 1991.85,848.474 1992.53,812.904 1993.2,778.619 1993.87,746.772 
  1994.54,718.628 1995.21,695.253 1995.88,677.324 1996.55,664.996 1997.22,657.9 1997.89,655.638 1998.57,657.714 1999.24,663.492 1999.91,672.262 2000.58,683.316 
  2001.25,696.025 2001.92,709.894 2002.59,724.466 2003.26,739.311 2003.93,754.054 2004.6,768.409 2005.28,782.18 2005.95,795.249 2006.62,807.543 2007.29,818.997 
  2007.96,829.582 2008.63,839.314 2009.3,848.239 2009.97,856.421 2010.64,863.919 2011.32,870.757 2011.99,876.946 2012.66,882.539 2013.33,887.621 2014,892.285 
  2014.67,896.619 2015.34,900.689 2016.01,904.524 2016.68,908.163 2017.35,911.66 2018.03,915.074 2018.7,918.462 2019.37,921.872 2020.04,925.338 2020.71,928.888 
  2021.38,932.56 2022.05,936.4 2022.72,940.458 2023.39,944.781 2024.06,949.415 2024.74,954.394 2025.41,959.758 2026.08,965.534 2026.75,971.765 2027.42,978.506 
  2028.09,985.818 2028.76,993.751 2029.43,1002.34 2030.1,1011.58 2030.78,1021.47 2031.45,1031.98 2032.12,1043.09 2032.79,1054.74 2033.46,1066.79 2034.13,1079.19 
  2034.8,1091.84 2035.47,1104.51 2036.14,1116.83 2036.81,1128.2 2037.49,1137.86 2038.16,1145.05 2038.83,1149.08 2039.5,1149.08 2040.17,1144.1 2040.84,1133.24 
  2041.51,1115.79 2042.18,1091.33 2042.85,1059.83 2043.53,1021.29 2044.2,976.219 2044.87,926.108 2045.54,873.166 2046.21,819.888 2046.88,768.595 2047.55,720.907 
  2048.22,677.915 2048.89,641.094 2049.56,611.802 2050.24,590.898 2050.91,578.556 2051.58,574.189 2052.25,576.592 2052.92,584.614 2053.59,597.077 2054.26,612.822 
  2054.93,630.794 2055.6,650.091 2056.28,669.996 2056.95,689.933 2057.62,709.398 2058.29,727.995 2058.96,745.454 2059.63,761.622 2060.3,776.421 2060.97,789.798 
  2061.64,801.718 2062.31,812.219 2062.99,821.389 2063.66,829.34 2064.33,836.173 2065,841.942 2065.67,846.65 2066.34,850.325 2067.01,853.061 2067.68,854.967 
  2068.35,856.15 2069.02,856.686 2069.7,856.597 2070.37,855.882 2071.04,854.569 2071.71,852.698 2072.38,850.305 2073.05,847.413 2073.72,844.023 2074.39,840.109 
  2075.06,835.649 2075.74,830.641 2076.41,825.09 2077.08,819.004 2077.75,812.387 2078.42,805.236 2079.09,797.544 2079.76,789.322 2080.43,780.647 2081.1,771.541 
  2081.77,762.005 2082.45,752.076 2083.12,741.857 2083.79,731.546 2084.46,721.507 2085.13,712.129 2085.8,703.805 2086.47,696.92 2087.14,691.941 2087.81,689.427 
  2088.49,689.996 2089.16,694.28 2089.83,702.887 2090.5,716.337 2091.17,735.126 2091.84,759.565 2092.51,789.445 2093.18,824.043 2093.85,862.234 2094.52,902.696 
  2095.2,944.197 2095.87,985.706 2096.54,1026.08 2097.21,1063.77 2097.88,1097.23 2098.55,1125.19 2099.22,1146.87 2099.89,1162.07 2100.56,1171.11 2101.24,1174.39 
  2101.91,1172.53 2102.58,1166.31 2103.25,1156.59 2103.92,1144.21 2104.59,1129.87 2105.26,1114.23 2105.93,1097.88 2106.6,1081.35 2107.27,1065.06 2107.95,1049.29 
  2108.62,1034.24 2109.29,1020.07 2109.96,1006.88 2110.63,994.732 2111.3,983.623 2111.97,973.522 2112.64,964.379 2113.31,956.162 2113.98,948.865 2114.66,942.451 
  2115.33,936.839 2116,931.929 2116.67,927.624 2117.34,923.846 2118.01,920.558 2118.68,917.726 2119.35,915.298 2120.02,913.217 2120.7,911.431 2121.37,909.898 
  2122.04,908.593 2122.71,907.495 2123.38,906.574 2124.05,905.802 2124.72,905.153 2125.39,904.61 2126.06,904.162 2126.73,903.796 2127.41,903.501 2128.08,903.265 
  2128.75,903.08 2129.42,902.939 2130.09,902.838 2130.76,902.772 2131.43,902.737 2132.1,902.729 2132.77,902.746 2133.45,902.788 2134.12,902.852 2134.79,902.939 
  2135.46,903.046 2136.13,903.176 2136.8,903.329 2137.47,903.505 2138.14,903.707 2138.81,903.936 2139.48,904.193 2140.16,904.482 2140.83,904.806 2141.5,905.168 
  2142.17,905.573 2142.84,906.023 2143.51,906.525 2144.18,907.084 2144.85,907.707 2145.52,908.402 2146.2,909.178 2146.87,910.041 2147.54,911.001 2148.21,912.071 
  2148.88,913.262 2149.55,914.59 2150.22,916.073 2150.89,917.728 2151.56,919.575 2152.23,921.633 2152.91,923.926 2153.58,926.481 2154.25,929.332 2154.92,932.515 
  2155.59,936.071 2156.26,940.04 2156.93,944.466 2157.6,949.399 2158.27,954.893 2158.94,961.016 2159.62,967.839 2160.29,975.438 2160.96,983.894 2161.63,993.286 
  2162.3,1003.68 2162.97,1015.11 2163.64,1027.72 2164.31,1041.63 2164.98,1056.94 2165.66,1073.69 2166.33,1091.83 2167,1111.16 2167.67,1131.5 2168.34,1152.44 
  2169.01,1173.66 2169.68,1194.81 2170.35,1215.18 2171.02,1233.63 2171.69,1248.54 2172.37,1257.64 2173.04,1258.73 2173.71,1249.69 2174.38,1228.43 2175.05,1193.48 
  2175.72,1144.3 2176.39,1081.34 2177.06,1006.11 2177.73,921.104 2178.41,830.293 2179.08,738.761 2179.75,651.891 2180.42,574.56 2181.09,510.372 2181.76,461.246 
  2182.43,428.065 2183.1,410.629 2183.77,407.584 2184.44,416.607 2185.12,434.865 2185.79,459.73 2186.46,488.841 2187.13,520.2 2187.8,552.28 2188.47,583.998 
  2189.14,614.557 2189.81,643.444 2190.48,670.262 2191.15,694.739 2191.83,716.752 2192.5,736.307 2193.17,753.495 2193.84,768.419 2194.51,781.18 2195.18,791.943 
  2195.85,800.914 2196.52,808.306 2197.19,814.298 2197.87,819.006 2198.54,822.505 2199.21,824.921 2199.88,826.41 2200.55,827.141 2201.22,827.267 2201.89,826.908 
  2202.56,826.135 2203.23,825.027 2203.9,823.682 2204.58,822.212 2205.25,820.735 2205.92,819.369 2206.59,818.217 2207.26,817.373 2207.93,816.933 2208.6,816.989 
  2209.27,817.631 2209.94,818.97 2210.62,821.12 2211.29,824.177 2211.96,828.204 2212.63,833.228 2213.3,839.232 2213.97,846.195 2214.64,854.095 2215.31,862.879 
  2215.98,872.455 2216.65,882.691 2217.33,893.415 2218,904.43 2218.67,915.536 2219.34,926.523 2220.01,937.178 2220.68,947.294 2221.35,956.669 2222.02,965.115 
  2222.69,972.484 2223.37,978.679 2224.04,983.649 2224.71,987.387 2225.38,989.903 2226.05,991.205 2226.72,991.312 2227.39,990.29 2228.06,988.244 2228.73,985.302 
  2229.4,981.6 2230.08,977.255 2230.75,972.355 2231.42,966.985 2232.09,961.233 2232.76,955.187 2233.43,948.936 2234.1,942.558 2234.77,936.115 2235.44,929.65 
  2236.11,923.19 2236.79,916.757 2237.46,910.374 2238.13,904.062 2238.8,897.846 2239.47,891.787 2240.14,885.901 2240.81,880.158 2241.48,874.506 2242.15,868.885 
  2242.83,863.261 2243.5,857.679 2244.17,852.21 2244.84,846.923 2245.51,841.888 2246.18,837.175 2246.85,832.854 2247.52,828.993 2248.19,825.606 2248.86,822.688 
  2249.54,820.255 2250.21,818.353 2250.88,817.071 2251.55,816.541 2252.22,816.875 2252.89,818.161 2253.56,820.49 2254.23,823.945 2254.9,828.571 2255.58,834.391 
  2256.25,841.389 2256.92,849.503 2257.59,858.63 2258.26,868.642 2258.93,879.372 2259.6,890.647 2260.27,902.295 2260.94,914.142 2261.61,926.016 2262.29,937.712 
  2262.96,948.96 2263.63,959.473 2264.3,968.991 2264.97,977.318 2265.64,984.353 2266.31,990.062 2266.98,994.415 2267.65,997.381 2268.33,998.948 2269,999.162 
  2269.67,998.124 2270.34,995.974 2271.01,992.866 2271.68,988.938 2272.35,984.292 2273.02,979.029 2273.69,973.246 2274.36,967.045 2275.04,960.53 2275.71,953.812 
  2276.38,946.986 2277.05,940.124 2277.72,933.271 2278.39,926.449 2279.06,919.672 2279.73,912.959 2280.4,906.329 2281.07,899.802 2281.75,893.426 2282.42,887.267 
  2283.09,881.309 2283.76,875.481 2284.43,869.69 2285.1,863.85 2285.77,857.943 2286.44,852.05 2287.11,846.257 2287.79,840.649 2288.46,835.31 2289.13,830.326 
  2289.8,825.782 2290.47,821.762 2291.14,818.316 2291.81,815.407 2292.48,813.026 
  "/>
<polyline clip-path="url(#clip762)" style="stroke:#008000; stroke-linecap:round; stroke-linejoin:round; stroke-width:4; stroke-opacity:1; fill:none" points="
  283.376,881.385 284.047,873.68 284.718,865.794 285.389,857.651 286.06,849.171 286.731,840.276 287.402,830.884 288.073,820.916 288.744,810.292 289.415,798.938 
  290.086,786.775 290.757,773.738 291.428,759.785 292.099,744.893 292.77,729.076 293.441,712.385 294.112,694.944 294.783,677.001 295.455,658.927 296.126,641.228 
  296.797,624.674 297.468,610.277 298.139,599.253 298.81,593.017 299.481,593.093 300.152,601.072 300.823,618.205 301.494,645.154 302.165,681.984 302.836,727.976 
  303.507,781.442 304.178,840.147 304.849,901.364 305.52,962.018 306.191,1019.36 306.862,1071.13 307.533,1115.62 308.204,1151.75 308.875,1179.17 309.546,1198.1 
  310.217,1209.08 310.889,1213 311.56,1210.92 312.231,1203.94 312.902,1193.14 313.573,1179.57 314.244,1164.21 314.915,1147.92 315.586,1131.37 316.257,1115.13 
  316.928,1099.65 317.599,1085.26 318.27,1072.15 318.941,1060.45 319.612,1050.24 320.283,1041.55 320.954,1034.36 321.625,1028.66 322.296,1024.4 322.967,1021.56 
  323.638,1020.09 324.309,1019.95 324.98,1021.11 325.652,1023.55 326.323,1027.26 326.994,1032.21 327.665,1038.39 328.336,1045.76 329.007,1054.3 329.678,1063.95 
  330.349,1074.65 331.02,1086.3 331.691,1098.71 332.362,1111.64 333.033,1124.77 333.704,1137.66 334.375,1149.73 335.046,1160.23 335.717,1168.32 336.388,1173 
  337.059,1173.23 337.73,1167.86 338.401,1155.93 339.072,1136.82 339.743,1110.32 340.414,1076.54 341.086,1036.28 341.757,990.896 342.428,942.082 343.099,891.825 
  343.77,842.31 344.441,795.483 345.112,752.97 345.783,716.009 346.454,685.451 347.125,661.684 347.796,644.579 348.467,633.772 349.138,628.666 349.809,628.446 
  350.48,632.243 351.151,639.182 351.822,648.421 352.493,659.161 353.164,670.658 353.835,682.305 354.506,693.612 355.177,704.174 355.849,713.671 356.52,721.869 
  357.191,728.606 357.862,733.774 358.533,737.291 359.204,739.095 359.875,739.152 360.546,737.441 361.217,733.921 361.888,728.554 362.559,721.314 363.23,712.183 
  363.901,701.154 364.572,688.248 365.243,673.451 365.914,656.84 366.585,638.614 367.256,619.096 367.927,598.739 368.598,578.261 369.269,558.752 369.94,541.67 
  370.611,528.838 371.283,522.443 371.954,524.825 372.625,538.394 373.296,564.861 373.967,604.961 374.638,658.447 375.309,723.674 375.98,797.598 376.651,876.477 
  377.322,955.935 377.993,1031.58 378.664,1099.87 379.335,1158.22 380.006,1205.06 380.677,1239.89 381.348,1263.21 382.019,1275.97 382.69,1279.48 383.361,1275.37 
  384.032,1265.22 384.703,1250.58 385.374,1232.91 386.046,1213.59 386.717,1193.74 387.388,1174.27 388.059,1155.9 388.73,1139.17 389.401,1124.45 390.072,1111.93 
  390.743,1101.71 391.414,1093.83 392.085,1088.27 392.756,1084.94 393.427,1083.79 394.098,1084.73 394.769,1087.67 395.44,1092.49 396.111,1099.04 396.782,1107.18 
  397.453,1116.73 398.124,1127.44 398.795,1138.96 399.466,1150.87 400.137,1162.62 400.808,1173.46 401.48,1182.51 402.151,1188.75 402.822,1191.02 403.493,1188.15 
  404.164,1178.89 404.835,1162.27 405.506,1137.81 406.177,1105.43 406.848,1065.56 407.519,1019.39 408.19,968.648 408.861,915.344 409.532,861.748 410.203,810.24 
  410.874,762.749 411.545,720.808 412.216,685.476 412.887,657.338 413.558,636.464 414.229,622.476 414.9,614.78 415.571,612.583 416.243,614.903 416.914,620.739 
  417.585,629.133 418.256,639.187 418.927,650.076 419.598,661.054 420.269,671.519 420.94,681.009 421.611,689.15 422.282,695.644 422.953,700.276 423.624,702.899 
  424.295,703.406 424.966,701.705 425.637,697.731 426.308,691.437 426.979,682.809 427.65,671.776 428.321,658.308 428.992,642.454 429.663,624.344 430.334,604.197 
  431.005,582.39 431.677,559.442 432.348,536.305 433.019,514.419 433.69,495.711 434.361,482.424 435.032,477.827 435.703,485.047 436.374,506.555 437.045,544.165 
  437.716,598.472 438.387,667.987 439.058,749.842 439.729,839.862 440.4,932.666 441.071,1022.65 441.742,1105.01 442.413,1176.11 443.084,1233.5 443.755,1276.52 
  444.426,1305.71 445.097,1322.24 445.768,1327.91 446.44,1324.69 447.111,1314.62 447.782,1299.7 448.453,1281.89 449.124,1262.92 449.795,1244.25 450.466,1227.06 
  451.137,1212.32 451.808,1200.67 452.479,1192.5 453.15,1188.02 453.821,1187.32 454.492,1190.33 455.163,1196.94 455.834,1206.97 456.505,1220.1 457.176,1235.85 
  457.847,1253.58 458.518,1272.42 459.189,1291.11 459.86,1307.94 460.531,1320.8 461.202,1327.1 461.874,1323.69 462.545,1307.96 463.216,1277.9 463.887,1232.26 
  464.558,1171.36 465.229,1097 465.9,1012.33 466.571,921.787 467.242,830.558 467.913,743.671 468.584,665.343 469.255,598.901 469.926,545.962 470.597,506.741 
  471.268,480.513 471.939,465.693 472.61,460.277 473.281,462.045 473.952,468.694 474.623,477.854 475.294,487.332 475.965,495.276 476.637,500.094 477.308,500.452 
  477.979,495.375 478.65,484.206 479.321,466.469 479.992,442.038 480.663,410.959 481.334,372.731 482.005,328.199 482.676,279.705 483.347,231.096 484.018,188.32 
  484.689,162.047 485.36,163.888 486.031,204.094 486.702,289.531 487.373,422.93 488.044,603.172 488.715,832.052 489.386,1150.06 
  "/>
<path clip-path="url(#clip760)" d="
M1704.79 1441.02 L2281.77 1441.02 L2281.77 1285.5 L1704.79 1285.5  Z
  " fill="#ffffff" fill-rule="evenodd" fill-opacity="1"/>
<polyline clip-path="url(#clip760)" style="stroke:#000000; stroke-linecap:round; stroke-linejoin:round; stroke-width:4; stroke-opacity:1; fill:none" points="
  1704.79,1441.02 2281.77,1441.02 2281.77,1285.5 1704.79,1285.5 1704.79,1441.02 
  "/>
<polyline clip-path="url(#clip760)" style="stroke:#009af9; stroke-linecap:round; stroke-linejoin:round; stroke-width:4; stroke-opacity:1; fill:none" points="
  1728.46,1337.34 1870.43,1337.34 
  "/>
<path clip-path="url(#clip760)" d="M1901.5 1321.33 L1901.5 1328.69 L1910.28 1328.69 L1910.28 1332 L1901.5 1332 L1901.5 1346.07 Q1901.5 1349.25 1902.36 1350.15 Q1903.24 1351.05 1905.9 1351.05 L1910.28 1351.05 L1910.28 1354.62 L1905.9 1354.62 Q1900.97 1354.62 1899.1 1352.79 Q1897.22 1350.93 1897.22 1346.07 L1897.22 1332 L1894.1 1332 L1894.1 1328.69 L1897.22 1328.69 L1897.22 1321.33 L1901.5 1321.33 Z" fill="#000000" fill-rule="evenodd" fill-opacity="1" /><path clip-path="url(#clip760)" d="M1930.9 1332.67 Q1930.18 1332.25 1929.33 1332.07 Q1928.49 1331.86 1927.48 1331.86 Q1923.86 1331.86 1921.92 1334.22 Q1920 1336.56 1920 1340.96 L1920 1354.62 L1915.72 1354.62 L1915.72 1328.69 L1920 1328.69 L1920 1332.72 Q1921.34 1330.36 1923.49 1329.22 Q1925.65 1328.06 1928.73 1328.06 Q1929.17 1328.06 1929.7 1328.13 Q1930.23 1328.18 1930.88 1328.3 L1930.9 1332.67 Z" fill="#000000" fill-rule="evenodd" fill-opacity="1" /><path clip-path="url(#clip760)" d="M1934.93 1344.38 L1934.93 1328.69 L1939.19 1328.69 L1939.19 1344.22 Q1939.19 1347.9 1940.62 1349.75 Q1942.06 1351.58 1944.93 1351.58 Q1948.38 1351.58 1950.37 1349.38 Q1952.38 1347.18 1952.38 1343.39 L1952.38 1328.69 L1956.64 1328.69 L1956.64 1354.62 L1952.38 1354.62 L1952.38 1350.63 Q1950.83 1352.99 1948.77 1354.15 Q1946.74 1355.29 1944.03 1355.29 Q1939.56 1355.29 1937.24 1352.51 Q1934.93 1349.73 1934.93 1344.38 M1945.65 1328.06 L1945.65 1328.06 Z" fill="#000000" fill-rule="evenodd" fill-opacity="1" /><path clip-path="url(#clip760)" d="M1987.59 1340.59 L1987.59 1342.67 L1968.01 1342.67 Q1968.29 1347.07 1970.65 1349.38 Q1973.03 1351.68 1977.27 1351.68 Q1979.72 1351.68 1982.01 1351.07 Q1984.33 1350.47 1986.6 1349.27 L1986.6 1353.3 Q1984.3 1354.27 1981.9 1354.78 Q1979.49 1355.29 1977.01 1355.29 Q1970.81 1355.29 1967.17 1351.68 Q1963.56 1348.06 1963.56 1341.91 Q1963.56 1335.54 1966.99 1331.81 Q1970.44 1328.06 1976.27 1328.06 Q1981.5 1328.06 1984.54 1331.44 Q1987.59 1334.8 1987.59 1340.59 M1983.33 1339.34 Q1983.29 1335.84 1981.36 1333.76 Q1979.47 1331.68 1976.32 1331.68 Q1972.75 1331.68 1970.6 1333.69 Q1968.47 1335.7 1968.15 1339.36 L1983.33 1339.34 Z" fill="#000000" fill-rule="evenodd" fill-opacity="1" /><path clip-path="url(#clip760)" d="M2013.86 1321.33 L2013.86 1328.69 L2022.64 1328.69 L2022.64 1332 L2013.86 1332 L2013.86 1346.07 Q2013.86 1349.25 2014.72 1350.15 Q2015.6 1351.05 2018.26 1351.05 L2022.64 1351.05 L2022.64 1354.62 L2018.26 1354.62 Q2013.33 1354.62 2011.46 1352.79 Q2009.58 1350.93 2009.58 1346.07 L2009.58 1332 L2006.46 1332 L2006.46 1328.69 L2009.58 1328.69 L2009.58 1321.33 L2013.86 1321.33 Z" fill="#000000" fill-rule="evenodd" fill-opacity="1" /><path clip-path="url(#clip760)" d="M2043.26 1332.67 Q2042.54 1332.25 2041.69 1332.07 Q2040.85 1331.86 2039.84 1331.86 Q2036.23 1331.86 2034.28 1334.22 Q2032.36 1336.56 2032.36 1340.96 L2032.36 1354.62 L2028.08 1354.62 L2028.08 1328.69 L2032.36 1328.69 L2032.36 1332.72 Q2033.7 1330.36 2035.85 1329.22 Q2038.01 1328.06 2041.09 1328.06 Q2041.53 1328.06 2042.06 1328.13 Q2042.59 1328.18 2043.24 1328.3 L2043.26 1332.67 Z" fill="#000000" fill-rule="evenodd" fill-opacity="1" /><path clip-path="url(#clip760)" d="M2059.51 1341.58 Q2054.35 1341.58 2052.36 1342.76 Q2050.37 1343.94 2050.37 1346.79 Q2050.37 1349.06 2051.85 1350.4 Q2053.35 1351.72 2055.92 1351.72 Q2059.47 1351.72 2061.6 1349.22 Q2063.75 1346.7 2063.75 1342.53 L2063.75 1341.58 L2059.51 1341.58 M2068.01 1339.82 L2068.01 1354.62 L2063.75 1354.62 L2063.75 1350.68 Q2062.29 1353.04 2060.11 1354.18 Q2057.94 1355.29 2054.79 1355.29 Q2050.81 1355.29 2048.45 1353.06 Q2046.11 1350.82 2046.11 1347.07 Q2046.11 1342.69 2049.03 1340.47 Q2051.97 1338.25 2057.78 1338.25 L2063.75 1338.25 L2063.75 1337.83 Q2063.75 1334.89 2061.8 1333.3 Q2059.88 1331.68 2056.39 1331.68 Q2054.17 1331.68 2052.06 1332.21 Q2049.95 1332.74 2048.01 1333.81 L2048.01 1329.87 Q2050.35 1328.97 2052.54 1328.53 Q2054.74 1328.06 2056.83 1328.06 Q2062.45 1328.06 2065.23 1330.98 Q2068.01 1333.9 2068.01 1339.82 Z" fill="#000000" fill-rule="evenodd" fill-opacity="1" /><path clip-path="url(#clip760)" d="M2076.78 1328.69 L2081.04 1328.69 L2081.04 1355.08 Q2081.04 1360.03 2079.14 1362.25 Q2077.27 1364.48 2073.08 1364.48 L2071.46 1364.48 L2071.46 1360.87 L2072.59 1360.87 Q2075.02 1360.87 2075.9 1359.73 Q2076.78 1358.62 2076.78 1355.08 L2076.78 1328.69 M2076.78 1318.6 L2081.04 1318.6 L2081.04 1323.99 L2076.78 1323.99 L2076.78 1318.6 Z" fill="#000000" fill-rule="evenodd" fill-opacity="1" /><path clip-path="url(#clip760)" d="M2112.13 1340.59 L2112.13 1342.67 L2092.54 1342.67 Q2092.82 1347.07 2095.18 1349.38 Q2097.57 1351.68 2101.8 1351.68 Q2104.26 1351.68 2106.55 1351.07 Q2108.86 1350.47 2111.13 1349.27 L2111.13 1353.3 Q2108.84 1354.27 2106.43 1354.78 Q2104.03 1355.29 2101.55 1355.29 Q2095.35 1355.29 2091.71 1351.68 Q2088.1 1348.06 2088.1 1341.91 Q2088.1 1335.54 2091.53 1331.81 Q2094.97 1328.06 2100.81 1328.06 Q2106.04 1328.06 2109.07 1331.44 Q2112.13 1334.8 2112.13 1340.59 M2107.87 1339.34 Q2107.82 1335.84 2105.9 1333.76 Q2104 1331.68 2100.85 1331.68 Q2097.29 1331.68 2095.14 1333.69 Q2093.01 1335.7 2092.68 1339.36 L2107.87 1339.34 Z" fill="#000000" fill-rule="evenodd" fill-opacity="1" /><path clip-path="url(#clip760)" d="M2137.78 1329.68 L2137.78 1333.67 Q2135.97 1332.67 2134.14 1332.18 Q2132.34 1331.68 2130.48 1331.68 Q2126.34 1331.68 2124.05 1334.31 Q2121.76 1336.93 2121.76 1341.68 Q2121.76 1346.42 2124.05 1349.06 Q2126.34 1351.68 2130.48 1351.68 Q2132.34 1351.68 2134.14 1351.19 Q2135.97 1350.68 2137.78 1349.68 L2137.78 1353.62 Q2135.99 1354.45 2134.07 1354.87 Q2132.17 1355.29 2130.02 1355.29 Q2124.16 1355.29 2120.72 1351.61 Q2117.27 1347.93 2117.27 1341.68 Q2117.27 1335.33 2120.74 1331.7 Q2124.23 1328.06 2130.3 1328.06 Q2132.27 1328.06 2134.14 1328.48 Q2136.02 1328.87 2137.78 1329.68 Z" fill="#000000" fill-rule="evenodd" fill-opacity="1" /><path clip-path="url(#clip760)" d="M2149.4 1321.33 L2149.4 1328.69 L2158.17 1328.69 L2158.17 1332 L2149.4 1332 L2149.4 1346.07 Q2149.4 1349.25 2150.25 1350.15 Q2151.13 1351.05 2153.79 1351.05 L2158.17 1351.05 L2158.17 1354.62 L2153.79 1354.62 Q2148.86 1354.62 2146.99 1352.79 Q2145.11 1350.93 2145.11 1346.07 L2145.11 1332 L2141.99 1332 L2141.99 1328.69 L2145.11 1328.69 L2145.11 1321.33 L2149.4 1321.33 Z" fill="#000000" fill-rule="evenodd" fill-opacity="1" /><path clip-path="url(#clip760)" d="M2173.82 1331.68 Q2170.39 1331.68 2168.4 1334.36 Q2166.41 1337.02 2166.41 1341.68 Q2166.41 1346.33 2168.38 1349.01 Q2170.37 1351.68 2173.82 1351.68 Q2177.22 1351.68 2179.21 1348.99 Q2181.2 1346.31 2181.2 1341.68 Q2181.2 1337.07 2179.21 1334.38 Q2177.22 1331.68 2173.82 1331.68 M2173.82 1328.06 Q2179.37 1328.06 2182.54 1331.68 Q2185.72 1335.29 2185.72 1341.68 Q2185.72 1348.04 2182.54 1351.68 Q2179.37 1355.29 2173.82 1355.29 Q2168.24 1355.29 2165.07 1351.68 Q2161.92 1348.04 2161.92 1341.68 Q2161.92 1335.29 2165.07 1331.68 Q2168.24 1328.06 2173.82 1328.06 Z" fill="#000000" fill-rule="evenodd" fill-opacity="1" /><path clip-path="url(#clip760)" d="M2207.8 1332.67 Q2207.08 1332.25 2206.22 1332.07 Q2205.39 1331.86 2204.37 1331.86 Q2200.76 1331.86 2198.82 1334.22 Q2196.9 1336.56 2196.9 1340.96 L2196.9 1354.62 L2192.61 1354.62 L2192.61 1328.69 L2196.9 1328.69 L2196.9 1332.72 Q2198.24 1330.36 2200.39 1329.22 Q2202.54 1328.06 2205.62 1328.06 Q2206.06 1328.06 2206.59 1328.13 Q2207.13 1328.18 2207.78 1328.3 L2207.8 1332.67 Z" fill="#000000" fill-rule="evenodd" fill-opacity="1" /><path clip-path="url(#clip760)" d="M2223.05 1357.02 Q2221.25 1361.65 2219.53 1363.06 Q2217.82 1364.48 2214.95 1364.48 L2211.55 1364.48 L2211.55 1360.91 L2214.05 1360.91 Q2215.81 1360.91 2216.78 1360.08 Q2217.75 1359.24 2218.93 1356.14 L2219.7 1354.2 L2209.21 1328.69 L2213.72 1328.69 L2221.83 1348.97 L2229.93 1328.69 L2234.44 1328.69 L2223.05 1357.02 Z" fill="#000000" fill-rule="evenodd" fill-opacity="1" /><polyline clip-path="url(#clip760)" style="stroke:#008000; stroke-linecap:round; stroke-linejoin:round; stroke-width:4; stroke-opacity:1; fill:none" points="
  1728.46,1389.18 1870.43,1389.18 
  "/>
<path clip-path="url(#clip760)" d="M1898.38 1402.57 L1898.38 1416.32 L1894.1 1416.32 L1894.1 1380.53 L1898.38 1380.53 L1898.38 1384.46 Q1899.72 1382.15 1901.76 1381.04 Q1903.82 1379.9 1906.67 1379.9 Q1911.39 1379.9 1914.33 1383.65 Q1917.29 1387.4 1917.29 1393.52 Q1917.29 1399.63 1914.33 1403.38 Q1911.39 1407.13 1906.67 1407.13 Q1903.82 1407.13 1901.76 1406.02 Q1899.72 1404.88 1898.38 1402.57 M1912.87 1393.52 Q1912.87 1388.82 1910.93 1386.15 Q1909 1383.47 1905.62 1383.47 Q1902.24 1383.47 1900.3 1386.15 Q1898.38 1388.82 1898.38 1393.52 Q1898.38 1398.21 1900.3 1400.9 Q1902.24 1403.56 1905.62 1403.56 Q1909 1403.56 1910.93 1400.9 Q1912.87 1398.21 1912.87 1393.52 Z" fill="#000000" fill-rule="evenodd" fill-opacity="1" /><path clip-path="url(#clip760)" d="M1939.37 1384.51 Q1938.66 1384.09 1937.8 1383.91 Q1936.97 1383.7 1935.95 1383.7 Q1932.34 1383.7 1930.39 1386.06 Q1928.47 1388.4 1928.47 1392.8 L1928.47 1406.46 L1924.19 1406.46 L1924.19 1380.53 L1928.47 1380.53 L1928.47 1384.56 Q1929.81 1382.2 1931.97 1381.06 Q1934.12 1379.9 1937.2 1379.9 Q1937.64 1379.9 1938.17 1379.97 Q1938.7 1380.02 1939.35 1380.14 L1939.37 1384.51 Z" fill="#000000" fill-rule="evenodd" fill-opacity="1" /><path clip-path="url(#clip760)" d="M1964.98 1392.43 L1964.98 1394.51 L1945.39 1394.51 Q1945.67 1398.91 1948.03 1401.22 Q1950.42 1403.52 1954.65 1403.52 Q1957.11 1403.52 1959.4 1402.91 Q1961.71 1402.31 1963.98 1401.11 L1963.98 1405.14 Q1961.69 1406.11 1959.28 1406.62 Q1956.87 1407.13 1954.4 1407.13 Q1948.19 1407.13 1944.56 1403.52 Q1940.95 1399.9 1940.95 1393.75 Q1940.95 1387.38 1944.37 1383.65 Q1947.82 1379.9 1953.66 1379.9 Q1958.89 1379.9 1961.92 1383.28 Q1964.98 1386.64 1964.98 1392.43 M1960.72 1391.18 Q1960.67 1387.68 1958.75 1385.6 Q1956.85 1383.52 1953.7 1383.52 Q1950.14 1383.52 1947.99 1385.53 Q1945.86 1387.54 1945.53 1391.2 L1960.72 1391.18 Z" fill="#000000" fill-rule="evenodd" fill-opacity="1" /><path clip-path="url(#clip760)" d="M1989.03 1384.46 L1989.03 1370.44 L1993.29 1370.44 L1993.29 1406.46 L1989.03 1406.46 L1989.03 1402.57 Q1987.68 1404.88 1985.62 1406.02 Q1983.59 1407.13 1980.72 1407.13 Q1976.02 1407.13 1973.05 1403.38 Q1970.11 1399.63 1970.11 1393.52 Q1970.11 1387.4 1973.05 1383.65 Q1976.02 1379.9 1980.72 1379.9 Q1983.59 1379.9 1985.62 1381.04 Q1987.68 1382.15 1989.03 1384.46 M1974.51 1393.52 Q1974.51 1398.21 1976.43 1400.9 Q1978.38 1403.56 1981.76 1403.56 Q1985.14 1403.56 1987.08 1400.9 Q1989.03 1398.21 1989.03 1393.52 Q1989.03 1388.82 1987.08 1386.15 Q1985.14 1383.47 1981.76 1383.47 Q1978.38 1383.47 1976.43 1386.15 Q1974.51 1388.82 1974.51 1393.52 Z" fill="#000000" fill-rule="evenodd" fill-opacity="1" /><path clip-path="url(#clip760)" d="M2002.06 1380.53 L2006.32 1380.53 L2006.32 1406.46 L2002.06 1406.46 L2002.06 1380.53 M2002.06 1370.44 L2006.32 1370.44 L2006.32 1375.83 L2002.06 1375.83 L2002.06 1370.44 Z" fill="#000000" fill-rule="evenodd" fill-opacity="1" /><path clip-path="url(#clip760)" d="M2033.89 1381.52 L2033.89 1385.51 Q2032.08 1384.51 2030.25 1384.02 Q2028.45 1383.52 2026.6 1383.52 Q2022.45 1383.52 2020.16 1386.15 Q2017.87 1388.77 2017.87 1393.52 Q2017.87 1398.26 2020.16 1400.9 Q2022.45 1403.52 2026.6 1403.52 Q2028.45 1403.52 2030.25 1403.03 Q2032.08 1402.52 2033.89 1401.52 L2033.89 1405.46 Q2032.1 1406.29 2030.18 1406.71 Q2028.29 1407.13 2026.13 1407.13 Q2020.28 1407.13 2016.83 1403.45 Q2013.38 1399.77 2013.38 1393.52 Q2013.38 1387.17 2016.85 1383.54 Q2020.35 1379.9 2026.41 1379.9 Q2028.38 1379.9 2030.25 1380.32 Q2032.13 1380.71 2033.89 1381.52 Z" fill="#000000" fill-rule="evenodd" fill-opacity="1" /><path clip-path="url(#clip760)" d="M2045.51 1373.17 L2045.51 1380.53 L2054.28 1380.53 L2054.28 1383.84 L2045.51 1383.84 L2045.51 1397.91 Q2045.51 1401.09 2046.36 1401.99 Q2047.24 1402.89 2049.91 1402.89 L2054.28 1402.89 L2054.28 1406.46 L2049.91 1406.46 Q2044.98 1406.46 2043.1 1404.63 Q2041.23 1402.77 2041.23 1397.91 L2041.23 1383.84 L2038.1 1383.84 L2038.1 1380.53 L2041.23 1380.53 L2041.23 1373.17 L2045.51 1373.17 Z" fill="#000000" fill-rule="evenodd" fill-opacity="1" /><path clip-path="url(#clip760)" d="M2059.88 1380.53 L2064.14 1380.53 L2064.14 1406.46 L2059.88 1406.46 L2059.88 1380.53 M2059.88 1370.44 L2064.14 1370.44 L2064.14 1375.83 L2059.88 1375.83 L2059.88 1370.44 Z" fill="#000000" fill-rule="evenodd" fill-opacity="1" /><path clip-path="url(#clip760)" d="M2083.1 1383.52 Q2079.67 1383.52 2077.68 1386.2 Q2075.69 1388.86 2075.69 1393.52 Q2075.69 1398.17 2077.66 1400.85 Q2079.65 1403.52 2083.1 1403.52 Q2086.5 1403.52 2088.49 1400.83 Q2090.48 1398.15 2090.48 1393.52 Q2090.48 1388.91 2088.49 1386.22 Q2086.5 1383.52 2083.1 1383.52 M2083.1 1379.9 Q2088.66 1379.9 2091.83 1383.52 Q2095 1387.13 2095 1393.52 Q2095 1399.88 2091.83 1403.52 Q2088.66 1407.13 2083.1 1407.13 Q2077.52 1407.13 2074.35 1403.52 Q2071.2 1399.88 2071.2 1393.52 Q2071.2 1387.13 2074.35 1383.52 Q2077.52 1379.9 2083.1 1379.9 Z" fill="#000000" fill-rule="evenodd" fill-opacity="1" /><path clip-path="url(#clip760)" d="M2123.61 1390.81 L2123.61 1406.46 L2119.35 1406.46 L2119.35 1390.95 Q2119.35 1387.27 2117.91 1385.44 Q2116.48 1383.61 2113.61 1383.61 Q2110.16 1383.61 2108.17 1385.81 Q2106.18 1388.01 2106.18 1391.8 L2106.18 1406.46 L2101.9 1406.46 L2101.9 1380.53 L2106.18 1380.53 L2106.18 1384.56 Q2107.71 1382.22 2109.77 1381.06 Q2111.85 1379.9 2114.56 1379.9 Q2119.03 1379.9 2121.32 1382.68 Q2123.61 1385.44 2123.61 1390.81 Z" fill="#000000" fill-rule="evenodd" fill-opacity="1" /></svg>
