\begin{Verbatim}[commandchars=\\\{\}]
\PYG{g+gp}{julia\PYGZgt{}}\PYG{+w}{ }\PYG{n}{hello}\PYG{p}{(}\PYG{l+s}{\PYGZdq{}}\PYG{l+s}{John}\PYG{l+s}{\PYGZdq{}}\PYG{p}{)}
\PYG{g+go}{\PYGZdq{}Hello to John!\PYGZdq{}}

\PYG{g+gp}{julia\PYGZgt{}}\PYG{+w}{ }\PYG{n}{hello}\PYG{p}{(}\PYG{l+s}{\PYGZdq{}}\PYG{l+s}{John}\PYG{l+s}{\PYGZdq{}}\PYG{p}{;}\PYG{+w}{ }\PYG{n}{ending\PYGZus{}char}\PYG{+w}{ }\PYG{o}{=}\PYG{+w}{ }\PYG{l+s}{\PYGZdq{}}\PYG{l+s}{.}\PYG{l+s}{\PYGZdq{}}\PYG{p}{)}
\PYG{g+go}{\PYGZdq{}Hello to John.\PYGZdq{}}
\end{Verbatim}
