\begin{Verbatim}[commandchars=\\\{\}]
\PYG{g+gp}{julia\PYGZgt{}}\PYG{+w}{ }\PYG{n}{a}\PYG{+w}{ }\PYG{o}{=}\PYG{+w}{ }\PYG{p}{[}\PYG{l+m+mi}{1}\PYG{p}{,}\PYG{+w}{ }\PYG{l+m+mi}{2}\PYG{p}{,}\PYG{+w}{ }\PYG{l+m+mi}{3}\PYG{p}{]}\PYG{p}{;}\PYG{+w}{ }\PYG{n}{b}\PYG{+w}{ }\PYG{o}{=}\PYG{+w}{ }\PYG{p}{[}\PYG{l+m+mi}{4}\PYG{p}{,}\PYG{+w}{ }\PYG{l+m+mi}{5}\PYG{p}{,}\PYG{+w}{ }\PYG{l+m+mi}{6}\PYG{p}{]}\PYG{p}{;}

\PYG{g+gp}{julia\PYGZgt{}}\PYG{+w}{ }\PYG{n}{a}\PYG{o}{\PYGZsq{}}\PYG{+w}{ }\PYG{o}{*}\PYG{+w}{ }\PYG{n}{b}
\PYG{g+go}{32}
\end{Verbatim}
