\begin{Verbatim}[commandchars=\\\{\}]
\PYG{g+gp}{julia\PYGZgt{}}\PYG{+w}{ }\PYG{n}{hello}\PYG{p}{(}\PYG{n}{char}\PYG{p}{)}\PYG{+w}{ }\PYG{o}{=}\PYG{+w}{ }\PYG{n}{string}\PYG{p}{(}\PYG{l+s}{\PYGZdq{}}\PYG{l+s}{Hello to }\PYG{l+s}{\PYGZdq{}}\PYG{p}{,}\PYG{+w}{ }\PYG{n}{char}\PYG{p}{)}
\PYG{g+go}{hello (generic function with 3 methods)}

\PYG{g+gp}{julia\PYGZgt{}}\PYG{+w}{ }\PYG{n}{hello}\PYG{p}{(}\PYG{l+s+sc}{\PYGZsq{}u\PYGZsq{}}\PYG{p}{)}
\PYG{g+go}{\PYGZdq{}Hello to u\PYGZdq{}}
\end{Verbatim}
