\begin{Verbatim}[commandchars=\\\{\}]
\PYG{g+gp}{julia\PYGZgt{}}\PYG{+w}{ }\PYG{n}{i}\PYG{+w}{ }\PYG{o}{=}\PYG{+w}{ }\PYG{l+m+mi}{1}
\PYG{g+go}{1}

\PYG{g+gp}{julia\PYGZgt{}}\PYG{+w}{ }\PYG{k}{while}\PYG{+w}{ }\PYG{n}{i}\PYG{+w}{ }\PYG{o}{\PYGZlt{}=}\PYG{+w}{ }\PYG{l+m+mi}{5}\PYG{+w}{ }\PYG{c}{\PYGZsh{} using while}
\PYG{g+go}{	global i \PYGZsh{} we need to make sure that i is in scope}
\PYG{g+go}{	print(i)}
\PYG{g+go}{	i += 1}
\PYG{g+go}{end}
\PYG{g+go}{12345}
\PYG{g+gp}{julia\PYGZgt{}}\PYG{+w}{ }\PYG{k}{for}\PYG{+w}{ }\PYG{n}{i}\PYG{+w}{ }\PYG{k}{in}\PYG{+w}{ }\PYG{l+m+mi}{1}\PYG{o}{:}\PYG{l+m+mi}{5}\PYG{+w}{ }\PYG{c}{\PYGZsh{} using for}
\PYG{g+go}{	print(i)}
\PYG{g+go}{end}
\PYG{g+go}{12345}
\end{Verbatim}
