\begin{Verbatim}[commandchars=\\\{\}]
\PYG{g+gp}{julia\PYGZgt{}}\PYG{+w}{ }\PYG{k}{function}\PYG{+w}{ }\PYG{n}{hello}\PYG{p}{(}\PYG{p}{)}
\PYG{g+go}{	return \PYGZdq{}Hello!\PYGZdq{}}
\PYG{g+go}{end}
\PYG{g+go}{hello (generic function with 1 method)}

\PYG{g+gp}{julia\PYGZgt{}}\PYG{+w}{ }\PYG{k}{function}\PYG{+w}{ }\PYG{n}{hello}\PYG{p}{(}\PYG{n}{name}\PYG{p}{)}
\PYG{g+go}{	return \PYGZdq{}Oh hi, \PYGZdl{}name\PYGZdq{};}
\PYG{g+go}{end}
\PYG{g+go}{hello (generic function with 2 methods)}

\PYG{g+gp}{julia\PYGZgt{}}\PYG{+w}{ }\PYG{k}{function}\PYG{+w}{ }\PYG{n}{hello}\PYG{p}{(}\PYG{n}{number}\PYG{o}{::}\PYG{k+kt}{Number}\PYG{p}{)}
\PYG{g+go}{	return \PYGZdq{}Hello \PYGZdl{}number times\PYGZdq{};}
\PYG{g+go}{end}
\PYG{g+go}{hello (generic function with 3 methods)}
\end{Verbatim}
