\headcommand {\slideentry {0}{0}{1}{1/1}{}{0}}
\headcommand {\beamer@framepages {1}{1}}
\headcommand {\beamer@sectionpages {1}{1}}
\headcommand {\beamer@subsectionpages {1}{1}}
\headcommand {\sectionentry {1}{Úvod}{2}{Úvod}{0}}
\headcommand {\beamer@subsectionpages {2}{1}}
\headcommand {\beamer@subsectionentry {0}{1}{1}{2}{Motivace}}
\headcommand {\slideentry {1}{1}{1}{2/2}{Motivace}{0}}
\headcommand {\beamer@framepages {2}{2}}
\headcommand {\beamer@subsectionpages {2}{2}}
\headcommand {\beamer@subsectionentry {0}{1}{2}{3}{Výsledky}}
\headcommand {\slideentry {1}{2}{1}{3/3}{Výsledky}{0}}
\headcommand {\beamer@framepages {3}{3}}
\headcommand {\beamer@sectionpages {2}{3}}
\headcommand {\beamer@subsectionpages {3}{3}}
\headcommand {\sectionentry {2}{SINDy}{4}{Řídká identifikace nelineární dynamicky (SINDy)}{0}}
\headcommand {\beamer@subsectionpages {4}{3}}
\headcommand {\beamer@subsectionentry {0}{2}{1}{4}{Teoretická formulace}}
\headcommand {\slideentry {2}{1}{1}{4/4}{Teoretická formulace}{0}}
\headcommand {\beamer@framepages {4}{4}}
\headcommand {\slideentry {2}{1}{2}{5/5}{Teoretická formulace}{0}}
\headcommand {\beamer@framepages {5}{5}}
\headcommand {\slideentry {2}{1}{3}{6/6}{Teoretická formulace}{0}}
\headcommand {\beamer@framepages {6}{6}}
\headcommand {\beamer@subsectionpages {4}{6}}
\headcommand {\beamer@subsectionentry {0}{2}{2}{7}{Implementace}}
\headcommand {\slideentry {2}{2}{1}{7/7}{Implementace}{0}}
\headcommand {\beamer@framepages {7}{7}}
\headcommand {\beamer@subsectionpages {7}{7}}
\headcommand {\beamer@subsectionentry {0}{2}{3}{8}{Chování SINDy}}
\headcommand {\slideentry {2}{3}{1}{8/8}{Chování SINDy}{0}}
\headcommand {\beamer@framepages {8}{8}}
\headcommand {\slideentry {2}{3}{2}{9/9}{Chování SINDy}{0}}
\headcommand {\beamer@framepages {9}{9}}
\headcommand {\beamer@sectionpages {4}{9}}
\headcommand {\beamer@subsectionpages {8}{9}}
\headcommand {\sectionentry {3}{Simulační studie}{10}{Simulační studie}{0}}
\headcommand {\slideentry {3}{0}{1}{10/10}{}{0}}
\headcommand {\beamer@framepages {10}{10}}
\headcommand {\beamer@subsectionpages {10}{10}}
\headcommand {\beamer@subsectionentry {0}{3}{1}{11}{FitzHughův--Nagumův model}}
\headcommand {\slideentry {3}{1}{1}{11/11}{FitzHughův--Nagumův model}{0}}
\headcommand {\beamer@framepages {11}{11}}
\headcommand {\slideentry {3}{1}{2}{12/12}{FitzHughův--Nagumův model}{0}}
\headcommand {\beamer@framepages {12}{12}}
\headcommand {\beamer@subsectionpages {11}{12}}
\headcommand {\beamer@subsectionentry {0}{3}{2}{13}{Lorenzův model}}
\headcommand {\slideentry {3}{2}{1}{13/13}{Lorenzův model}{0}}
\headcommand {\beamer@framepages {13}{13}}
\headcommand {\slideentry {3}{2}{2}{14/14}{Lorenzův model}{0}}
\headcommand {\beamer@framepages {14}{14}}
\headcommand {\beamer@sectionpages {10}{14}}
\headcommand {\beamer@subsectionpages {13}{14}}
\headcommand {\sectionentry {4}{Transformace HH modelu na FHN model}{15}{Transformace HH modelu na FHN model}{0}}
\headcommand {\beamer@subsectionpages {15}{14}}
\headcommand {\beamer@subsectionentry {0}{4}{1}{15}{Optimalizační přístup}}
\headcommand {\slideentry {4}{1}{1}{15/15}{Optimalizační přístup}{0}}
\headcommand {\beamer@framepages {15}{15}}
\headcommand {\slideentry {4}{1}{2}{16/16}{Optimalizační přístup}{0}}
\headcommand {\beamer@framepages {16}{16}}
\headcommand {\slideentry {4}{1}{3}{17/17}{Optimalizační přístup}{0}}
\headcommand {\beamer@framepages {17}{17}}
\headcommand {\slideentry {4}{1}{4}{18/18}{Optimalizační přístup}{0}}
\headcommand {\beamer@framepages {18}{18}}
\headcommand {\slideentry {4}{1}{5}{19/19}{Optimalizační přístup}{0}}
\headcommand {\beamer@framepages {19}{19}}
\headcommand {\beamer@sectionpages {15}{19}}
\headcommand {\beamer@subsectionpages {15}{19}}
\headcommand {\sectionentry {5}{Dotazy z posudku}{20}{Dotazy z posudku}{0}}
\headcommand {\slideentry {5}{0}{1}{20/20}{}{0}}
\headcommand {\beamer@framepages {20}{20}}
\headcommand {\slideentry {5}{0}{2}{21/21}{}{0}}
\headcommand {\beamer@framepages {21}{21}}
\headcommand {\slideentry {5}{0}{3}{22/22}{}{0}}
\headcommand {\beamer@framepages {22}{22}}
\headcommand {\slideentry {5}{0}{4}{23/23}{}{0}}
\headcommand {\beamer@framepages {23}{23}}
\headcommand {\beamer@partpages {1}{23}}
\headcommand {\beamer@subsectionpages {20}{23}}
\headcommand {\beamer@sectionpages {20}{23}}
\headcommand {\beamer@documentpages {23}}
\headcommand {\gdef \inserttotalframenumber {23}}
