dV__1,dW__1,time__1,V__1,W__1
1.5666666666666664,-0.549,0.0,-2.0,-0.1
0.5998474339230875,-0.1618927831654941,0.75,-1.3338720670350832,-0.34263790833414814
0.523568629229809,0.03566231007516157,1.5,-0.9290014618780014,-0.3853137997785061
0.6353261800709247,0.19449367492306782,2.25,-0.5067528049081689,-0.29870121425484397
0.9642203826703832,0.38119159938073593,3.0,0.0779491845004977,-0.08642907320975556
1.170567498159955,0.6283912664341272,3.75,0.9294120334135577,0.2912337461165937
0.32830718880142484,0.7095788083299794,4.5,1.5266687599780524,0.8122837046115112
-0.17557437989345814,0.5460312054765712,5.25,1.5456671024263726,1.2903305294869343
-0.300634775530483,0.34254726740664465,6.0,1.3593661092832028,1.6226874493633239
-0.3578931571822985,0.16426367137335998,6.75,1.1139047225973202,1.811092927209539
-0.438963550856746,0.009010883728337582,7.5,0.8202216064925865,1.8752467755370175
-0.6173069419175437,-0.1462140587236375,8.25,0.43492976640832104,1.8248123711316162
-1.0000568030679537,-0.34763981420911794,9.0,-0.15725258842187975,1.644100415053533
-1.150284911060393,-0.610163380310896,9.75,-1.0283738744894826,1.2844309355295245
-0.25593138252479,-0.6749858108148984,10.5,-1.5742493259537669,0.7821489281547314
0.1820205124766494,-0.5093450354619505,11.25,-1.5660880672488806,0.3322372366665394
0.278797381229293,-0.3174392362360101,12.0,-1.386724164611776,0.02337045044641925
0.3137846581195482,-0.1545881696174982,12.75,-1.1649318867316196,-0.15175327614369621
0.35595113964370306,-0.01979388068328767,13.5,-0.9166812789698601,-0.21586859681430381
0.442900235160686,0.10145077451959514,14.25,-0.6225940787277074,-0.18505030540850972
0.6368810106669675,0.23434950606619334,15.0,-0.22786546425353327,-0.060802680500786986
0.9762355232405153,0.4182985112574877,15.75,0.37340180308805315,0.1798119448114895
0.8741764423293114,0.6187331553336463,16.5,1.1339579395013262,0.5737442151165292
0.1218492710871606,0.6124108323058944,17.25,1.5017150064841065,1.0510025572554262
-0.2106219380410752,0.4428740105706802,18.0,1.4445060483827967,1.4504269755599397
-0.3109273115856004,0.25877954340243764,18.75,1.2451383190633165,1.7125908338223743
-0.3779219839041015,0.09622048181505068,19.5,0.9894047226369774,1.844476787143303
-0.4904149693701003,-0.05298429593553671,20.25,0.6706892514114385,1.8605401640852333
-0.7422392866236036,-0.21888595217761386,21.0,0.2222530124567376,1.7608327993976272
-1.1685423012944138,-0.4527466992575122,21.75,-0.49481471011151573,1.5141113325203615
-0.8216846329204381,-0.6750261789251294,22.5,-1.335761326810872,1.0803710607228802
-0.0011956995684099248,-0.617547295150036,23.25,-1.6084574636075768,0.5798373236850733
0.23755304454505355,-0.4269240587189763,24.0,-1.4993810532358856,0.18667384656341032
0.2945671483740876,-0.24587204724455372,24.75,-1.2975277233468947,-0.0639317451709693
0.32812086430763887,-0.09596717826275136,25.5,-1.065575146470763,-0.19039343791414443
0.38371456269320375,0.030934572567900758,26.25,-0.8023752918048325,-0.21389848300020936
0.5051268185176743,0.15302295087286233,27.0,-0.47623706747775385,-0.14536008677180995
0.7668632057054255,0.30210948216179495,27.75,-0.010679174929590885,0.022458025333025367
1.0579999989943443,0.5101900634589651,28.5,0.693009726352852,0.32406753722171733
0.5515944840960174,0.6484275326683931,29.25,1.358143975272252,0.7714923783447781
-0.06733983214241657,0.5502858360242537,30.0,1.5083229992865153,1.2318319823741057
-0.2637433053776628,0.3646936071453862,30.75,1.3710165124684934,1.575732842959544
-0.3374103481895776,0.18884142094189188,31.5,1.1452211707860283,1.7819669608661688
-0.4148019523595019,0.03402930130714954,32.25,0.8673389961121656,1.8646479081759026
-0.5704363362506393,-0.11704926128987057,33.0,0.5072133822300839,1.834153564703912
-0.9136398158033734,-0.3049767274119932,33.75,-0.03401855020790607,1.6796343883845428
-1.2066192567767875,-0.5650994425950625,34.5,-0.8710918457779782,1.3558558666527005
-0.40784156833017016,-0.6847822463815586,35.25,-1.5272832035453032,0.8680689021838117
0.1427987094187475,-0.5420733453291328,36.0,-1.5850057177147123,0.39950214543753376
0.2693036077437291,-0.34834753063813834,36.75,-1.421105087090589,0.06625067068714806
0.30796313444064805,-0.18015346419716277,37.5,-1.2043589324965693,-0.13002237618414847
0.34650669304702625,-0.04142647207617935,38.25,-0.961422229264595,-0.21170425303580115
0.4224268765025106,0.08063787637297244,39.0,-0.6780622655122471,-0.1965719329263435
0.5919294356957241,0.20900190984200398,39.75,-0.30692377292733225,-0.0892155768313986
0.9173018839882552,0.3817161150350576,40.5,0.2509986393291472,0.12842575739738502
0.9705921542564939,0.5930528539222436,41.25,1.0145838624765942,0.49586078942284373
0.2299967757188408,0.6308232258767941,42.0,1.4786436270693044,0.9710177952899803
-0.17918927694404374,0.4752945678815436,42.75,1.469216086241203,1.39125741924166
-0.2989212028788397,0.28903060240271633,43.5,1.28408385421169,1.6772420333126223
-0.36507004521877984,0.1226855846221096,44.25,1.0369201064383602,1.8303568424309788
-0.464544571598398,-0.027350647479212564,45.0,0.7317829798411124,1.8657027455769808
-0.683287460451026,-0.18699255733540204,45.75,0.3141261357323777,1.7870814400415886
-1.1035034288237566,-0.40664330373344426,46.5,-0.34803567551471887,1.5695201381995019
-0.981548068729055,-0.6530320186443466,47.25,-1.2183569962652803,1.1660315842360285
-0.09269306236422148,-0.6438651579428158,48.0,-1.6019508328286918,0.6610757865830679
0.21809909944644368,-0.46067094977169576,48.75,-1.5286022766009044,0.24388868139246886
0.28838040572909773,-0.2748131051537834,49.5,-1.334955720774002,-0.03032491442921544
0.3218829302468935,-0.11981422768974406,50.25,-1.1075145926425538,-0.17657594166501436
0.3711115055280064,0.00998782622228197,51.0,-0.8511907503341127,-0.21673239964620192
0.4765594593830196,0.1310894408383853,51.75,-0.5398783525303922,-0.16398527632517165
0.7087899175394095,0.2724217303712856,52.5,-0.1066348305464303,-0.015020566992164563
1.0384701272899757,0.4714962218211576,53.25,0.5559076967336857,0.26017289363611384
0.6952357960832009,0.6420077167885554,54.0,1.2768521675372644,0.6877104405644822
0.0006910001175279845,0.5785216425653056,54.75,1.5124324296254104,1.1585359743503583
-0.2445733088862727,0.39726714417707387,55.5,1.4038037164025696,1.5262348005668955
-0.32648111705501837,0.21761546541622195,56.25,1.1880459233509126,1.7555700002546908
-0.3981427630580219,0.0598570700475047,57.0,0.9198629315289272,1.8585590253903124
-0.5335170746295179,-0.08971994346333075,57.75,0.5787325119610817,1.8476377051272705
-0.8372241780811949,-0.26715439418072323,58.5,0.07983607595714322,1.7168906343373267
-1.217852840067308,-0.5186813374924741,59.25,-0.7114897354294415,1.4264193237478484
-0.5774784283092833,-0.6876500031998315,60.0,-1.462214745439214,0.9573704659782918
0.09286267579199015,-0.5749860862299628,60.75,-1.5998978286895578,0.47231128699906066
0.25804204492654326,-0.3807892066604328,61.5,-1.4551194306994153,0.1138485079047109
0.3025433290077772,-0.20715163017852983,62.25,-1.2441406951824028,-0.1047546740376429
0.3383088872195122,-0.06401012312205279,63.0,-1.006194401289959,-0.2049371040511912
0.4046250473720171,0.05968198878869792,63.75,-0.7321281166845565,-0.2059434480465231
0.5518653207060114,0.1846128332294766,64.5,-0.38192651032090813,-0.11522156353857024
0.8531115305723431,0.3465037131312371,65.25,0.13436099783524383,0.08044093304061818
1.0333095899905387,0.5604830373601076,66.0,0.8813946603903691,0.4198459994876623
0.35797670116305647,0.6434906057590587,66.75,1.4396423737163968,0.8870790622592217
-0.13926552332920528,0.508023823489373,67.5,1.4901186685356675,1.3264710481991038
-0.2853259692951753,0.32066038155605403,68.25,1.3222017911213855,1.6370289568015817
-0.352886214148763,0.15032005698133433,69.0,1.0838982604419787,1.8123171117154333
-0.44148414632646316,-0.0013085861448308479,69.75,0.7911461082966962,1.867567596884289
-0.6308528680309511,-0.1564038226536992,70.5,0.40015722410149523,1.809651593053811
-1.0246134437273173,-0.3616069937474237,71.25,-0.20749102726842297,1.6201000874350926
-1.1098686158602697,-0.621012071560599,72.0,-1.0801841849847396,1.2498033008818505
-0.20918242021886102,-0.6660420674578991,72.75,-1.5822414162447898,0.7473150837437325
0.1917962345452141,-0.4952895207113177,73.5,-1.5551901946784972,0.30681648084998303
0.28124257989916157,-0.30532814965123817,74.25,-1.3722341531211937,0.00784105762972511
0.31568967663653524,-0.1447755706245765,75.0,-1.1489726503951627,-0.15906145014790748
0.3597115184305407,-0.01146788915532725,75.75,-0.8986463374991471,-0.21645267422024708
0.4513937313482088,0.10951879364462175,76.5,-0.600286575131344,-0.17957709014924042
0.6555449415325927,0.24449112503172452,77.25,-0.19562919980394583,-0.04867851373194491
0.9962197092402533,0.43272951225841483,78.0,0.42259820024060346,0.20122132736071313
0.8286674612767938,0.6267392159675349,78.75,1.1767027858023122,0.6049362156764047
0.0851168147996848,0.6037566118732398,79.5,1.506766441791935,1.0813563525920307
-0.2208350643437198,0.43019450542455356,80.25,1.4337318412781568,1.4721800643072693
-0.315256814336351,0.24725652346164487,81.0,1.2295979873248057,1.7251738078736603
-0.3832066793651261,0.08607584366330172,81.75,0.970488437576804,1.8490109812396112
-0.501524646843611,-0.06308431756769915,82.5,0.6458926724422205,1.8576000560186063
-0.7669409400810541,-0.23171359227776595,83.25,0.18475906497183067,1.749597698653027
-1.1884150941110672,-0.47113433910462305,84.0,-0.5542051035108785,1.4909501181242435
-0.7543645950127604,-0.6807649341163797,84.75,-1.3756363074928706,1.0464683215127442
0.02867988715013836,-0.606286483385354,85.5,-1.6079623020851013,0.5491762429084952
0.24406925713808825,-0.4139894121207129,86.25,-1.48752278906422,0.16556710289392743
0.29680202502016506,-0.2348726322396008,87.0,-1.2827355177188546,-0.07599541870523284
0.33077480244771607,-0.08691860135417694,87.75,-1.049142025174534,-0.19498697215100946
0.3891197752566543,0.03897013039637456,88.5,-0.7831195390686072,-0.21214978604791054
0.5173025310261492,0.16168381816286295,89.25,-0.450675377996575,-0.1374659396147825
0.7904354467496241,0.3141105557438287,90.0,0.028345133974595857,0.03790209595760964
1.0576990976318854,0.5247789359089889,90.75,0.7461651173381046,0.3499871302587728
0.4958349651586109,0.6486150256516366,91.5,1.3845584534663467,0.8039896622450536
-0.08970160281733719,0.5387074527244349,92.25,1.504432676700978,1.2591312549750144
-0.2703270741592758,0.3522562421698871,93.0,1.3577731768916637,1.5937269095315596
-0.3417067805075389,0.17790499543320729,93.75,1.1283092724799395,1.7912060477299039
-0.4218076791524876,0.02412907357503217,94.5,0.8465185209959687,1.8661229468698712
-0.5860878781903784,-0.12778561411416575,95.25,0.47846525724480166,1.8280416107620179
-0.9444140628260735,-0.32030251047371294,96.0,-0.08056334173037488,1.664025018597345
-1.1892783726998948,-0.5816034195914177,96.75,-0.930598572464308,1.3273168388402194
-0.34849420805237474,-0.6808965145357647,97.5,-1.5458782366900616,0.8340314111812135
0.15822787091484125,-0.5290984987390166,98.25,-1.5775114611029701,0.37282872567411124
0.2728219243318626,-0.33614697634837437,99.0,-1.4076088952002466,0.0492304819673982
0.3102381453350616,-0.17019511636623522,99.75,-1.189268984460966,-0.13882201844777636
0.3212802940917997,-0.12167011493744119,100.0,-1.1105906809476924,-0.1752658096917233
