dV__1,dW__1,time__1,V__1,W__1
1.5666666666666664,-0.549,0.0,-2.0,-0.1
0.9495500471434353,-0.37274439466528286,0.25,-1.699134778455726,-0.2135173767772054
0.7109026154834863,-0.2533511993404882,0.5,-1.4958520650910958,-0.29106174986251365
0.5998474339230875,-0.1618927831654941,0.75,-1.3338720670350832,-0.34263790833414814
0.5460287238513615,-0.08685346945725426,1.0,-1.1918394250913198,-0.3735396439828879
0.5239487570742982,-0.02225070903925899,1.25,-1.059090034494558,-0.38705501800914477
0.523568629229809,0.03566231007516157,1.5,-0.9290014618780014,-0.3853137997785061
0.5414998204009676,0.0895598467833773,1.75,-0.7966820298802725,-0.3696298895263888
0.5779171116069516,0.1417480422267033,2.0,-0.6575739059373781,-0.3407119441625651
0.6353261800709247,0.19449367492306782,2.25,-0.5067528049081689,-0.29870121425484397
0.7176253124687278,0.25023215173425284,2.5,-0.3384514625027403,-0.24315363850134994
0.8281151457504304,0.31161701773409484,2.75,-0.14590763095134832,-0.17298736572833776
0.9642203826703832,0.38119159938073593,3.0,0.0779491845004977,-0.08642907320975556
1.1060377117781997,0.46015487717162984,3.25,0.33744731143896795,0.01860114715529374
1.201438471792467,0.5458763161396093,3.5,0.6285070730267435,0.14431074089562573
1.170567498159955,0.6283912664341272,3.75,0.9294120334135577,0.2912337461165937
0.967068450191424,0.6910761117632557,4.0,1.2009386734984644,0.45651747586403685
0.6473854555582161,0.719201868425455,4.25,1.404840724953849,0.6332679383438254
0.32830718880142484,0.7095788083299794,4.5,1.5266687599780524,0.8122837046115112
0.08426733037953849,0.6701694950331911,4.75,1.5772808981025652,0.9850191919804534
-0.07652460276218198,0.6125079906725162,5.0,1.5775077237038169,1.1454735694283373
-0.17557437989345814,0.5460312054765712,5.25,1.5456671024263726,1.2903305294869343
-0.23602658963825696,0.47685286507754415,5.5,1.4942271830093958,1.4181926868796777
-0.27433150207145673,0.40844887974267297,5.75,1.430730007721216,1.5288322881440948
-0.300634775530483,0.34254726740664465,6.0,1.3593661092832028,1.6226874493633239
-0.32100493283262477,0.2798351599992132,6.25,1.2822599099757626,1.7005049985829996
-0.33918725855747245,0.2204729951391497,6.5,1.2003621820285728,1.7630277410380777
-0.3578931571822985,0.16426367137335998,6.75,1.1139047225973202,1.811092927209539
-0.37930204489364594,0.11074143318264112,7.0,1.0224604442351963,1.845460463119992
-0.40553523648035905,0.059235932185808915,7.25,0.9250106583277666,1.8667190668380167
-0.438963550856746,0.009010883728337582,7.5,0.8202216064925865,1.8752467755370175
-0.48259633820144354,-0.04098949934945563,7.75,0.7059171707527461,1.871256183856087
-0.5403588105283899,-0.09213454254709852,8.0,0.5789624289105642,1.8546323209912565
-0.6173069419175437,-0.1462140587236375,8.25,0.43492976640832104,1.8248123711316162
-0.7185423749267124,-0.20514582660667433,8.5,0.2688587966462604,1.7809230141596983
-0.847763726867,-0.27150540445392496,8.75,0.07379242659277956,1.7214222122796548
-1.0000568030679537,-0.34763981420911794,9.0,-0.15725258842187975,1.644100415053533
-1.1474288412448768,-0.4338196846998402,9.25,-0.42682497372268113,1.546523462568427
-1.225313870538548,-0.5255263565450299,9.5,-0.7265520065377717,1.4266054266750905
-1.150284911060393,-0.610163380310896,9.75,-1.0283738744894826,1.2844309355295245
-0.8992085049214624,-0.6696153112837726,10.0,-1.2888345827675785,1.1239993028843394
-0.5611653989895637,-0.6909841295665522,10.25,-1.4728545253396699,0.9533322032325019
-0.25593138252479,-0.6749858108148984,10.5,-1.5742493259537669,0.7821489281547314
-0.03769615848248686,-0.6320929617593262,10.75,-1.609832487364917,0.6185231734586485
0.09984914686037138,-0.5739894918745699,11.0,-1.6013978439414356,0.46766795028034414
0.1820205124766494,-0.5093450354619505,11.25,-1.5660880672488806,0.3322372366665394
0.23059749836267818,-0.44336562674064417,11.5,-1.514736743810134,0.21315025562801077
0.25993537956319224,-0.37890986404072935,11.75,-1.4537128335132627,0.11038635822155857
0.278797381229293,-0.3174392362360101,12.0,-1.386724164611776,0.02337045044641925
0.2921963772161468,-0.25952358891172156,12.25,-1.3156910022707404,-0.04871489475031014
0.30321237863059947,-0.20529566258064655,12.5,-1.241640990200499,-0.10678550835993891
0.3137846581195482,-0.1545881696174982,12.75,-1.1649318867316196,-0.15175327614369621
0.3253211015551404,-0.10707685130901208,13.0,-1.085520915415636,-0.184465446188956
0.33896440008525996,-0.06232226699854009,13.25,-1.0029916131259045,-0.20562210807810255
0.35595113964370306,-0.01979388068328767,13.5,-0.9166812789698601,-0.21586859681430381
0.37769492555800727,0.02115640923845748,13.75,-0.8255426505060429,-0.21569611657271331
0.4059605689561415,0.06130245172272815,14.0,-0.7280852900505916,-0.20539120068192895
0.442900235160686,0.10145077451959514,14.25,-0.6225940787277074,-0.18505030540850972
0.49134704796406237,0.14270339820019598,14.5,-0.5065213924703308,-0.15455006892179124
0.5547764331822904,0.18643919713613633,14.75,-0.37643584094557175,-0.11343145989345453
0.6368810106669675,0.23434950606619334,15.0,-0.22786546425353327,-0.060802680500786986
0.7393869342868974,0.2880944962716325,15.25,-0.056260342959245056,0.004412081657519924
0.8584247496372917,0.34928967015386303,15.5,0.14336819900813355,0.08396116499943615
0.9762355232405153,0.4182985112574877,15.75,0.37340180308805315,0.1798119448114895
1.05240400462274,0.49232912209983537,16.0,0.6289599768676633,0.29361907636281426
1.0298272735567497,0.5633715454584565,16.25,0.8924935040638406,0.4256959204729773
0.8741764423293114,0.6187331553336463,16.5,1.1339579395013262,0.5737442151165292
0.6190418450893376,0.6465768751933896,16.75,1.3226799556203022,0.7323030689881842
0.3468351910200108,0.6428743098487676,17.0,1.4436921732305703,0.8938532447360806
0.1218492710871606,0.6124108323058944,17.25,1.5017150064841065,1.0510025572554262
-0.03794601046642887,0.5639163814257568,17.5,1.5116702328034783,1.1981533981550232
-0.14300870058753268,0.5054682251445672,17.75,1.4887592177731948,1.3318706190371399
-0.2106219380410752,0.4428740105706802,18.0,1.4445060483827967,1.4504269755599397
-0.2552113650273691,0.3797605804235186,18.25,1.3865073051545842,1.5532436302667896
-0.2865675828285925,0.3180981066040563,18.5,1.319255522504703,1.6404635514529444
-0.3109273115856004,0.25877954340243764,18.75,1.2451383190633165,1.7125908338223743
-0.33235743274300544,0.20212542963591038,19.0,1.1653180222678274,1.7701880010683664
-0.35387783108541293,0.14806983345431476,19.25,1.080196895045502,1.8139410258782254
-0.3779219839041015,0.09622048181505068,19.5,0.9894047226369774,1.844476787143303
-0.4068438160464851,0.04596922587467206,19.75,0.8919604838806774,1.8622583107545354
-0.44325125519212416,-0.0034061244899800057,20.0,0.7864921155249879,1.8675766013228459
-0.4904149693701003,-0.05298429593553671,20.25,0.6706892514114385,1.8605401640852333
-0.5525679341591889,-0.10420299032267126,20.5,0.5411566843997004,1.8408986063959345
-0.6348685297163026,-0.15883714919474587,20.75,0.39342363028073896,1.807993841169662
-0.7422392866236036,-0.21888595217761386,21.0,0.2222530124567376,1.7608327993976272
-0.8773937533832776,-0.2870375274942503,21.25,0.020258067560297122,1.6976490497121777
-1.031202394988397,-0.36514233342289426,21.5,-0.2184316062444514,1.6162447517024752
-1.1685423012944138,-0.4527466992575122,21.75,-0.49481471011151573,1.5141113325203615
-1.2177166018164989,-0.5438416852457463,22.0,-0.7969445170217293,1.3894907016276887
-1.1011705234343858,-0.6239245595309512,22.25,-1.0919281447595324,1.2432135955254486
-0.8216846329204381,-0.6750261789251294,22.5,-1.335761326810872,1.0803710607228802
-0.4848471019667526,-0.6873715271616961,22.75,-1.499807278220016,0.9096062554519133
-0.1988232981291066,-0.6645035307893044,23.0,-1.584448688257679,0.7402822807593022
-0.0011956995684099248,-0.617547295150036,23.25,-1.6084574636075768,0.5798373236850733
0.12134927337659107,-0.557599522828802,23.5,-1.5928189031502071,0.43286393447557997
0.19417964558416445,-0.4925001930457503,23.75,-1.5531775344366143,0.3015841737479829
0.23755304454505355,-0.4269240587189763,24.0,-1.4993810532358856,0.18667384656341032
0.26430200938494064,-0.36332710432441506,24.25,-1.4370750795113174,0.08789810706756152
0.2818494740325175,-0.30283195949402075,24.5,-1.3692622828495162,0.004622033921495465
0.2945671483740876,-0.24587204724455372,24.75,-1.2975277233468947,-0.0639317451709693
0.30540669748790916,-0.19256744286149993,25.0,-1.222889668120382,-0.11870252164631098
0.31615228833693243,-0.14272556513649207,25.25,-1.1456323997525129,-0.16058059653371862
0.32812086430763887,-0.09596717826275136,25.5,-1.065575146470763,-0.19039343791414443
0.3425051903658617,-0.05181651588365962,25.75,-0.9822342978186962,-0.2088581059298714
0.36056067142794956,-0.009719266521376542,26.0,-0.8948441082797877,-0.21655717279035538
0.38371456269320375,0.030934572567900758,26.25,-0.8023752918048325,-0.21389848300020936
0.41381967103774886,0.07093133406343562,26.5,-0.7033070090851599,-0.20116524486599327
0.45326573425652006,0.11122939393312939,26.75,-0.5955464335165896,-0.1784035805988743
0.5051268185176743,0.15302295087286233,27.0,-0.47623706747775385,-0.14536008677180995
0.5727538672754177,0.19759144877860557,27.25,-0.3421494101426286,-0.1015518981744124
0.6596302113695948,0.24667982559713988,27.5,-0.18867811616485608,-0.04606938297590326
0.7668632057054255,0.30210948216179495,27.75,-0.010679174929590885,0.022458025333025367
0.8879162970395378,0.36521441065266436,28.0,0.19620222055812755,0.10576830166248072
1.0002858099863094,0.4358449107589792,28.25,0.43319102089911976,0.20580846846006862
1.0579999989943443,0.5101900634589651,28.5,0.693009726352852,0.32406753722171733
1.0042688335802739,0.5787374772010997,28.75,0.9543605309616604,0.46034656036568744
0.8186371421995793,0.6282736421018055,29.0,1.1853919431366589,0.6115353675269194
0.5515944840960174,0.6484275326683931,29.25,1.358143975272252,0.7714923783447781
0.2868224547527374,0.6375634398737302,29.5,1.4628537688123866,0.9325576558106772
0.07760351273581878,0.6018883205232305,29.75,1.5076878728695722,1.087697839633547
-0.06733983214241657,0.5502858360242537,30.0,1.5083229992865153,1.2318319823741057
-0.16182439400237336,0.49041532867522514,30.25,1.479381780435252,1.3619624236684396
-0.22291410486789043,0.4275210549878994,30.5,1.4314092480693,1.4767030740091267
-0.2637433053776628,0.3646936071453862,30.75,1.3710165124684934,1.575732842959544
-0.2928991331777382,0.3035212448773502,31.0,1.301894690655902,1.6592537942161265
-0.31617932454017095,0.24483510168466555,31.25,1.226296429142569,1.7277730317485847
-0.3374103481895776,0.18884142094189188,31.5,1.1452211707860283,1.7819669608661688
-0.35935742130212756,0.13533203667348145,31.75,1.0587425281121894,1.8225058360472326
-0.38435568302371426,0.08394034240492347,32.0,0.9664622065145909,1.8499101403517844
-0.4148019523595019,0.03402930130714954,32.25,0.8673389961121656,1.8646479081759026
-0.45348158714369635,-0.015289553404223239,32.5,0.7596195772861548,1.8669954532860913
-0.5039394449307057,-0.0652137527656933,32.75,0.6406193947002076,1.8569235566132962
-0.5704363362506393,-0.11704926128987057,33.0,0.5072133822300839,1.834153564703912
-0.6581732431551892,-0.1726654185994221,33.25,0.3546917447586942,1.79799084372454
-0.7723104070665752,-0.23446998123785495,33.5,0.17666755321400815,1.747139944955996
-0.9136398158033734,-0.3049767274119932,33.75,-0.03401855020790607,1.6796343883845428
-1.0680748377825868,-0.3855905189161285,34.0,-0.2821052362225307,1.59345322948886
-1.1921033711461895,-0.47503209321233586,34.25,-0.5668578951850046,1.4859612232752326
-1.2066192567767875,-0.5650994425950625,34.5,-0.8710918457779782,1.3558558666527005
-1.0454987717300452,-0.6396632118905463,34.75,-1.1575167138226987,1.2049463629731443
-0.7400525844041959,-0.6817546379600572,35.0,-1.3835595981083102,1.0393133855869932
-0.40784156833017016,-0.6847822463815586,35.25,-1.5272832035453032,0.8680689021838117
-0.1425336510732268,-0.6549218061228983,35.5,-1.5951325215337309,0.7003115873131093
0.03462929336503473,-0.6038742364986552,35.75,-1.6076973113765094,0.5428067954978502
0.1427987094187475,-0.5420733453291328,36.0,-1.5850057177147123,0.39950214543753376
0.2069030933690088,-0.4765243218999581,36.25,-1.5412046828104198,0.2721728184313032
0.24532362011686637,-0.41127018656083636,36.5,-1.4849610739374066,0.16121584246945378
0.2693036077437291,-0.34834753063813834,36.75,-1.421105087090589,0.06625067068714806
0.2851969723253719,-0.28863853292930564,37.0,-1.3520939698375027,-0.013343759715473996
0.2972715614524968,-0.23258217810501566,37.25,-1.2796199511607071,-0.07846333310361833
0.30796313444064805,-0.18015346419716277,37.5,-1.2043589324965693,-0.13002237618414847
0.31889629169725753,-0.13110380593844875,37.75,-1.126459304651842,-0.16889689209688943
0.331345946845637,-0.08503000636047794,38.0,-1.0456715443142248,-0.19589496828034234
0.34650669304702625,-0.04142647207617935,38.25,-0.961422229264595,-0.21170425303580115
0.36564927299460126,0.00025022853403713354,38.5,-0.8729255528643387,-0.21685202034163764
0.39029866954835246,0.040663181582008184,38.75,-0.7790221830259075,-0.2117310109546294
0.4224268765025106,0.08063787637297244,39.0,-0.6780622655122471,-0.1965719329263435
0.46459049777138817,0.12119108504124863,39.25,-0.5677643934241607,-0.17134739467255825
0.5199496299431717,0.16352241593530556,39.5,-0.4452164334746889,-0.1357494749969877
0.5919294356957241,0.20900190984200398,39.75,-0.30692377292733225,-0.0892155768313986
0.6838406824104987,0.25947942817005243,40.0,-0.14794077025998076,-0.030702152186232675
0.7954663155151861,0.3166781200787805,40.25,0.03671453046031425,0.04123171841211356
0.9173018839882552,0.3817161150350576,40.5,0.2509986393291472,0.12842575739738502
1.0215144993087204,0.45378682890743555,40.75,0.4946470546556234,0.2327898491322084
1.0570357302453648,0.5278383206289653,41.0,0.7574037903887894,0.35553718068330503
0.9705921542564939,0.5930528539222436,41.25,1.0145838624765942,0.49586078942284373
0.7580403353071907,0.6361330100822119,41.5,1.233512177005112,0.6498540821391351
0.48420296177268973,0.6485065065349594,41.75,1.3897697602359058,0.8108052376977724
0.2299967757188408,0.6308232258767941,42.0,1.4786436270693044,0.9710177952899803
0.036921874469818095,0.5904575270933855,42.25,1.5112194551981435,1.1238645215160528
-0.09418798300660414,0.5362498923596438,42.5,1.5035010468164949,1.2647932741882746
-0.17918927694404374,0.4752945678815436,42.75,1.469216086241203,1.39125741924166
-0.23442374488703677,0.4122319102374225,43.0,1.4178275471040047,1.5021957943316098
-0.2716573112891141,0.34965248087835593,43.25,1.3549486618712703,1.5974289360103213
-0.2989212028788397,0.28903060240271633,43.5,1.28408385421169,1.6772420333126223
-0.32141908446823564,0.23100293716539813,43.75,1.2071200915760132,1.7422252890105772
-0.3426054896429238,0.1756262862311265,44.0,1.1247339910134646,1.793066693680368
-0.36507004521877984,0.1226855846221096,44.25,1.0369201064383602,1.8303568424309788
-0.3911523127461576,0.0717312748822639,44.5,0.9431187084328564,1.8546448442014483
-0.4233226296397028,0.02204868443060255,44.75,0.842090103254655,1.866366283427756
-0.464544571598398,-0.027350647479212564,45.0,0.7317829798411124,1.8657027455769808
-0.5184175297042046,-0.07755036285344895,45.25,0.6097419726266318,1.8525951403762033
-0.5895184121375527,-0.13008251621056727,45.5,0.4722679999529511,1.82667532274832
-0.683287460451026,-0.18699255733540204,45.75,0.3141261357323777,1.7870814400415886
-0.8044538458919182,-0.2507787155073938,46.0,0.12855263454661792,1.732298336259366
-0.9509470952104828,-0.32358064382936835,46.25,-0.0905617902902394,1.660632883885446
-1.1035034288237566,-0.40664330373344426,46.5,-0.34803567551471887,1.5695201381995019
-1.2089620083414638,-0.4971835586476674,46.75,-0.6395785102180113,1.4565923029154508
-1.1846682376913784,-0.5850166695199914,47.0,-0.9430943216169103,1.3211784022010602
-0.981548068729055,-0.6530320186443466,47.25,-1.2183569962652803,1.1660315842360285
-0.6579728251292445,-0.6858171143183243,47.5,-1.4255601063460943,0.9980974068405045
-0.3362716332706188,-0.6799403841956586,47.75,-1.549494663043047,0.8268549606285759
-0.09269306236422148,-0.6438651579428158,48.0,-1.6019508328286918,0.6610757865830679
0.06557396474411437,-0.5894523708270555,48.25,-1.6044755336753271,0.5067732796476615
0.16128537789367536,-0.5263365140734358,48.5,-1.5758247393273819,0.367264948266983
0.21809909944644368,-0.46067094977169576,48.75,-1.5286022766009044,0.24388868139246886
0.2521224166226873,-0.3958092400717705,49.0,-1.4701043228397683,0.13683970776076293
0.27356970418804905,-0.33359065280008926,49.25,-1.40475657415142,0.045694984533195065
0.28838040572909773,-0.2748131051537834,49.5,-1.334955720774002,-0.03032491442921544
0.30002904032637634,-0.2196787294410349,49.75,-1.2618781489068387,-0.09212899324178478
0.31068813217462415,-0.1680879034852096,50.0,-1.186014903810176,-0.14060778674824886
0.3218829302468935,-0.11981422768974406,50.25,-1.1075145926425538,-0.17657594166501436
0.3348489330131813,-0.0744081408812695,50.5,-1.0260176720216754,-0.20083280980134557
0.3508185926453074,-0.031331486983936695,50.75,-0.9408719589678941,-0.21405804042115456
0.3711115055280064,0.00998782622228197,51.0,-0.8511907503341127,-0.21673239964620192
0.397316998834563,0.05020403507377415,51.25,-0.755798235352573,-0.20920344717342215
0.43154474037462537,0.09020242344637727,51.5,-0.6528779105896199,-0.1916596755880728
0.4765594593830196,0.1310894408383853,51.75,-0.5398783525303922,-0.16398527632517165
0.5354597609055057,0.17398055580577967,52.0,-0.414065946098798,-0.12586175430621885
0.6119157415995242,0.22047159534102567,52.25,-0.2713414579059724,-0.07659792055198128
0.7087899175394095,0.2724217303712856,52.5,-0.1066348305464303,-0.015020566992164563
0.8242383542355872,0.3314315741832521,52.75,0.08480637911196258,0.06036471226980857
0.9453137627609854,0.39833991062268664,53.0,0.30639306030962155,0.1514915736573417
1.0384701272899757,0.4714962218211576,53.25,0.5559076967336857,0.26017289363611384
1.0489371980479363,0.5445734055105445,53.5,0.8199754686917046,0.38726543166867394
0.9301327358614339,0.6057571590851459,53.75,1.0712021119085353,0.5313438646491527
0.6952357960832009,0.6420077167885554,54.0,1.2768521675372644,0.6877104405644822
0.4196795241901682,0.6468199765293488,54.25,1.4167341004465626,0.8491954685322344
0.17812908302122676,0.6229280844506868,54.5,1.490840446861317,1.0081947684358494
0.0006910001175279845,0.5785216425653056,54.75,1.5124324296254104,1.1585359743503583
-0.11794069401163498,0.5222007225673763,55.0,1.4973952341528225,1.2961864800038718
-0.1946324196651179,0.46044806694946466,55.25,1.4584349119072162,1.4190212316910626
-0.2445733088862727,0.39726714417707387,55.5,1.4038037164025696,1.5262348005668955
-0.27878461744318095,0.3350369083785171,55.75,1.338731851435517,1.617756735465182
-0.30454640441880065,0.27500970060571583,56.0,1.266323342664929,1.6939883433152838
-0.32648111705501837,0.21761546541622195,56.25,1.1880459233509126,1.7555700002546908
-0.3477460024598935,0.16284331798619076,56.5,1.1043840518943324,1.8031375149062745
-0.37084732642875196,0.11043815884333437,56.75,1.0152425135030014,1.837280478425045
-0.3981427630580219,0.0598570700475047,57.0,0.9198629315289272,1.8585590253903124
-0.4321892114362873,0.010307744715902822,57.25,0.8167736097591762,1.867334387988129
-0.476041186974246,-0.039149969346413016,57.5,0.7039821855124029,1.8637276467416506
-0.5335170746295179,-0.08971994346333075,57.75,0.5787325119610817,1.8476377051272705
-0.6095014918507136,-0.14309816170159914,58.0,0.4368611515651037,1.8185713330719326
-0.7096212772386281,-0.20149938074333348,58.25,0.27259507912887443,1.7754643509759083
-0.8372241780811949,-0.26715439418072323,58.5,0.07983607595714322,1.7168906343373267
-0.9879144172706711,-0.3423775990971157,58.75,-0.14819810655908508,1.6408012531820202
-1.1355851031373285,-0.4276823893267706,59.0,-0.4146376839024758,1.544709532140712
-1.217852840067308,-0.5186813374924741,59.25,-0.7114897354294415,1.4264193237478484
-1.1524530630115342,-0.603471711259502,59.5,-1.012297648494011,1.2859382484366584
-0.9112164445286333,-0.6643067782021999,59.75,-1.274701125068471,1.126920199781633
-0.5774784283092833,-0.6876500031998315,60.0,-1.462214745439214,0.9573704659782918
-0.2704230998027184,-0.6736395638501486,60.25,-1.5675410104632304,0.7867947476158194
-0.04816036007463087,-0.6322132590961174,60.5,-1.6062603062092888,0.6233225591720483
0.09286267579199015,-0.5749860862299628,60.75,-1.5998978286895578,0.47231128699906066
0.1773255352650691,-0.510786135246943,61.0,-1.5658320113115258,0.33656036154654534
0.22748803125790418,-0.4450717092810183,61.25,-1.515376978262364,0.2170890807304289
0.25804204492654326,-0.3807892066604328,61.5,-1.4551194306994153,0.1138485079047109
0.27752866211784755,-0.3193422876497747,61.75,-1.3885708266211554,0.02634837686181856
0.291317472851496,-0.26141908022634586,62.0,-1.3179019158233207,-0.04621328303930125
0.3025433290077772,-0.20715163017852983,62.25,-1.2441406951824028,-0.1047546740376429
0.313202582762624,-0.1563837885067643,62.5,-1.167667945202246,-0.150185518984018
0.3247476081458154,-0.10880818942715335,62.75,-1.0884797492857312,-0.18335471597618255
0.3383088872195122,-0.06401012312205279,63.0,-1.006194401289959,-0.2049371040511912
0.3551507411740128,-0.021437051868163266,63.25,-0.9201235194916743,-0.2156070330641394
0.37670214364247046,0.019575330087589354,63.5,-0.8291798935059379,-0.21585078379239286
0.4046250473720171,0.05968198878869792,63.75,-0.7321281166845565,-0.2059434480465231
0.4411047145179207,0.09975820693635051,64.0,-0.6271315634743572,-0.18602058472169797
0.48900765928414014,0.14093716521205238,64.25,-0.5115630004067424,-0.1559458760974625
0.5518653207060114,0.1846128332294766,64.5,-0.38192651032090813,-0.11522156353857024
0.6329155838941998,0.2321930788627148,64.75,-0.23453739269036386,-0.06315251548160714
0.7345820870839062,0.2856608838143678,65.0,-0.06396950227923458,0.0015356671110460915
0.8531115305723431,0.3465037131312371,65.25,0.13436099783524383,0.08044093304061818
0.9716074653897622,0.41520156289112636,65.5,0.3630947092390319,0.1755307118512167
1.0506408918443035,0.48912116866699656,65.75,0.6177668129700985,0.2885386032487437
1.0333095899905387,0.5604830373601076,66.0,0.8813946603903691,0.4198459994876623
0.883281457825148,0.6167381032724523,66.25,1.1243534647324622,0.5672804329365437
0.6309752008949687,0.6458976050692528,66.5,1.315736218452568,0.7255102589844526
0.35797670116305647,0.6434906057590587,66.75,1.4396423737163968,0.8870790622592217
0.13038067769891049,0.6140035656389005,67.0,1.5000739096860198,1.0445269269994677
-0.032145229128430985,0.566143158607591,67.25,1.5118219699784512,1.1921575774519777
-0.13926552332920528,0.508023823489373,67.5,1.4901186685356675,1.3264710481991038
-0.20819702948886998,0.4455413247728531,67.75,1.4466363845733397,1.4456806896809715
-0.2535500667486661,0.3824049673699473,68.0,1.3891195071228797,1.5491633634315236
-0.2853259692951753,0.32066038155605403,68.25,1.3222017911213855,1.6370289568015817
-0.30990772067699646,0.2612414547981082,68.5,1.2483632632332986,1.7097833712691004
-0.3314149036626983,0.20447766497682004,68.75,1.1687866425140983,1.7679897893181225
-0.352886214148763,0.15032005698133433,69.0,1.0838982604419787,1.8123171117154333
-0.37677690664923014,0.0983986165908635,69.25,0.9933835059235916,1.8433998918743129
-0.4054467462556002,0.04809148599596898,69.5,0.8962467421979017,1.861720966647463
-0.44148414632646316,-0.0013085861448308479,69.75,0.7911461082966962,1.867567596884289
-0.48811534997554706,-0.05085159226858208,70.0,0.6758429720479384,1.8610581380282063
-0.5494967862197735,-0.10193863929720068,70.25,0.5470512073097668,1.841976896073877
-0.6308528680309511,-0.1564038226536992,70.5,0.40015722410149523,1.809651593053811
-0.7371082363425814,-0.2161918397943515,70.75,0.2300649732163446,1.7631141048380738
-0.8711145122989292,-0.28393692415137933,71.0,0.029568866285681127,1.7006747610553774
-1.0246134437273173,-0.3616069937474237,71.25,-0.20749102726842297,1.6201000874350926
-1.1638700040243792,-0.4488811499906495,71.5,-0.4824048680671965,1.5188859982233638
-1.218582697429585,-0.5400603724987717,71.75,-0.7839478410948324,1.3952329000169363
-1.1098686158602697,-0.621012071560599,72.0,-1.0801841849847396,1.2498033008818505
-0.835595260797904,-0.6736422519269885,72.25,-1.3269829044466044,1.0874998470167123
-0.4986072102054322,-0.6876321952350898,72.5,-1.4945752529581535,0.9168703650108906
-0.20918242021886102,-0.6660420674578991,72.75,-1.5822414162447898,0.7473150837437325
-0.007898482682741959,-0.6198585913420162,73.0,-1.6083578801108893,0.5863820702558773
0.1173033320335648,-0.5602762681295281,73.25,-1.5940341961558107,0.4387802218317036
0.1917962345452141,-0.4952895207113177,73.5,-1.5551901946784972,0.30681648084998303
0.23615456544871616,-0.4296854814199676,73.75,-1.5018879992463334,0.19121078266421543
0.26345678370275327,-0.3659774643494943,74.0,-1.4398850199274158,0.09174779272821436
0.28124257989916157,-0.30532814965123817,74.25,-1.3722341531211937,0.00784105762972511
0.2940956748763893,-0.24821483414228934,74.5,-1.3006430176991706,-0.061318121728715216
0.30497261746257065,-0.19476026858915646,74.75,-1.2261233752642573,-0.11665347299933163
0.31568967663653524,-0.1447755706245765,75.0,-1.1489726503951627,-0.15906145014790748
0.327582593448757,-0.09789201426886897,75.25,-1.0690366305051613,-0.1893735262734823
0.34184777160299595,-0.05363136423377118,75.5,-0.9858325449025666,-0.2083146693677327
0.3597115184305407,-0.01146788915532725,75.75,-0.8986463374991471,-0.21645267422024708
0.3826096188437213,0.029227906894085654,76.0,-0.8064282866019273,-0.2142239885137583
0.41237880892173884,0.06923790452921079,76.25,-0.7076711086494706,-0.20191639839297937
0.4513937313482088,0.10951879364462175,76.5,-0.600286575131344,-0.17957709014924042
0.5026582041731962,0.1512197385269186,76.75,-0.4815367198134058,-0.14697572900819786
0.5695241681646087,0.19562566292968886,77.0,-0.3481925929256045,-0.10364536040614136
0.6555449415325927,0.24449112503172452,77.25,-0.19562919980394583,-0.04867851373194491
0.7619852928483847,0.2996266800604666,77.5,-0.018747052470165487,0.01926985091099686
0.8827657841369344,0.3623960155524246,77.75,0.18685990271604436,0.10191927963832031
0.9962197092402533,0.43272951225841483,78.0,0.42259820024060346,0.20122132736071313
1.0574527041596085,0.507074867069709,78.25,0.6817907692508014,0.3186971641476436
1.0092975547700425,0.5761430941332905,78.5,0.9437275208094605,0.45426191730824095
0.8286674612767938,0.6267392159675349,78.75,1.1767027858023122,0.6049362156764047
0.5633496623284405,0.6482219587978606,79.0,1.3522364938901261,0.7646790651463781
0.29708630673178205,0.6385684391013776,79.25,1.4597212516341405,0.9258503448166265
0.0851168147996848,0.6037566118732398,79.5,1.506766441791935,1.0813563525920307
-0.06233152580935375,0.5526580137660919,79.75,1.5089489245588583,1.2260250063483176
-0.15860723793310205,0.49302434627372876,80.0,1.48103278093476,1.3567789031858701
-0.2208350643437198,0.43019450542455356,80.25,1.4337318412781568,1.4721800643072693
-0.26232024562164047,0.36732363355302866,80.5,1.3737737913020187,1.5718738125913325
-0.29181459858781933,0.30605303311949206,80.75,1.3049467667390833,1.6560361442030427
-0.315256814336351,0.24725652346164487,81.0,1.2295979873248057,1.7251738078736603
-0.3365183108620591,0.1911501926719206,81.25,1.1487478107667017,1.7799620060363754
-0.35838756877191313,0.13754155028752482,81.5,1.0625010639873704,1.8210664680744217
-0.3832066793651261,0.08607584366330172,81.75,0.970488437576804,1.8490109812396112
-0.41337019722745416,0.036119758049185886,82.0,0.8716877333662877,1.864277005460121
-0.45164315396816357,-0.013209717341766142,82.25,0.7643616187389802,1.8671456827064088
-0.501524646843611,-0.06308431756769915,82.5,0.6458926724422205,1.8576000560186063
-0.5672289804305997,-0.1147931359951374,82.75,0.5132089697876687,1.8353810344433008
-0.6539539421006184,-0.1702034897564639,83.0,0.36161625061052116,1.7998077848088843
-0.7669409400810541,-0.23171359227776595,83.25,0.18475906497183067,1.749597698653027
-0.9072369100941007,-0.30180329023617947,83.5,-0.024402875243341154,1.6828388788240995
-1.0617063935313207,-0.38197287047413564,83.75,-0.2708305090231089,1.5974976150381572
-1.1884150941110672,-0.47113433910462305,84.0,-0.5542051035108785,1.4909501181242435
-1.2093218378375246,-0.5614712815444103,84.25,-0.8582815341901984,1.3617905309967249
-1.0558453603605769,-0.6370789200652467,84.5,-1.1464038898864852,1.211658804489801
-0.7543645950127604,-0.6807649341163797,84.75,-1.3756363074928706,1.0464683215127442
-0.4209255144035946,-0.685375237129744,85.0,-1.5228431602077077,0.8752661528785427
-0.15194166891947758,-0.6566714695566569,85.25,-1.5935035510375335,0.707207976638241
0.02867988715013836,-0.606286483385354,85.5,-1.6079623020851013,0.5491762429084952
0.13924087539662988,-0.5447790301296863,85.75,-1.586437419066792,0.40522830986008285
0.20480464811321242,-0.47929913581502914,86.0,-1.5433386576640717,0.2772131662949912
0.24406925713808825,-0.4139894121207129,86.25,-1.48752278906422,0.16556710289392743
0.2684964815304379,-0.35094141746772944,86.5,-1.423919249444296,0.06993820893832267
0.2846241387356493,-0.29108386085876786,86.75,-1.3550810720514235,-0.010285059901035532
0.29680202502016506,-0.2348726322396008,87.0,-1.2827355177188546,-0.07599541870523284
0.30751457338012034,-0.1822955040893354,87.25,-1.2075868378295675,-0.12810714703880569
0.318410547242498,-0.13311044805313044,87.5,-1.1298009564488636,-0.16749995096905063
0.33077480244771607,-0.08691860135417694,87.75,-1.049142025174534,-0.19498697215100946
0.3458004739699424,-0.04321575657234896,88.0,-0.9650424972524024,-0.21125935330897824
0.3647409352994147,-0.001478485068202895,88.25,-0.8767603282418447,-0.21684350733507557
0.3891197752566543,0.03897013039637456,88.5,-0.7831195390686072,-0.21214978604791054
0.4208881070932594,0.07894689542999415,88.75,-0.682493368929463,-0.19741364291181251
0.4625826417616329,0.11946377132489096,89.0,-0.5726159781764535,-0.17261378195637508
0.5173025310261492,0.16168381816286295,89.25,-0.450675377996575,-0.1374659396147825
0.5884969354743204,0.2069897237893756,89.5,-0.3131553029723898,-0.09141558368597509
0.6795390511202932,0.25722371890708734,89.75,-0.15513657974249934,-0.033431054975589056
0.7904354467496241,0.3141105557438287,90.0,0.028345133974595857,0.03790209595760964
0.9122409469503968,0.3788142641591723,90.25,0.2413409154729522,0.12441429945460042
1.0180424346658896,0.45062840199793724,90.5,0.4838137520633255,0.2280216289737754
1.0576990976318854,0.5247789359089889,90.75,0.7461651173381046,0.3499871302587728
0.9770195830875783,0.5906549927379551,91.0,1.004269712280693,0.4896288271898799
0.7688558465912312,0.6349026432042296,91.25,1.2254325136652118,0.6431721887364326
0.4958349651586109,0.6486150256516366,91.5,1.3845584534663467,0.8039896622450536
0.2396326307684722,0.6320725537178251,91.75,1.4761091393929953,0.9643793305806188
0.04376329152971059,0.5924815334814555,92.0,1.510738148574274,1.1176406482693548
-0.08970160281733719,0.5387074527244349,92.25,1.504432676700978,1.2591312549750144
-0.1763243637005678,0.47794029458576875,92.5,1.4710757772882432,1.3862327922053908
-0.2325600015196414,0.4149080458610684,92.75,1.4202880779862965,1.4978377478687919
-0.2703270741592758,0.3522562421698871,93.0,1.3577731768916637,1.5937269095315596
-0.2978910584468062,0.29153596353688593,93.25,1.2871997656385108,1.674177586112344
-0.32051765998727944,0.23339581708820226,93.5,1.2104776644734032,1.7397753664578588
-0.3417067805075389,0.17790499543320729,93.75,1.1283092724799395,1.7912060477299039
-0.36406477547651583,0.12487570566067194,94.0,1.0407408366254036,1.829049085613221
-0.3899459803821159,0.07385222493685925,94.25,0.9472165117192954,1.8538755703800656
-0.4218076791524876,0.02412907357503217,94.5,0.8465185209959687,1.8661229468698712
-0.4625839326774286,-0.02526572927822491,94.75,0.7366378287948622,1.86597986732198
-0.5158262527481432,-0.0753929179844023,95.0,0.6151835884257852,1.8534042577111267
-0.5860878781903784,-0.12778561411416575,95.25,0.47846525724480166,1.8280416107620179
-0.6788137478996361,-0.1844778588182991,95.5,0.32128279577477536,1.7890419914359665
-0.7987935279577068,-0.24792773724294143,95.75,0.1369934935839707,1.7349300259881337
-0.9444140628260735,-0.32030251047371294,96.0,-0.08056334173037488,1.664025018597345
-1.0975128311978681,-0.40295076732578344,96.25,-0.33641457069383235,1.5737894736487743
-1.2065572662713595,-0.49333507709282187,96.5,-0.6268506876505768,1.4618118545835062
-1.1892783726998948,-0.5816034195914177,96.75,-0.930598572464308,1.3273168388402194
-0.9933269102970146,-0.6508099461198212,97.0,-1.2079306831013725,1.1728920520116766
-0.6724168226914489,-0.6852560588078793,97.25,-1.4185173737598307,1.0053423350443207
-0.34849420805237474,-0.6808965145357647,97.5,-1.5458782366900616,0.8340314111812135
-0.10110911442902593,-0.6458460578103941,97.75,-1.6009156717811819,0.6678722375246169
0.060377513304399444,-0.5919884757264307,98.0,-1.6051297029843663,0.5130003038429606
0.15822787091484125,-0.5290984987390166,98.25,-1.5775114611029701,0.37282872567411124
0.21626875993883377,-0.46344588512747376,98.5,-1.5308716192273093,0.24876015687551267
0.25098227288853225,-0.39849580987779704,98.75,-1.4727222934934792,0.14102993834925373
0.2728219243318626,-0.33614697634837437,99.0,-1.4076088952002466,0.0492304819673982
0.2878373572852846,-0.27721858065827365,99.25,-1.3379706628586425,-0.027411715633654157
0.2995744625228798,-0.22192887666925556,99.5,-1.265017307266054,-0.08980253222352422
0.3102381453350616,-0.17019511636623522,99.75,-1.189268984460966,-0.13882201844777636
0.3212802940917997,-0.12167011493744119,100.0,-1.1105906809476924,-0.1752658096917233
