dm__1,dh__1,dV__1,h__1,m__1,n__1,dn__1,V__1,time__1
-6.050187521454373,0.09179343853392416,1045.68,0.5,0.5,0.5,-0.07239223406929544,-20.0,0.0
1.3628522987697531,-0.4037599826595385,229.23278953925993,0.45324675637202433,0.485957447176655,0.5138408913779082,0.17207381454415333,51.664395800340245,0.25
0.9461490932472914,-0.3539361159277782,28.047362584632854,0.35474933686102633,0.8657466636893125,0.5855798264968594,0.3371667937199456,96.622350035529,0.5
0.14542662535649875,-0.27542190538969125,-38.1400886483282,0.27645731781051064,0.9750520180433602,0.6601621624766002,0.2541780339336698,92.4205483943485,0.75
0.011717079880681672,-0.21347287224976802,-48.35790593715385,0.21562809138722017,0.9904563739992289,0.7132259238302882,0.17342098836433184,81.62435053137955,1.0
-0.02862901202200334,-0.1637425878814809,-48.924406604464835,0.16866677727577944,0.9880890954074417,0.7484507411989286,0.11129297341952808,69.65967129516251,1.25
-0.07405572850993525,-0.12200923318485327,-46.652372580245576,0.13304609221389938,0.9759400193382846,0.7701544950137855,0.06439166920186529,57.92020670880993,1.5
-0.15643438776183574,-0.08431341449110985,-43.978367611524064,0.10727214062048168,0.9485780643205184,0.7815287307582683,0.02791660355945319,46.74945539248922,1.75
-0.3085789853018953,-0.04794384475157327,-43.17048562800285,0.09071778447125799,0.8930827008254849,0.7846604106434824,-0.0021680292349339145,35.9587331895633,2.0
-0.5937667639536298,-0.011725186634098352,-48.96699332205048,0.0832353226892823,0.7853984025843272,0.7806225589071347,-0.03017172377213124,24.54308320447102,2.25
-1.1364488291724988,0.028629412163346975,-66.77104220741607,0.08516741704297928,0.5756220915049989,0.7692369249017051,-0.06173332592284642,10.021002977427251,2.5
-1.2229818519760813,0.08002499470181051,-42.34853608487458,0.09872355284833449,0.2472261974185381,0.7499114059252782,-0.089845986290243,-5.437158889369867,2.75
-0.33151807676880646,0.10047038482457646,-4.81585147375814,0.12217024726693221,0.06107947917626296,0.7264569217460317,-0.0948068581319109,-10.255499381150539,3.0
-0.05544442916593001,0.09897872066233969,0.16424914336166552,0.14722618598207332,0.021808803505900514,0.7031369975350357,-0.09143218053970494,-10.611061173211011,3.25
-0.007903569094300386,0.0950503043738044,0.6586347972323301,0.17148872731090847,0.01554145172154187,0.6807889372521387,-0.08734625420371357,-10.489861885034738,3.5
-6.336434625588139e-5,0.09098789043206748,0.7743053784818441,0.19474266545468946,0.014801129191962095,0.659457317492495,-0.0833249667900549,-10.30973516122034,3.75
0.0013238814857665787,0.08699274814068975,0.8557128830974383,0.2169884006526449,0.014995199160810057,0.6391150903975129,-0.07943069724048663,-10.107453971737979,4.0
0.0016978146882180023,0.08308344730678163,0.9354599489127668,0.2382460505754798,0.015375773696129452,0.6197298570650459,-0.0756634045249027,-9.886441630653694,4.25
0.0019248741443353007,0.07925886963810405,1.0151999577247137,0.2585368857852947,0.015826853928209254,0.6012709715883311,-0.0720164306672859,-9.646448849159597,4.5
0.0021474832466409494,0.0755168549178368,1.0944307202776073,0.27788170844266646,0.016332923525879884,0.5837094476424757,-0.06848301861717873,-9.38709233674722,4.75
0.0023855283385279535,0.07185601260641472,1.172826340508034,0.29630091938908115,0.01689553841624032,0.5670178190938618,-0.06505703256275003,-9.108251258978163,5.0
0.00264215456185371,0.06827508210608105,1.2496897681926145,0.3138148967261638,0.01751880292806392,0.5511697482239888,-0.061732710804052474,-8.809968002972251,5.25
0.0029167574494060045,0.06477323113880769,1.3243743760010709,0.33044419921315804,0.018207329914234075,0.5361398097199086,-0.058504828066442416,-8.492544057324189,5.5
0.0032075248519016913,0.061351005833530876,1.3967599810178646,0.3462082563658184,0.01896530721224468,0.521904856282623,-0.0553693848686493,-8.156753558618304,5.75
0.003517994436913585,0.05800740758580438,1.465192314125379,0.36112560777075187,0.019796967734495016,0.5084436844683133,-0.05232227244836811,-7.803177353134759,6.0
0.003846280934352353,0.054741765186641866,1.528692414655846,0.3752169416910258,0.020706964380514857,0.49573356595668105,-0.049359736825623626,-7.432730926046068,6.25
0.004187370664512968,0.05155434035596232,1.5869175686680697,0.3885032141144774,0.021699598427627066,0.48375235749911744,-0.046479022488992286,-7.0467696097356765,6.5
0.004542593036761383,0.048446147196330155,1.639362624094849,0.4010016351374322,0.022777447589696492,0.4724820949206713,-0.043678746779927634,-6.646926243154645,6.75
0.004911907650672009,0.04541558668940969,1.6846180909870219,0.41273224852683565,0.023944389202947374,0.4619027344525666,-0.040956444844239645,-6.234435691175032,7.0
0.005287957463752796,0.04246304562255805,1.7227381760992895,0.4237162789490488,0.025203376944235,0.4519932562183354,-0.03831108926236565,-5.811226158907262,7.25
0.005668956930693081,0.03958917622352914,1.7536553249475793,0.43397248976943936,0.026555560885327276,0.44273507237671317,-0.03574257385146193,-5.379345432715745,7.5
0.0060562498874631165,0.0367926889297682,1.7764752933971266,0.44351871185895,0.028002423758362555,0.4341108096311975,-0.03325026823810512,-4.940383293956604,7.75
0.006440724899706152,0.03407359552658996,1.7916428870091563,0.4523765826839297,0.02954494764520132,0.4260992824442361,-0.030834263852073714,-4.496431374416193,8.0
0.006820080616756208,0.03143223956037539,1.7995756207421163,0.4605654639968558,0.031181791043856218,0.4186811401157605,-0.028495361592767995,-4.049596796320166,8.25
0.007195033329364081,0.028867388983987746,1.7999220416556119,0.46810208817317506,0.03291200864771769,0.4118396986032512,-0.026233924113600142,-3.6014392423994965,8.5
0.0075564118035178485,0.026378847325321562,1.7935495163410407,0.4750080421787416,0.03473409721569674,0.40555312999824794,-0.024050542573741642,-3.1538656560806637,8.75
0.007903993112320512,0.02396665743265349,1.7812039949762077,0.48130257516385816,0.03664394988496354,0.39980140841147405,-0.02194619422372862,-2.7086584470166444,9.0
0.008236523296705656,0.0216296753748962,1.7629940593585918,0.4870018659998398,0.03863876405433943,0.39456768452092456,-0.019921420719519998,-2.2670517091278026,9.25
0.008547797075058372,0.01936749230449335,1.7400431443076578,0.49212723491665133,0.04071464581255762,0.38982937756936625,-0.01797650735429083,-1.8304800595970783,9.5
0.008840494659057563,0.017179782664221103,1.713183914071942,0.4966973572722587,0.04286556774312307,0.38556628267297316,-0.016111873204369735,-1.4001529441722593,9.75
0.00911238363153094,0.015065531995919892,1.682815831866396,0.5007281554156607,0.045087560281598126,0.3817611664004016,-0.014327604252873404,-0.9768533187840549,10.0
0.00935765809732167,0.013023496325149351,1.650014835074881,0.5042404641804531,0.04737690172439132,0.3783911964169638,-0.012622756111763375,-0.5612982233628886,10.25
0.009576329772024411,0.011052256735748597,1.615311297884539,0.5072507106347808,0.04972956309677267,0.3754380759377716,-0.010996479584712046,-0.1538854501470523,10.5
0.009775573591284753,0.009151089107186379,1.5793700526584122,0.509775948064494,0.052138726216391665,0.3728828535718732,-0.009448050321643378,0.24492351460893438,10.75
0.009963429450170314,0.00731944236825393,1.5429591994896321,0.5118345806971297,0.05459674070213313,0.37070516792033326,-0.007976439394232274,0.6347072007219189,11.0
0.01014570596210479,0.005556806568722823,1.5066890078518802,0.5134443632323199,0.05709645898960303,0.3688855644626211,-0.006580495687228821,1.0151625403051965,11.25
0.010308742474567562,0.0038605436457719404,1.4710562136743106,0.5146216908488621,0.05963949480935117,0.3674059717230307,-0.005257528625965534,1.3866236614044452,11.5
0.010460032997997887,0.0022288785906232726,1.4364085286105754,0.5153832423853751,0.06222119282038414,0.3662480929888059,-0.0040051806528688325,1.7492648395559907,11.75
0.010605630761110846,0.0006600675018648625,1.4031386436145117,0.5157462434523952,0.06483729819905752,0.365393270618404,-0.002820883869570766,2.103286066439841,12.0
0.01074016256247376,-0.0008478143653662569,1.3713382745275275,0.5157232505290231,0.06748813912181682,0.36482786245581866,-0.0017023259590173631,2.449094730004333,12.25
0.010869573110037833,-0.002297588783939701,1.3413349794225224,0.5153310151984797,0.07017219687169299,0.36453381503341903,-0.000645950043475535,2.7872050477087242,12.5
0.011001090206798209,-0.0036908957125566383,1.313262217538281,0.5145847363266328,0.07288607384119389,0.36449512577452314,0.0003508888328292645,3.1179172010955605,12.75
0.01112855327805476,-0.005029976872435803,1.2871440834846362,0.5134951601696481,0.07563245360329167,0.3647003571358252,0.0012908553863949304,3.441795173194949,13.0
0.011260349161038241,-0.006318626154520113,1.2633990219324152,0.5120793690735731,0.07841190843965594,0.365131697691637,0.002178427229052614,3.759562164731858,13.25
0.01139817239113794,-0.0075567723352625675,1.2415495258793694,0.5103455264788771,0.08122185979492501,0.3657808481474991,0.0030145296518199957,4.071338393313002,13.5
0.011543840661295879,-0.008750046266009243,1.222422272687906,0.5083101629143216,0.08406909945128939,0.3666308047641581,0.0038048885159633616,4.37823076133976,13.75
0.011700056294618288,-0.009897944718369425,1.205384123522612,0.5059799299214451,0.08695088497204334,0.36767502896855636,0.004550060955171152,4.680292938079421,14.0
0.011870627922146215,-0.011006963815606417,1.1914358635382458,0.5033696463162007,0.0898764923745613,0.3688985026156925,0.005256183299507028,4.978808950138707,14.25
0.012060633665511744,-0.012075925198313148,1.179747384537585,0.5004850655552587,0.0928418862092767,0.37029577859548596,0.005923326293020358,5.273695772773544,14.5
0.012273704441531086,-0.013112988319075338,1.1718675985620557,0.4973393826224863,0.09586126082025555,0.3718536034160002,0.00655854469779496,5.566561414323944,14.75
0.0125147716175803,-0.014117089726560127,1.1669652109145878,0.4939362246652824,0.0989321335244227,0.37356860703263195,0.00716181866161715,5.8573750660276405,15.0
0.012795362078642958,-0.015098512653386516,1.1671302974988287,0.4902867932072807,0.10207272134079302,0.3754293869774871,0.007741384511521246,6.148147036675058,15.25
0.013122251205473723,-0.016056333723714306,1.171670852115277,0.48639322802397034,0.10528164686072827,0.37743398007943074,0.008297197352024888,6.438877042198481,15.5
0.013517510667659272,-0.017005136350571534,1.1837559234297437,0.48226184527037624,0.10858664611816123,0.3795748663032886,0.008839873623243462,6.732452905342337,15.75
0.013993387480412789,-0.01794679871965877,1.2039306335843947,0.4778943245288076,0.11199270242313335,0.3818502978067405,0.009371153326820272,7.029368560561068,16.0
0.014592944313799427,-0.018899774997428807,1.2361615776151702,0.4732882292293696,0.11553541277294109,0.3842596307425086,0.009903439504689936,7.333356350908196,16.25
0.01536388311737008,-0.01988434773707508,1.2863310416192375,0.4684384123967663,0.11925680887698807,0.38680448717214344,0.01044998477540942,7.648448227388428,16.5
0.016348489935858246,-0.02090241557514048,1.3554793528691818,0.4633451386452748,0.12315749276565777,0.3894842969201619,0.011012354808830442,7.975011192903097,16.75
0.017744008939695854,-0.022041735200869293,1.4672613185860053,0.45796365244272896,0.12741356077496147,0.39232420905628573,0.011644798699839927,8.330347088277543,17.0
0.01961038046497454,-0.023296645206896834,1.6259294565278215,0.4522993946308708,0.1320098646885429,0.3953208657964488,0.012343840246645317,8.712856099645544,17.25
0.0223260623590964,-0.024789931135015136,1.8689139527183616,0.4462858024622386,0.1371745860950381,0.3985135234794486,0.013183785334825691,9.145884392988336,17.5
0.026764261795917066,-0.026802078848496974,2.290220949360677,0.4397679340900797,0.14342599502087888,0.40199437240544617,0.014332156405148885,9.681673789807839,17.75
0.03332915112631912,-0.029373605528787747,2.9391287025989055,0.43274728103956583,0.15079858580503008,0.40576228789179364,0.01580925278593312,10.323213605208153,18.0
0.04494776460635136,-0.033311302945953775,4.128357533597203,0.4248841198479087,0.160612533811171,0.4100165451258091,0.018086982433303013,11.209478727354673,18.25
0.06601541633805691,-0.03960795512553569,6.346577612013494,0.41581131806242044,0.1742384197015497,0.4149698393357502,0.021715348879650598,12.49002933824612,18.5
0.10983634786982743,-0.0513761732795522,11.16364695813524,0.40455173743039324,0.19565813477764893,0.42117387515990906,0.02837370679252068,14.6065567017881,18.75
0.21784530259476137,-0.07822280156101188,23.853813523784975,0.38880557649210606,0.23464096386013386,0.42986183483266993,0.04287965087905312,18.710957452458263,19.0
0.564817089641976,-0.16150945295597643,69.10030481496565,0.3607937661156799,0.3240189798687788,0.4449146203563459,0.0856259482997837,29.065172751393305,19.25
1.5631999206561762,-0.2881112433956051,212.7287637530311,0.3005171299335079,0.5834642320252887,0.48288858210458707,0.24982594850916565,63.34150526643425,19.5
0.656632718312685,-0.23381037344180208,2.159781167220803,0.23462642142986306,0.9036399109273565,0.5655809300179406,0.34774560949113575,94.99474884988379,19.75
0.09917003921110193,-0.18161824685987352,-48.335047425110915,0.18293834193852052,0.9791961847253855,0.6407238515390432,0.2509157371350329,87.29164955029103,20.0
-0.005209988114942339,-0.13980373785990297,-54.587070401909095,0.1429266183995047,0.9883009951861397,0.6921611054253404,0.16438940630218096,74.38879014005991,20.25
-0.058773251608461016,-0.10477119103789787,-51.91086202728935,0.11243607067308684,0.9806201701051537,0.7247637034636328,0.09962774250656202,61.20519883879164,20.5
-0.14025419836091638,-0.07287841099652928,-47.533590793394296,0.0902312979688535,0.9571898160191715,0.7433795600336077,0.051511652029978997,48.90959919996416,20.75
-0.2877165013831656,-0.04159197938659896,-44.54762894467093,0.07588828655663366,0.9063217650561308,0.751430669665786,0.014206018757475791,37.48626616214535,21.0
-0.551790948150827,-0.01030648394709956,-47.320403304773954,0.06937462721592408,0.8058328057679206,0.750944007129261,-0.017660218837355232,26.085881406264846,21.25
-1.0287259339819208,0.02416773882032836,-61.23871005653181,0.07095956395559583,0.6140778948570471,0.7425137527628147,-0.05016338016594739,12.551790982563025,21.5
-1.2838119151379366,0.0707873511630427,-49.838993359984315,0.08259948163646152,0.3025610309845076,0.7259239591548846,-0.08041939271165294,-2.7784922718520972,21.75
-0.4522004976112584,0.0988415419558494,-9.178834244341974,0.10465952137473564,0.08196281157994159,0.7042352776535489,-0.08957590058360815,-9.507307604245577,22.0
-0.08295200753673788,0.10000749951847507,-0.45562381925081485,0.12973870179216176,0.02618943742538749,0.6820471178706683,-0.08732260424340291,-10.359701090044648,22.25
-0.012838920682787733,0.09637963028500338,0.6171237031420738,0.15431126907218867,0.016595873098662867,0.6606858249714013,-0.08351855105870556,-10.299636791169533,22.5
-0.0008202347038158558,0.09226626367297128,0.8221335798043405,0.17789330315316496,0.015280367238619788,0.6402912430279022,-0.07964932201185583,-10.115607980724002,22.75
0.0013348579229558594,0.08816823709263247,0.9198619455284307,0.2004460918081694,0.015403450551523682,0.620852068139208,-0.0758801476462402,-9.898464777806531,23.0
0.0018544344432319532,0.08415072399137963,1.0035379156767679,0.22198383324266896,0.015808799782030144,0.6023404374667207,-0.07222766161714231,-9.660251311530631,23.25
0.0021228034290786263,0.08022134497379446,1.0850141460611713,0.24252827469475183,0.016304147437459813,0.5847270377440055,-0.06868857062386649,-9.402465858441545,23.5
0.0023668495255739497,0.0763787451423718,1.1643394227928772,0.2621015119576832,0.016861921801821934,0.5679843050279143,-0.0652566787489408,-9.124965003341458,23.75
0.0026214963279578146,0.07262373079290096,1.242635895068,0.2807247675175381,0.017480804671282678,0.5520866789383269,-0.0619271444765989,-8.828196579143643,24.0
0.00289475295351041,0.06895457991446222,1.3183204870686858,0.29841959419139413,0.018164599384617917,0.5370095131570124,-0.05869444805658933,-8.51223355030876,24.25
0.003186816074182919,0.06537098392902846,1.3908093194390458,0.3152076166627845,0.018917661767726284,0.5227290064792334,-0.05555406193840219,-8.177638520493126,24.5
0.0034964432494530434,0.061872569018888025,1.4593457220082806,0.3311109635963268,0.019744539195522586,0.5092219214216498,-0.05250187478923444,-7.825172056458388,24.75
0.003820365902076711,0.05845981626116951,1.5235628387361047,0.346151409526446,0.02064945812362977,0.49646625530603905,-0.04953476232823511,-7.45599731877095,25.0
0.00416155691496814,0.05513278782375823,1.5823812778339654,0.3603481839584356,0.021635763456927685,0.4844430911277267,-0.04665023195001447,-7.071316121165995,25.25
0.004517851210109725,0.05189045726244129,1.6347021867606442,0.37372372555151306,0.022707702233583725,0.4731312032690099,-0.04384549195463251,-6.672357857205429,25.5
0.004883070217765156,0.048733134410290244,1.6803833232920882,0.3863008477173745,0.023868727138269104,0.46250946702980683,-0.04111896673362328,-6.260880299618931,25.75
0.005257202606804817,0.045661508618862916,1.7191275224724079,0.39809915206100305,0.02512046892347006,0.45255978716930556,-0.038470151563757375,-5.838811425364818,26.0
0.0056401490356826345,0.042674048338117054,1.749885338598923,0.40913915424679415,0.026465435851891584,0.4432637189014764,-0.035897813843482555,-5.4076694293895935,26.25
0.006023589793637041,0.03977078219116526,1.7729548719727646,0.4194440694673574,0.027905226464487374,0.4346002975418633,-0.033401778467063076,-4.969550492238158,26.5
0.00640533808875457,0.03695197036513567,1.7885689656152168,0.4290346311340415,0.029439346951418914,0.4265504940800403,-0.030982624549312558,-4.526591564120778,26.75
0.0067860043468845055,0.03421614996844679,1.7961940998779253,0.43792938755158184,0.031067668813725375,0.4190973690418281,-0.028640472533236594,-4.080416347666757,27.0
0.007156337504199611,0.031562960964907835,1.7965510668059181,0.44615159240896,0.032789417446422976,0.41221936821104244,-0.026375879691832662,-3.633052627207125,27.25
0.007515051728121558,0.028992319050345158,1.790297899076835,0.45372208700046657,0.03460128768413249,0.4058965585760927,-0.024189890775130077,-3.1864538728089773,27.5
0.007861560080228092,0.02650280798336998,1.7773879559421744,0.46065837882823213,0.03650088259125214,0.4001121478402795,-0.02208311905682907,-2.7420106200525587,27.75
0.008188023835672548,0.024093825750310174,1.7588735077869933,0.46698339651512083,0.03848495624663864,0.39484371317000844,-0.020056089519270744,-2.301365374803832,28.0
0.008495980994338265,0.0217649273182156,1.735582056493139,0.47271732714344555,0.04054782314051303,0.390070906706801,-0.018109529046699893,-1.8659641619471254,28.25
0.008783574266255312,0.019514864866699483,1.707831253431757,0.47787718969010884,0.04268549536137072,0.38577652732483825,-0.016243819919501343,-1.436783895167518,28.5
0.009046915498655855,0.017342679953869716,1.6767396547996216,0.4824852382960454,0.04489295991397582,0.38193769826044627,-0.014458710070301181,-1.0148732361636108,28.75
0.009289974093229597,0.015247568826810276,1.6430963737470798,0.48656084898530977,0.0471634182043997,0.37853414348295245,-0.012754057907422574,-0.601071000198588,29.0
0.00949619384188935,0.013226975634979207,1.6072164785271936,0.4901202174910102,0.049497848425430334,0.37554883233735986,-0.011128615184349822,-0.19552718498798669,29.25
0.009687288436100977,0.011280715922990004,1.569989706701603,0.49318348229895986,0.05188430073021634,0.3729603229935203,-0.009581952839887387,0.20102278014858962,29.5
0.009863062941772138,0.009407849899954263,1.5321362658357747,0.4957694253567394,0.05431708550814924,0.3707487341906315,-0.00811303288537829,0.5882042162400155,29.75
0.010024711857274687,0.0076071163887978695,1.4941948561261502,0.4978961801975505,0.0567909183938632,0.3688948750547067,-0.0067203985758809495,0.9658496936289592,30.0
0.010173853070043343,0.005876894056089679,1.456750378299065,0.4995830642033805,0.05930095821268401,0.3673784130585345,-0.005401968755402761,1.3339344362113577,30.25
0.010305025114786842,0.00421529270798791,1.4199898444715484,0.500845073316679,0.06184576722984302,0.36618352577462004,-0.0041557233045327255,1.6926907740508628,30.5
0.01042450318886265,0.002620576013496443,1.3841910398619688,0.5016997106961548,0.06442053116411267,0.3652918705445738,-0.002979261743216069,2.0422947315925306,30.75
0.010533226199401946,0.0010901045815867906,1.3497926975408365,0.502165722885894,0.06702340700148834,0.3646839784002309,-0.00186926606951026,2.3831364117830085,31.0
0.010632622785452073,-0.0003769196924911754,1.3166393634955402,0.5022557867936858,0.06965077456006988,0.36434684512316434,-0.0008242066941263337,2.7153771157139523,31.25
0.010723216720891465,-0.0017832277358914954,1.28492888401759,0.501986384408282,0.07230222860892094,0.3642635621900621,0.0001593202981410441,3.039534414421765,31.5
0.010811511051725509,-0.003130694061025511,1.254822266543179,0.5013750143504384,0.07497422072370304,0.36441668240371383,0.001084287633056763,3.3559095342272096,31.75
0.010891185243063983,-0.004420353264932016,1.2260067427098273,0.5004314953142663,0.07766717546563527,0.3647964056977103,0.0019524008506395657,3.664835279020239,32.0
0.010968865738338551,-0.005655559858236851,1.1988605293980157,0.49917523541611886,0.08038038891559865,0.3653838201635634,0.002767943249215858,3.9668882496737528,32.25
0.01104294612404877,-0.006835448772964898,1.1726198737107238,0.4976141888766636,0.08311019720986247,0.36617140548381827,0.0035312455299410725,4.262038010356514,32.5
0.011114558437788968,-0.007964147482561721,1.1479141616803192,0.4957678757774403,0.08585935109096403,0.3671407927722728,0.004247131941399682,4.551008082300208,32.75
0.011180841556966692,-0.009040159217007876,1.1237261018655704,0.49364258535090405,0.08862399937082253,0.3682863247830199,0.004915425188078193,4.833676222824068,33.0
0.011243703299043784,-0.010067168023716686,1.1006769243225856,0.4912580244498226,0.09140606842071507,0.3695903238834018,0.005540601214190366,5.110640768210754,33.25
0.011299238082711716,-0.011043016010471324,1.0774414181332317,0.48861916410277817,0.09420111001902244,0.3710485472938021,0.006121983475317394,5.381675143354396,33.5
0.0113468657787274,-0.011970104952493295,1.0546275824457467,0.48574685829773623,0.09700887488629292,0.3726434334547643,0.006663155466958608,5.647061040587248,33.75
0.011379085417819013,-0.01284684446091591,1.0308703164098147,0.48264454542364926,0.09982762000157905,0.37437211128857983,0.007163750381510445,5.906727532690584,34.0
0.011393604148303316,-0.013672096812595732,1.0060601733290884,0.4793338172102939,0.1026495014452513,0.37621775619297204,0.007624892739390751,6.160210166696663,34.25
0.011379764318131758,-0.014445385082387564,0.9792153247412656,0.4758205302016078,0.1054752142802092,0.3781757407020916,0.008047130229799908,6.407596523730997,34.5
0.011329480290198646,-0.01516055626476302,0.9484884815539949,0.47212182102285427,0.10828809174855177,0.3802337841694405,0.008427885894429693,6.647553984169237,34.75
0.011221550604576191,-0.015814394976125336,0.9133674022433553,0.4682559274274609,0.11108120669924901,0.3823789706640964,0.008766532949082813,6.87930856075171,35.0
0.011044700667803165,-0.016402716441533308,0.8709081137684138,0.4642261205960415,0.11384653602172148,0.3846090407846443,0.009061039206814447,7.10230027083039,35.25
0.010752514528780066,-0.01690589231010575,0.8178853326930006,0.4600714233047311,0.11653814512252368,0.3868985124007347,0.009300897278819609,7.312033223093711,35.5
0.010319406017092303,-0.017321474312141823,0.751805664377305,0.45579527435343725,0.11915417296173975,0.38924508910193867,0.00948517538400298,7.508291897969668,35.75
0.009688607910195435,-0.017623265732770857,0.6654730020808719,0.4514285202070645,0.12163507687166325,0.391629525947171,0.009598596106301427,7.6855550358382665,36.0
0.00874818419926815,-0.017769988007271108,0.5503424331317819,0.44702277247891214,0.12389144766215997,0.39401991309463946,0.009616776603837564,7.834850513855767,36.25
0.007473858664371669,-0.017765132640435655,0.4036427677213097,0.4425724746262531,0.12593232125227083,0.39641966186435806,0.009541899087352805,7.9571988451651245,36.5
0.005636638475472189,-0.017502787965023286,0.20226962577500907,0.43818606334563165,0.12751696280945776,0.3987623546118124,0.009309294856872576,8.029519328156658,36.75
0.003100640178686387,-0.01693859638263125,-0.06319100465298177,0.4339122807939873,0.12854153115542952,0.4010181261929592,0.00889100440589808,8.041651951508312,37.0
-0.00020622863139019287,-0.016043248490883497,-0.3989318859754939,0.42978184005144204,0.12892326903889312,0.4031679022268233,0.00826723133585857,7.986201009185991,37.25
-0.004556840430728126,-0.014656913120307272,-0.8303271907007098,0.42598063407074144,0.12825166747518404,0.4050962798983219,0.007337142054985507,7.825189515664137,37.5
-0.009872364082459284,-0.012770074929915502,-1.3432059761415291,0.4225506887422773,0.12644228979521108,0.40677648051264964,0.006090072270698958,7.551852401549142,37.75
-0.016017185779725773,-0.010298195541800503,-1.92097854148929,0.41968471304155064,0.12316224682707219,0.4080861576452111,0.004469393503674805,7.1383962141354695,38.0
-0.02248134635400839,-0.007264281770000772,-2.506781521563976,0.417493690575928,0.11830432089550891,0.4089539542410076,0.0024845824113774104,6.578393647134124,38.25
-0.02837426448359065,-0.0037499107787720073,-3.0171098492365505,0.41612927805685257,0.11183768851749719,0.409281418587923,0.0001869331900464094,5.875360098679962,38.5
-0.03253940572814168,-7.702792479587217e-6,-3.3474016761629404,0.41566871684828244,0.10416515383054138,0.4090185807124884,-0.002254598506360797,5.0734038736144536,38.75
-0.034096433804091164,0.00377178615546098,-3.4336978846314805,0.4161513682267984,0.09565475086963843,0.40814098927472603,-0.004706261737521186,4.210033729363239,39.0
-0.032817187708391815,0.007220035106723272,-3.2577086739742454,0.41751693353116237,0.08724822896019178,0.40669558669090283,-0.006911610646823177,3.3728495986376013,39.25
-0.029101006297006404,0.01022023300135273,-2.8709469726735475,0.4197067570138836,0.0793575661425464,0.4047266347155284,-0.008784639569908291,2.5979909672825676,39.5
-0.024107444348494905,0.012578143612732552,-2.3624809204909405,0.4225417562076777,0.07266818579825865,0.4023645326618463,-0.010195804381462226,1.9453422301168073,39.75
-0.018698364269001483,0.0143129205610176,-1.8130858860359722,0.4259015477051963,0.067244802531749,0.3996956481548674,-0.01116300037785349,1.4215469548702875,40.0
-0.013727881341271536,0.015431741268755631,-1.287335235586228,0.42961452324561966,0.0631779309222555,0.3968412589314204,-0.011700802720074087,1.0352976030080212,40.25
-0.009421207536434217,0.016025388419553078,-0.8190114845852325,0.4335407311700909,0.060265891052357495,0.3938977108515003,-0.011879555640128145,0.7715844767952542,40.5
-0.005896949706948568,0.016166300076198736,-0.42194040928859566,0.4375674908386452,0.058353334335702646,0.3909415566906043,-0.011755007669899821,0.6174059398221725,40.75
-0.003071558316672246,0.015947064307130457,-0.09598893440445044,0.44158437210727985,0.057237794279719006,0.38804603563077517,-0.011395405706371514,0.5535696051609539,41.0
-0.0008289879917163234,0.01544665071896386,0.1658319499478056,0.44550989872709706,0.05675338745167013,0.385263607327947,-0.010857617840600464,0.5627829369550538,41.25
0.0009479706981253277,0.014731224418660298,0.3727305462888113,0.4492818859375087,0.05676741672418082,0.38263297195334367,-0.010188548204351819,0.6300635960679145,41.5
0.0023585531692098816,0.013852437685604579,0.5337076346244749,0.4528551631533089,0.05718050064767575,0.38018114615463755,-0.009424413625478904,0.7434202385773396,41.75
0.003486024426583967,0.012854415577750015,0.6571345089817244,0.4561944441924641,0.057911204291555746,0.37792809173688935,-0.008595919958914143,0.8924266851493756,42.0
0.004394464630686934,0.011773613569791706,0.7502883410780412,0.45927363552604256,0.05889450988572086,0.3758872329274771,-0.007728250902542963,1.0683443281755989,42.25
0.005130372312429465,0.01063909771575974,0.8192501037568336,0.46207517836863005,0.06007975883736791,0.37406595494424233,-0.006841283352377901,1.2641038250577041,42.5
0.005729128029689945,0.009471237401210423,0.868654148491149,0.4645892386909798,0.06143106588843879,0.3724669178332134,-0.005948821835269957,1.4746475689796834,42.75
0.006217070597719726,0.008287255680609406,0.902300926405625,0.4668094509823396,0.06291820083736849,0.37109041340090104,-0.005062444018940571,1.6956868342557903,43.0
0.006613005020320972,0.007103274885157725,0.9236131203876998,0.4687337826145339,0.06451241255835674,0.3699328395862306,-0.004192647402939537,1.9231879985523315,43.25
0.006934199642173927,0.0059281648094205094,0.9346593805082777,0.4703632653866437,0.0661962759690429,0.3689902910961027,-0.0033451558628214695,2.154868445918365,43.5
0.007189100103893981,0.004771771922115253,0.9375348405232415,0.4717012096878156,0.06795141237527126,0.36825611150979687,-0.002526016560342584,2.388233367670222,43.75
0.007388897006707834,0.003641800874369029,0.9338218699062835,0.4727544239950046,0.06976085519237821,0.3677215295585374,-0.0017396580265535908,2.6212794633913417,44.0
0.007537204515735474,0.002542860437356017,0.9243507881924478,0.473527715015025,0.07161509953861533,0.3673805403309115,-0.000988689039611565,2.852850037880143,44.25
0.0076414333829034065,0.0014813565926312042,0.9103643418288887,0.47403321129126624,0.07349790869012743,0.36722028073585794,-0.00027620408459731044,3.0812257561357357,44.5
0.007700958905614508,0.00046007205058001474,0.8919741899124065,0.4742759198519633,0.07540322485090228,0.3672355194861186,0.00039639603881001795,3.305770676777065,44.75
0.007721524296595228,-0.000515819427924287,0.8700653505112497,0.47427219888380245,0.07731544066539077,0.367410803532691,0.0010271266700413798,3.5250289212640693,45.0
0.007698262642721332,-0.0014442197770932648,0.8443284847734382,0.474027296909666,0.07923014739206931,0.367741172925159,0.001615102329046117,3.7385855670826915,45.25
0.007636130618340897,-0.0023201730658616894,0.8152232906762937,0.473560297030923,0.0811306864134854,0.36821017921933313,0.002158570953213111,3.9450312813444133,45.5
0.007526491045017014,-0.003141905416220246,0.782393756859812,0.47287926498358557,0.08301296202285376,0.3688108529731583,0.00265711676955719,4.143994140441369,45.75
0.007371743106014905,-0.0039040235674018403,0.7454530070641501,0.47200042609488924,0.08485991605095514,0.3695302787084535,0.003108363658052324,4.334099734929097,46.0
0.0071638525968105715,-0.004603492264540786,0.7045256950785643,0.470942787358233,0.0866610618106529,0.37035349676070506,0.0035117260092961747,4.514430840849066,46.25
0.006895501972428386,-0.005236653842999279,0.6581561283123325,0.46971079021577555,0.08840797131120057,0.37127714387502275,0.003865245111826787,4.684344778612284,46.5
0.006565252284282619,-0.005795530671493122,0.6067479247819965,0.46833996009588313,0.09007240845339559,0.3722753072606199,0.004165757733381022,4.841423337645626,46.75
0.006156196603451458,-0.006278633172679179,0.5489483835217048,0.46683264057784346,0.09165301919553781,0.3733461937371898,0.004412675178364585,4.985551840318666,47.0
0.0056670106246013985,-0.006676442313903127,0.48370594252447274,0.46521483471892733,0.09311966583677157,0.37447191013904985,0.004601092449229578,5.114246270718256,47.25
0.005085681550456522,-0.006980335440480628,0.4110565294861286,0.4635211669583747,0.09444402717252819,0.3756290030798735,0.004727028658671473,5.224968589442102,47.5
0.004394836895526666,-0.007189733001569738,0.32930198722794213,0.4617476435142893,0.0956276967614647,0.37681997640364984,0.0047901682984796135,5.317908567151587,47.75
0.003598231278422126,-0.007289041184135866,0.23796072318854278,0.45994343528670106,0.09661719832220488,0.37801291629725736,0.00478216657488665,5.3885924523992665,48.0
0.002685372784103357,-0.00726890284372032,0.13738304277606228,0.45814571269146315,0.09737992916520836,0.3791839488294705,0.0046982563804035815,5.434132156693712,48.25
0.0016422163000854861,-0.007129317060408119,0.026837371600199278,0.4563503893586899,0.09791755088230002,0.3803355826589616,0.004538299540066688,5.454661029831316,48.5
0.00048664916148521975,-0.006859937919714669,-0.09344832097731604,0.45459822523914156,0.09818608424807646,0.38144213374984953,0.004296701572058977,5.446811696844567,48.75
-0.000755183213591637,-0.006452462205943189,-0.21966724848931407,0.4529645652963108,0.09813389950168505,0.3824568407147816,0.003970163345995106,5.406564856137268,49.0
-0.0020764431454111665,-0.005908345520847565,-0.35012910857007196,0.4514494095301977,0.09776099664312583,0.3833797035537579,0.0035592945650125205,5.333920507709419,49.25
-0.003459400191191231,-0.00522172879514406,-0.4835384108138874,0.45005203012992373,0.09704961498198134,0.38421073030575786,0.0030597632352837092,5.227236385594037,49.5
-0.004797054116697286,-0.0044221743258155664,-0.6103241274174798,0.4488576993823732,0.09601141452200469,0.3848986952374972,0.002493367229476108,5.0899065051643975,49.75
-0.00603201692666766,-0.0035270533263050997,-0.724125918484775,0.44789336568761956,0.09466526930048286,0.38542777870901074,0.0018720425591625192,4.92439095498596,50.0
-0.007122203449744513,-0.002538747108962177,-0.8212318889079804,0.44715902904566285,0.09301117931741583,0.38579798072029836,0.0011969840789164549,4.730689735058727,50.25
-0.008004827944150972,-0.0014459595393289774,-0.8973915295239832,0.4466725666389533,0.0910105585387341,0.3859969233223369,0.0004609827951385925,4.505255517108332,50.5
-0.008594528397405432,-0.00036786924452552466,-0.9425410666170142,0.4464443365399861,0.08890623420118302,0.3860253162072071,-0.00025641290911262993,4.273564192581863,50.75
-0.00887901807594177,0.0006646106322266351,-0.955932012167696,0.4464684306989456,0.08676838172905814,0.38588895671483264,-0.0009345441919530392,4.042749750691733,51.0
-0.008852963950604753,0.0016524911309968929,-0.9386647043959773,0.44674484911583157,0.08459700112235946,0.3855878448452136,-0.0015737685361417314,3.812812191437942,51.25
-0.008510218267068215,0.0025997325822591684,-0.8910025388873404,0.4472830300515657,0.08238319873931607,0.38511543602047005,-0.0021760495607085345,3.5827962953626917,51.5
-0.007914000081511885,0.003457831387422748,-0.816117809923826,0.448052639583253,0.08025496596748424,0.38449624356643647,-0.0027100479577451334,3.3648724078497416,51.75
-0.0071535151640022,0.004174421651442155,-0.7250255782064658,0.4489681646841878,0.07836149520360619,0.3837919646494458,-0.003144067442351184,3.1739763361353215,52.0
-0.006277418597624818,0.004752002151309224,-0.6215209364844534,0.4500296053543703,0.07670278644768191,0.383002599269498,-0.0034794915280736555,3.0101080802194313,52.25
-0.005328854558901419,0.005192576237555278,-0.5087126131803257,0.4512369615938004,0.0752788396997114,0.38212814742659307,-0.003717469475267028,2.8732676401020716,52.5
-0.004316598931735638,0.005502640135086358,-0.3901442525597756,0.45258515296933227,0.07407353978315881,0.38117306734192363,-0.0038627229057099782,2.7624462338397824,52.75
-0.0033136352548032433,0.005693103662445079,-0.275792314042429,0.4539665381092815,0.07310502656719356,0.3802113344827443,-0.0039275765513387614,2.6784303188690726,53.0
-0.002360079960555872,0.005764839803816209,-0.16762701188098905,0.45536522571611426,0.07238081109315703,0.3792535946812047,-0.003913262514721114,2.621633848177967,53.25
-0.001474212239681777,0.005718220280182453,-0.06612919925138883,0.4567812157898305,0.07190089336104918,0.37829984793730476,-0.0038200201649147628,2.592056821766467,53.5
-0.0006356343741853177,0.0055626074479767675,0.026796634946214315,0.45819590980559716,0.07164339858579614,0.3773626473674184,-0.0036550832588018584,2.5880512275920937,53.75
0.00012228253605481298,0.005332171106479162,0.10903280759718248,0.4595455821631126,0.07156542036960721,0.376482679839083,-0.0034442287451283762,2.603396284982374,54.0
0.0007968483993138764,0.005027777838505176,0.18111391755251116,0.46082810541289615,0.07166611676354959,0.3756612608262388,-0.003188154085193483,2.6378737382971846,54.25
0.0013965835979894148,0.0046500101124713165,0.24338259182462707,0.462039877851025,0.07194325785955888,0.3749008378652567,-0.0028874669995964178,2.691340572843722,54.5
0.001920976406637409,0.0042300090055094434,0.29590265232079593,0.4631458558413171,0.07234654493160055,0.37422134386606737,-0.002564373153598115,2.757428382940678,54.75
0.0023731449486783796,0.003774178127227055,0.33931332648882995,0.46413974837786043,0.07286543909904004,0.3736261523765759,-0.002223417647797432,2.8347312946762364,55.0
0.0027606741739634733,0.0032812244417019104,0.37415985287968967,0.46502107332996023,0.07350182654593101,0.3731157892700082,-0.00186383518951682,2.923458705049443,55.25
0.0030854034078079406,0.002769936645664172,0.4012928354177858,0.465777516598155,0.07422329167821458,0.3726951719811588,-0.0014984290380405801,3.019534747804592,55.5
0.0033509446337239845,0.0022514529644706745,0.4213821140622076,0.46640420421411827,0.0750096122057484,0.37236546592378916,-0.0011346665858936802,3.120481767964605,55.75
0.0035624715800838813,0.0017253186620301876,0.43469352522627513,0.4669009422330537,0.07586141574826742,0.37212687768375846,-0.000772300297890792,3.226366562449715,56.0
0.0037216253540655053,0.001198964042280995,0.44181416040932797,0.467266597836681,0.07676503622614146,0.37197848284029617,-0.00041616474908666434,3.33549530768255,56.25
0.003832140749691959,0.000685988733041272,0.4436951381583638,0.4675051555314157,0.07769239453646318,0.371914170097087,-7.47218108897163e-5,3.444669867530909,56.5
0.0038950603916519944,0.00018648681240052492,0.4402786171260469,0.4676166153172577,0.07864349067923258,0.37193393945413095,0.00025196562301992714,3.5538902419947926,56.75
0.003910876589478529,-0.000297009742052861,0.43154711083592057,0.46760116887419567,0.07961352950487752,0.3720371984825456,0.0005622779033073178,3.6626075986759443,57.0
0.00388467106621454,-0.000752575231232084,0.4187112831026414,0.467474848530835,0.08057323004130412,0.3722098165789989,0.0008494670517199543,3.7677497643427804,57.25
0.0038143773493223287,-0.0011789618249858115,0.401604243783908,0.467239524726249,0.0815199895404365,0.372450222662577,0.001112869642176259,3.869052023940658,57.5
0.003696971030013596,-0.0015755343700049954,0.37972766385279266,0.4668932779252157,0.08245366241543385,0.3727597271302473,0.0013520145177115112,3.9664928582902736,57.75
0.0035399347753548582,-0.0019334959146056901,0.3540756453023848,0.46645799262702714,0.0833480478030573,0.3731216702227567,0.0015623164404883205,4.057588869270855,58.0
0.0033425192820572547,-0.002249550397237114,0.3249876970990575,0.46594536306650697,0.08419279559994443,0.3735273749806229,0.0017422735033079464,4.141370575157382,58.25
0.0030993661683212936,-0.002523334966331,0.29201568529681343,0.46535538924365516,0.08498790580609523,0.37397684140384585,0.0018917068726817254,4.2178379759498545,58.5
0.0028098746396191254,-0.002751768812126066,0.25459727363819074,0.4646897876549818,0.08572589963667496,0.3744685825634189,0.002008734925408026,4.286341524478869,58.75
0.002488375810407062,-0.0029286061670602374,0.21470143506228934,0.4639896701920638,0.08637764073171568,0.3749744329629565,0.0020910805984718575,4.344440395567318,59.0
0.0021300743234906605,-0.0030533887380876576,0.17215259148904716,0.4632581183754048,0.08694161410912266,0.37549231468896027,0.002138622182015014,4.3920101354862995,59.25
0.0017299914573699615,-0.003125903661974641,0.12664448754841207,0.46249513220500493,0.08741781976889589,0.3760222277414301,0.0021512559530619674,4.429050744235814,59.5
0.0012875981837381922,-0.0031419000336390633,0.07737400213809575,0.4616981955033621,0.08779719810461108,0.3765652878446682,0.0021261408400079576,4.454738765042489,59.75
0.0008340642935936726,-0.0031044131463515492,0.02784406474110912,0.4609276054825906,0.08805984844360794,0.3770831400334649,0.002067524673986146,4.468068365084018,60.0
0.00036938354918436556,-0.0030141223880520325,-0.021602094701943297,0.46018824157941374,0.08820517034806913,0.3775727300152399,0.0019760251747633698,4.469046528161411,60.25
-0.00010732931129459056,-0.0028711280355938826,-0.07085785514357523,0.4594801037938315,0.08823316381799465,0.37803405778999316,0.0018516864876523265,4.457673254274668,60.5
-0.0005955505430955688,-0.0026756069798959427,-0.11971815430301991,0.45880319212584386,0.0881438288533845,0.3784671233577247,0.0016945900843783127,4.433948543423787,60.75
-0.0010870698786448751,-0.0024216525137416046,-0.16828051264047872,0.4581596403992322,0.08792164535568454,0.378869963645759,0.0015008847881436901,4.396466019447445,61.0
-0.001543579791025873,-0.0021333757653706903,-0.2126377983452954,0.45759430184533323,0.08759491759533204,0.37921644544834726,0.0012879720585738386,4.349173751054159,61.25
-0.0019574449880117584,-0.001816834770447754,-0.2517161321867829,0.4571140118117594,0.08717301890031302,0.37950280217629184,0.0010600391855472568,4.293151653740414,61.5
-0.0023242101049656405,-0.0014722842885649366,-0.2851277432556212,0.4567187702985109,0.0866559492706275,0.3797290338295927,0.0008172154062257506,4.22839972750621,61.75
-0.0026385701566659647,-0.001099999068312426,-0.3124593952615353,0.45640857730558754,0.08604370870627547,0.37989514040824995,0.0005596428338049478,4.154917972351547,62.0
-0.0028929638093723176,-0.000700029040175288,-0.33300371512962124,0.45618694341556926,0.08533445249623914,0.37999860083102033,0.0002874932975891059,4.072553578628984,62.25
-0.003073070913654552,-0.0003028573050504191,-0.34541334755400044,0.45606099098705505,0.08458731737016335,0.38003797039193954,2.1093782647294e-5,3.9878231546835425,62.5
-0.00317592569747821,8.161186237602355e-5,-0.34964199324521505,0.45602973973995425,0.08382304522603055,0.3800151336599413,-0.00023309037536591026,3.902965336268413,62.75
-0.0032006526756993003,0.00045347178710937117,-0.345775713607658,0.4560931896742668,0.08304163606384074,0.3799300906350256,-0.0004750967336913797,3.817980123383596,63.0
-0.0031437224979010137,0.000814364152922565,-0.3335702676961958,0.4562562259766797,0.08223788553165673,0.3797794265266537,-0.0007057825449740054,3.732381045310583,63.25
-0.0030169315981503075,0.0011461007752472108,-0.3142878966521496,0.45650232486470305,0.08145714544554307,0.37957630256145786,-0.0009138432993168744,3.6507520066348658,63.5
-0.0028368408783005505,0.0014361688478481231,-0.2897128993525411,0.4568114631710435,0.08073446303644181,0.3793355113997407,-0.001091828176925845,3.5765393874838973,63.75
-0.002608349791748621,0.001684873284973725,-0.26026646006697796,0.4571836408957009,0.08006983830435295,0.37905705304150233,-0.0012398967476882627,3.5097431878576777,64.0
-0.002335957393762411,0.0018924776964095967,-0.22632285069666258,0.45761885803867536,0.0794632712492765,0.37874092748674265,-0.001358189054593062,3.4503634077562073,64.25
-0.0020178127339250396,0.0020572660509947972,-0.18806205180244495,0.4581216600882124,0.07891587643300617,0.3783844402998119,-0.0014453752566035288,3.398712477669712,64.5
-0.0016842998601441783,0.002177617103910453,-0.14910775614389005,0.45864625737646064,0.07845010338476699,0.3780191437925584,-0.0015024445148553583,3.3564985512699588,64.75
-0.0013475636769636479,0.0022541339514430547,-0.11043086088890997,0.4591812175038923,0.07807013690612248,0.37765272973966957,-0.0015302833912505184,3.3239433445369184,65.0
-0.0010109755427246125,0.002286924428009575,-0.07218286657905537,0.45972654047050737,0.07777597699707263,0.37728519814114553,-0.0015289533387627743,3.30104685747059,65.25
-0.0006770447951484626,0.0022760491783287186,-0.034454588226142224,0.4602822262763058,0.07756762365761745,0.3769165489969862,-0.0014984900092415501,3.287809090070974,65.5
-0.0003413044406120891,0.0022197233234850754,0.002498162083186539,0.4608487540602179,0.07744684891315841,0.3765468604537367,-0.0014377315070224286,3.2846262921050435,65.75
-2.27887990895681e-5,0.00213227386528304,0.03654349259523926,0.4613902188640109,0.07739899621318244,0.37619893719506914,-0.001357755298403547,3.2892422706992384,66.0
0.000270858971935628,0.0020180380833567588,0.06736466950305076,0.46189780446313233,0.07741962047226197,0.375878173443382,-0.0012618082616238369,3.3009064798614114,66.25
0.0005401551538458671,0.0018769459944172236,0.0950641962227543,0.4623715108575824,0.07750872169039698,0.37558456919867533,-0.0011498535851322406,3.319618919591564,66.5
0.0007861236921246073,0.0017089070257322835,0.11976795026395148,0.4628113380473609,0.07766629986758748,0.3753181244609491,-0.0010218433627912776,3.3453795898896947,66.75
0.001010735189819978,0.0015139804304598672,0.1414014623261517,0.46321480948736615,0.07789250575817548,0.37508049270719585,-0.0008779398423186674,3.3782195721514348,67.0
0.0012064605359519143,0.0013067236212123377,0.1594458654669335,0.4635662608454033,0.07816454323713162,0.3748801300099894,-0.0007283630237422886,3.4152559417196335,67.25
0.0013724592405342517,0.0010901465858587367,0.17395889223428496,0.46386344051940637,0.07847744468918626,0.3747181092955845,-0.0005751881012217852,3.4558550552298226,67.5
0.0015101705681604405,0.0008641849245163008,0.18503690227819192,0.4641063485093752,0.0788312101143394,0.37459443056398134,-0.00041838169096763966,3.500016912682002,67.75
0.0016195599894706092,0.0006300182687131624,0.19261721515369734,0.464292357457385,0.07922444278259225,0.37451074076246904,-0.0002588485962622053,3.5475346270439285,68.0
0.001700631208417569,0.0004007929638141679,0.19714985256087303,0.4644225722541484,0.07963067364455895,0.374463878944374,-0.00010503203686963725,3.5954101763296897,68.25
0.0017537507287023746,0.00017724315508451868,0.19866458384716257,0.46449726633335703,0.08004837598007503,0.37445352116554076,4.260909412324293e-5,3.6434744378399584,68.5
0.0017792081151922212,-4.061231421385175e-5,0.19714908610812243,0.4645164396950109,0.08047754978914047,0.3744796674259694,0.00018406457331268666,3.6917274115747345,68.75
0.0017760631981013075,-0.0002531317279074463,0.19246679031835923,0.4644782336858515,0.08091978565532197,0.3745436553786157,0.0003194833282248455,3.74030558222689,69.0
0.0017472415495753957,-0.0004527454210932619,0.18517909394481702,0.4643902547893771,0.0813570031221779,0.3746389757342142,0.0004443245001947149,3.787312246281121,69.25
0.0016958973180894454,-0.0006349885294973275,0.17574037869293235,0.4642601453591963,0.08177718531918778,0.3747596384978002,0.0005560614373625872,3.8315528453061813,69.5
0.001621021327176675,-0.000799782136873841,0.1640547421788212,0.464087905395309,0.08218033224635157,0.37490564366937384,0.0006546539794920064,3.873027379302072,69.75
0.0015216599039706846,-0.0009470529543996256,0.15003029496877973,0.4638735348977152,0.0825664439036693,0.3750769912489351,0.0007400651014308271,3.911735848268792,70.0
0.0013961312517215552,-0.0010749305431076404,0.13337008290656716,0.4636145487693958,0.08293267519995816,0.37527510466885766,0.0008109781581597392,3.9473481539569417,70.25
0.001257067709594828,-0.0011793236513624114,0.115655658794245,0.46333707614716396,0.08326001558543644,0.37548180784955715,0.0008658796602810451,3.9782420147550033,70.5
0.0011044208878224215,-0.001260024746557467,0.0969756179718313,0.4630438446188058,0.08354708283974151,0.3756952429237448,0.0009047638534385102,4.004310778407108,70.75
0.0009369611492499597,-0.0013169767184688236,0.07725256152643123,0.46273485418432136,0.08379387696287335,0.3759154098914205,0.0009276019025367052,4.025554444913254,71.0
0.0007536599639519359,-0.0013501365401182089,0.0564249050890373,0.4624101048437106,0.08400039795483197,0.3761423087525845,0.0009343720167594993,4.041973014273443,71.25
0.0005510190724489217,-0.0013558534640752476,0.03397922899436456,0.4620638096840256,0.08416140836773335,0.3763792750287953,0.0009224611822467657,4.052927994924629,71.5
0.0003471452861847357,-0.0013384509676165751,0.011698450894380485,0.461724719109158,0.08427296718192294,0.3766079643071219,0.0008958563736623029,4.058573326748937,71.75
0.00014853707959311402,-0.0013015620859542325,-0.009604804354060636,0.4614045596239682,0.08433754884199159,0.37682113594437755,0.000857402308047206,4.0593829882281165,72.0
-4.4973486808874696e-5,-0.0012452016352549472,-0.029910284922694874,0.4611033312284562,0.08435515334793926,0.3770187899405622,0.0008071058266929873,4.055356979362167,72.25
-0.00023332722873359302,-0.0011693950517803128,-0.04918430896044379,0.46082103392262197,0.084325780699766,0.3772009262956759,0.0007449791691970589,4.046495300151091,72.5
-0.00041623772524185254,-0.0010741782945238552,-0.06737983796451963,0.4605576677064655,0.08424943089747176,0.37736754500971864,0.0006710399608513898,4.032797950594885,72.75
-0.000593190808154398,-0.0009595977244356881,-0.08443657890248235,0.46031323257998685,0.08412610394105657,0.37751864608269037,0.0005853112007979042,4.014264930693552,73.0
-0.0007599245329374948,-0.0008247763482781452,-0.10023920305484468,0.4600898935516683,0.08395228545950463,0.37765265734127035,0.0004873038681667344,3.99062834086286,73.25
-0.000905178390643524,-0.0006815901834203685,-0.11364862745668836,0.4599022593630091,0.08374572725849867,0.37776150102297024,0.00038536179473917104,3.9641010437058743,73.5
-0.0010276944159952062,-0.0005332001535491258,-0.12439850765319838,0.4597525725777096,0.0835121712378949,0.37784412124829936,0.00028163529307036195,3.9353152498048263,73.75
-0.0011268127411916962,-0.00037963190114399803,-0.13244640026487486,0.4596408331957698,0.08325161739769331,0.3779005180172576,0.00017613813689502933,3.9042709591597156,74.0
-0.001201809874003923,-0.00022091175365070506,-0.13775032293723877,0.4595670412171897,0.08296406573789389,0.3779306913298451,6.888462821637992e-5,3.8709681717705418,74.25
-0.0012486707553918674,-5.6580048356156404e-5,-0.13994850617261934,0.4595362615731154,0.0826462824792187,0.37793122262829226,-4.021966554063061e-5,3.835155798387743,74.5
-0.0012707575869282395,9.817643232017462e-5,-0.13956852827115673,0.4595397254076623,0.08233293951603146,0.3779099059905918,-0.00014159900116109125,3.800470351868689,74.75
-0.0012688931993679597,0.00024238362503122002,-0.13671364137324415,0.4595764595325214,0.08202651743656761,0.3778675182097926,-0.0002346503055653884,3.767164833101491,75.0
-0.001243408282570746,0.00037607691929105597,-0.13142708337832731,0.4596464639476929,0.08172701624082716,0.3778040592858946,-0.00031939118744496453,3.7352392420861484,75.25
-0.001194624862550564,0.000499289460586274,-0.12375108210925356,0.45974973865317653,0.0814344359288101,0.3777195292188979,-0.00039583826209475814,3.7046935788226616,75.5
-0.001122665571324566,0.0006120744803445287,-0.11370398369884827,0.4598866168338044,0.08114859203706067,0.3776137008070669,-0.0004640073098389763,3.6755134559760827,75.75
-0.0010271792397908985,0.0007114981109546496,-0.1012724333714754,0.4600583156863145,0.08087502774839862,0.3774861922608936,-0.0005219278823969109,3.6483308108962005,76.0
-0.0009219797976999233,0.0007931837466754812,-0.08810667963939522,0.4602420022264739,0.08063228590962601,0.37735299908606884,-0.0005677255263671216,3.6247813714669697,76.25
-0.0008078923546542272,0.0008571712394598585,-0.07426050024764175,0.46043767645428246,0.08042036652074284,0.37721412128259285,-0.0006014214092432343,3.6048651376883907,76.5
-0.000685628352592893,0.0009034927284936774,-0.05977829487317399,0.46064533836974025,0.08023926958174911,0.3770695588504655,-0.0006230327324078799,3.5885821095604626,76.75
-0.000555784686661398,0.0009321727177081102,-0.04469517108032317,0.4608649879728473,0.08008899509264483,0.3769193117896869,-0.0006325727336859988,3.5759322870831864,77.0
-0.00041739347716351904,0.0009422380792996482,-0.02893826412454681,0.4610984777807224,0.07997067240603638,0.376762273701064,-0.0006293232173145216,3.567086646142216,77.25
-0.00027353031299326425,0.0009332729308026803,-0.013098312132200807,0.46133845368883464,0.07988777842055834,0.37660358207336037,-0.0006133547049407689,3.5623481958022616,77.5
-0.00013718455266736873,0.0009123949005660284,0.001678740009732671,0.461565844483829,0.07983430740298048,0.3764551532835588,-0.000590163956513505,3.5606499910501226,77.75
-8.463094787358738e-6,0.0008795996190091616,0.01540032876879982,0.46178065016570535,0.07981025935330278,0.3763169873316592,-0.0005597489661416863,3.561992031885798,78.0
0.00011261976567605858,0.0008348787756443828,0.028078668909092386,0.46198287073446376,0.07981563427152527,0.3761890842176616,-0.0005221056160812781,3.566374318309288,78.25
0.00022614235000367744,0.0007782200956816775,0.03973077033385808,0.46217250619010425,0.07985043215764792,0.3760714439415661,-0.00047722767328476495,3.5737968503205932,78.5
0.00033227550667652705,0.0007096073109589193,0.05037846203690588,0.4623495565326268,0.07991465301167074,0.3759640665033726,-0.00042510678613943975,3.584259627919713,78.75
0.00043150450474216395,0.0006287598187838112,0.060042879641286184,0.4625140808769602,0.08000874631757489,0.3758669499710951,-0.00036556004416942595,3.5978195308582746,79.0
0.0005220646389508254,0.0005384821936107592,0.06836009085182804,0.4626603124252723,0.0801290407794508,0.3757835712570106,-0.0003006722768567824,3.614002835072279,79.25
0.0005988936739373951,0.0004452966688125101,0.07511524774442435,0.4627825479923893,0.08026524845507313,0.37571682403903095,-0.00023495006326720164,3.631500131470447,79.5
0.0006622262465672546,0.00034919380668096967,0.08032386449347007,0.4628807875783114,0.08041736934444185,0.375666708317156,-0.0001683884769948657,3.6503114200527778,79.75
0.000712317725020617,0.00025016386184871856,0.08400127665088064,0.4629550311830385,0.08058540344755699,0.3756332240913858,-0.0001009824322927913,3.6704367008192724,80.0
0.0007482285786679643,0.0001475012945963694,0.08597395302383593,0.4630027208960014,0.08077175990901216,0.3756182436854789,-3.2393772460545533e-5,3.6921036046737794,80.25
0.0007714021224206613,4.8769402559920016e-5,0.08659851696726406,0.46302767452969085,0.08095973076978485,0.3756179488531906,3.263998351520081e-5,3.7135094427812376,80.5
0.0007823011426315585,-4.4650926053640266e-5,0.08597013117923646,0.4630311832783813,0.08114605248164602,0.3756312346236529,9.328304211612959e-5,3.734310874906766,80.75
0.0007808457811420699,-0.00013274879647677193,0.08407681319769367,0.4630132471420727,0.08133072504459567,0.37565810099686575,0.00014952986374720117,3.7545079010503644,81.0
0.0007669575676505502,-0.00021551369785516306,0.08090645688337839,0.46297386612076513,0.08151374845863381,0.37569854797282926,0.00020137512518251383,3.774100521212033,81.25
0.0007405594104286095,-0.0002929355109606707,0.07644683013581632,0.46291304021445856,0.08169512272376041,0.3757525755515433,0.00024881372058342677,3.793088735391771,81.5
0.0006999480194088692,-0.00036481445820763306,0.0705165074102787,0.4628281501356278,0.08187559493156073,0.3758219218233794,0.0002916027398788962,3.811503632880307,81.75
0.0006496906601907715,-0.00042756611745362397,0.06369025960006214,0.4627280476508201,0.08204423721340662,0.3759000760427664,0.0003278004874711568,3.828300266505811,82.0
0.0005932050766038199,-0.0004800937039733874,0.0563696814971375,0.46261917876962694,0.08219612494367007,0.37598252688806777,0.00035697793791449745,3.8430569534280163,82.25
0.0005302066265229222,-0.0005223823106865651,0.04853522834951374,0.46250154349204836,0.08233125812235109,0.3760692743592836,0.0003791274586647658,3.855773693646923,82.5
0.0004604462711167989,-0.000554419568237121,0.040170221992014365,0.46237514181808437,0.08244963674944969,0.3761603184564139,0.0003942427125319045,3.8664504871625316,82.75
0.00038371040372509047,-0.0005761956621597314,0.031260868450873947,0.46223997374773496,0.08255126082496586,0.37625565917945863,0.000402318658358658,3.8750873339748417,83.0
0.0002985846373602663,-0.0005866377125548945,0.021660677094850644,0.46209404135492654,0.08263480683352814,0.37635647997413846,0.0004025724655086285,3.881503153222093,83.25
0.00020773949428287697,-0.0005841232733294587,0.011610661532622135,0.46194161288337754,0.08269503249941283,0.376459713890609,0.0003941262045551869,3.8852183408879863,83.5
0.00012063758446750894,-0.0005741720961591201,0.0021179390108447826,0.46179795036994215,0.08273661983819514,0.37655595828648175,0.00038122218037803246,3.887033329659074,83.75
3.7223019060395046e-5,-0.0005567853789451502,-0.006815311263264512,0.4616630538146203,0.08275956884987504,0.3766452131617566,0.00036386089913040265,3.8869481195353566,84.0
-4.252425651385394e-5,-0.0005319658840778028,-0.015184972447152667,0.461536923217412,0.08276387953445254,0.3767274785164336,0.00034204367617764186,3.884962710516833,84.25
-0.00011858847566104114,-0.000499717933292454,-0.022984993824829658,0.4614195585783173,0.08274955189192765,0.3768027543505128,0.0003157726352310819,3.8810771026035047,84.5
-0.00019091803900950222,-0.00046004740124673885,-0.030207396225904404,0.46131095989733617,0.08271658592230034,0.3768710406639942,0.000285050707551332,3.8752912957953707,84.75
-0.0002594254780718952,-0.00041296170782128064,-0.03684227909528426,0.4612111271744686,0.08266498162557066,0.3769323374568777,0.0002498816312207497,3.8676052900924316,85.0
-0.00032398739413647126,-0.00035846980914666995,-0.04287782921064398,0.46112006040971465,0.08259473900173857,0.3769866447291634,0.00021026995048454428,3.8580190854946865,85.25
-0.00038329354335225885,-0.0002958809904078964,-0.04825155566168915,0.4610388291257773,0.08250381102730787,0.37703314054434983,0.0001658107923950547,3.8463462910147617,85.5
-0.0004330756296654914,-0.0002310005075819785,-0.05258525601163777,0.460972992200238,0.08240152126650094,0.37706892611029025,0.0001205245936653776,3.833723098583846,85.75
-0.0004729656536023308,-0.00016616990049767022,-0.05580427064013982,0.46092334639055504,0.08229239649489882,0.37709380540910337,7.59705912490305e-5,3.8206487675614835,86.0
-0.0005028934364041393,-0.0001013902326625106,-0.05790568888256775,0.4608898916967284,0.08217643671250152,0.3771077784407892,3.214944124812352e-5,3.807123297947674,86.25
-0.0005227855948052862,-3.666252240513285e-5,-0.05888695880149486,0.46087262811875807,0.08205364191930903,0.3771108452053476,-1.0938215918729344e-5,3.793146689742417,86.5
-0.0005325655265430718,2.801225605869942e-5,-0.058745886214539134,0.46087155565664406,0.08192401211532137,0.3771030057027787,-5.329175522339469e-5,3.778718942945713,86.75
-0.0005293311928223354,9.275286187327217e-5,-0.05718925926379104,0.46089116546397335,0.08178534749255001,0.37708123434923124,-9.479657032115257e-5,3.7636870452509568,87.0
-0.0005184726733780121,0.00015164490968108332,-0.054896660562398836,0.4609215470232504,0.0816538549051017,0.37705301132577845,-0.00013201751764334302,3.749653282008243,87.25
-0.0005005908332904041,0.00020437415534769326,-0.05193438613520529,0.4609618788679015,0.08153054177260703,0.37701893286971394,-0.00016478345979103332,3.7367130415537706,87.5
-0.0004758090387109726,0.0002509488279258572,-0.04831296544557029,0.46101216099792675,0.08141540809506599,0.37697899898103765,-0.0001930986237576246,3.7248663238875395,87.75
-0.0004442415837632163,0.00029137629255693645,-0.04404203707161747,0.4610723934133261,0.0813084538724786,0.37693320965974964,-0.00021696680709373806,3.71411312900955,88.0
-0.0004059936504801631,0.0003256630571877271,-0.03913035316909985,0.4611425761140996,0.08120967910484485,0.3768815649058498,-0.00023639137846524078,3.7044534569198024,88.25
-0.0003611612718787405,0.000353814778482741,-0.033585783634656696,0.4612227091002472,0.08111908379216473,0.37682406471933827,-0.0002513752781303155,3.695887307618296,88.5
-0.0003086935885323605,0.0003752413676208835,-0.027309853703699094,0.4613144973959029,0.0810371240636065,0.3767596483630548,-0.0002614591361839169,3.688500176889825,88.75
-0.0002504964811810284,0.0003885902157722311,-0.020580996959140396,0.4614142558015533,0.08096801994815951,0.37669102476304395,-0.00026592605256414714,3.6827001183968746,89.0
-0.00019351090399777338,0.0003959856273261786,-0.01410389596923789,0.46151110698094355,0.08091215889213504,0.37662522463897014,-0.0002666364206779931,3.67831720492192,89.25
-0.0001378067969964869,0.00039742929325405074,-0.007880658251292694,0.4616050509340736,0.0808695408955331,0.3765622479908334,-0.00026359118722747016,3.675351436464961,89.5
-8.343482997130724e-5,0.0003929219543489272,-0.001912207636726393,0.46169608766094355,0.08084016595835367,0.3765020948186337,-0.0002567907995657051,3.6738028130259974,89.75
-3.042637712036278e-5,0.00038246340098877646,0.003801714743621787,0.46178421716155327,0.08082403408059675,0.3764447651223711,-0.00024623520541378063,3.6736713346050296,90.0
2.12064986016558e-5,0.00036605247214384004,0.009262550287035598,0.46186943943590286,0.08082114526226236,0.3763902589020456,-0.00023192385256599196,3.674957001202057,90.25
7.14710513895489e-5,0.0003436870536272958,0.014472923562045992,0.46195175448399234,0.08083149950335047,0.3763385761576571,-0.00021385568858350856,3.6776598128170805,90.5
0.00012039384875089931,0.000315364075588527,0.019436643769021877,0.4620311623058216,0.08085509680386112,0.37628971688920565,-0.00019202916047638546,3.6817797694500993,90.75
0.00016780060383542184,0.0002793194577650239,0.02400795462965455,0.4621060135138784,0.08089600346902559,0.37624508158772674,-0.00016537267387897042,3.687757816797669,91.0
0.00020975639933973333,0.00024186533502977905,0.027934626134265894,0.4621712540666006,0.08094377760710073,0.37620713272682466,-0.00013821826001476217,3.6943197990126078,91.25
0.00024593738828221356,0.00020384805346395501,0.031214813079770032,0.46222662429718064,0.08099685985956269,0.3761759151386015,-0.0001111279452586933,3.7012829976191104,91.5
0.0002763732816327136,0.00016526662238194184,0.03385050826065639,0.46227212420561853,0.08105525022641147,0.37615142882305735,-8.410120422860934e-5,3.7086474126171765,91.75
0.0003010959141475089,0.00012612004578559793,0.0358436117889922,0.46230775379191436,0.08111894870764706,0.37613367378019213,-5.713750675873097e-5,3.716413044006806,92.0
0.00032013923908719155,8.640732249973887e-5,0.037195931288485085,0.4623335130560681,0.08118795530326949,0.37612265001000594,-3.0236317972602567e-5,3.7245798917879998,92.25
0.0003335393225981642,4.6127446335430394e-5,0.03790918200668214,0.4623494019980797,0.08126227001327874,0.37611835751249867,-3.397098363049078e-6,3.7331479559607565,92.5
0.0003413343377556832,5.279406281859245e-6,0.037984986844703084,0.46235542061794926,0.08134189283767482,0.37612079628767037,2.3380696120033073e-5,3.7421172365250777,92.75
0.0003423118564387928,-3.6487371031439925e-5,0.03728323179629012,0.4623494360986267,0.08142843916663406,0.37613145420115673,5.023253492421331e-5,3.751625781698698,93.0
0.0003372692224865581,-7.615454962316137e-5,0.03595477065634034,0.4623333991763269,0.08151502687726514,0.376148554041812,7.528104696171573e-5,3.760943850885219,93.25
0.0003283474331701175,-0.00011197851676100767,0.03426818054047853,0.46231128536827965,0.08159646436416344,0.37616915447829063,9.756541108325162e-5,3.7695706462756853,93.5
0.00031549451109064153,-0.0001439557875731086,0.03221913581210778,0.462283094674485,0.08167275162732897,0.3761932555105926,0.00011708384436407565,3.7775061678700976,93.75
0.0002986622311249576,-0.00017208320614144068,0.02980364545771108,0.4622488270949429,0.08174388866676172,0.37622085713871783,0.00013383473293423348,3.7847504156684555,94.0
0.00027780610969868613,-0.0001963579473044201,0.027018054262770708,0.4622084826296534,0.08180987548246169,0.3762519593626664,0.00014781663212661,3.7913033896707593,94.25
0.00025288539488793615,-0.00021677751826099795,0.023859043911107047,0.4621620612786166,0.08187071207442889,0.37628656218243833,0.000159028266604945,3.797165089877009,94.5
0.00022386305734639622,-0.00023333975997580705,0.020323634007520575,0.4621095630418323,0.08192639844266332,0.37632466559803357,0.00016746853047146237,3.802335516287205,94.75
0.00019056252340948765,-0.00024593194275054214,0.01639491137548177,0.46205076706063725,0.08197680479649454,0.3763664018567626,0.00017305471809888479,3.806796117777521,95.0
0.00015058041076243533,-0.0002508690108532982,0.011853807517606896,0.4619823044674653,0.08201591959571575,0.37641350245300537,0.00017324073993424394,3.8098194853387044,95.25
0.00011224213453270293,-0.0002528607873680637,0.007549997818921739,0.4619173264733197,0.0820476389086813,0.3764578210004227,0.00017166133224944674,3.8120877971056553,95.5
7.552717262121478e-5,-0.00025190696074437954,0.0034832234474113655,0.4618558330782004,0.0820719627353912,0.3764993574990146,0.0001683163142637903,3.813601053078372,95.75
4.0420687345887885e-5,-0.00024800746475506577,-0.00034647321162717404,0.4617978242821075,0.08208889107584547,0.376538111948781,0.00016320563301141372,3.8143592532568564,96.0
6.9135214227911135e-6,-0.00024116247833491297,-0.003938748580073259,0.46174330008504105,0.08209842393004407,0.376574084349722,0.0001563293632777657,3.814362397641107,96.25
-2.49978044953858e-5,-0.00023137242533895208,-0.007292958015939099,0.46169226048700096,0.08210056129798704,0.3766072747018375,0.00014768770754023525,3.8136104862311244,96.5
-5.531109272538526e-5,-0.00021863797422028153,-0.010408156046441963,0.46164470548798725,0.08209530317967435,0.3766376830051276,0.00013728099591298754,3.812103519026909,96.75
-8.401846790451195e-5,-0.0002029600376275524,-0.013283096704936437,0.4616006350879999,0.08208264957510603,0.3766653092595923,0.00012510968609626832,3.8098414960284597,97.0
-0.00011110637478550789,-0.00018433977192218454,-0.015916233971588145,0.4615600492870389,0.08206260048428206,0.3766901534652315,0.00011117436332985092,3.8068244172357777,97.25
-0.00013655557447395106,-0.0001627785766156152,-0.018305722317654816,0.46152294808510436,0.08203515590720244,0.37671221562204527,9.547574035072282e-5,3.803052282648862,97.5
-0.0001603411391086773,-0.0001382780937260221,-0.02044941735338357,0.4614893314821961,0.08200031584386716,0.37673149573003356,7.801465735512991e-5,3.798525092267713,97.75
-0.00018217266863645998,-0.00011044053301090262,-0.022322837503117032,0.46145956360483587,0.08195709332993051,0.3767476913363585,5.85473495942207e-5,3.7931433387380373,98.0
-0.00019984243730419848,-8.038039960919091e-5,-0.023747524135178555,0.4614365354732395,0.08190640937101176,0.3767590211823702,3.7924534151211053e-5,3.787074300214496,98.25
-0.00021356242536890724,-5.147930506320744e-5,-0.024747708741549523,0.46141983214746163,0.08185536764271892,0.3767662533035702,1.8331905519287928e-5,3.7810849922419094,98.5
-0.00022333376939420724,-2.3736591791390094e-5,-0.025323965207673993,0.4614094536275023,0.08180396814505198,0.3767693876999585,-2.3085726234134407e-7,3.775175414820277,98.75
-0.00022915763110653575,2.848382773798508e-6,-0.025476903281803853,0.46140539991336155,0.08175221087801092,0.3767684243715351,-1.7764068325182292e-5,3.7693455679495993,99.0
-0.00023103519744610557,2.8276246261296767e-5,-0.02520716846726856,0.46140767100503927,0.08170009584159577,0.37676336331829996,-3.426803498247227e-5,3.7635954516298757,99.25
-0.00022896768061653194,5.2547611435246194e-5,-0.024515441913067537,0.46141626690253557,0.08164762303580651,0.37675420454025316,-4.974305774025495e-5,3.7579250658611065,99.5
-0.00022295631813090688,7.566307626747162e-5,-0.023402440302513483,0.4614311876058504,0.08159479246064316,0.3767409480373946,-6.418943030797597e-5,3.7523344106432917,99.75
-0.00021300237285737378,9.762322400836201e-5,-0.021868915740244077,0.46145243311498374,0.08154160411610571,0.37672359380972437,-7.760743960899541e-5,3.746823485976431,100.0
