dm__1,dh__1,dV__1,h__1,m__1,n__1,dn__1,V__1,time__1
-6.050187521454373,0.09179343853392416,1045.18,0.5,0.5,0.5,-0.07239223406929544,-20.0,0.0
1.3574315650372464,-0.4032184204275132,228.4570812788257,0.45339668238837844,0.4851754192371328,0.5137630881100995,0.17132896086096713,51.50889838751251,0.25
0.9504212549412423,-0.3540775768160712,28.686289704999805,0.35489375202968615,0.8650625323472154,0.5853594253949123,0.3371674530078644,96.57737729308695,0.5
0.14627321265240845,-0.2755349355958952,-38.08125967804669,0.27656994773197535,0.9749308684242457,0.659978063008048,0.2543627028446996,92.42744487952785,0.75
0.011876923897292557,-0.21356224147784889,-48.35070764460188,0.21571556178738005,0.9904363080461328,0.7130845711666208,0.17357303739302443,81.63796964017443,1.0
-0.028569630643278325,-0.16381416200792526,-48.933602199388126,0.16873424806584278,0.9880925106912363,0.7483419857443575,0.11140275387211106,69.67279890249809,1.25
-0.07400515821488973,-0.12206681268778546,-46.667769794613086,0.13309746353440696,0.9759564442482561,0.7700686650403442,0.06446662529454997,57.93027485170715,1.5
-0.15639746202232008,-0.0843562342725674,-43.99751937679967,0.10731087915176316,0.9486061836946333,0.7814580372569164,0.02796375777461728,46.75520480299282,1.75
-0.30864074233706235,-0.04796433736847024,-43.19703075594758,0.09074839196413938,0.8931133407131925,0.7845983828188409,-0.002145276202132701,35.9588885058574,2.0
-0.5942588346354264,-0.011708124432929283,-49.02378386743758,0.0832652356775208,0.7853692788956369,0.7805625548989051,-0.03017965186684457,24.533116376705667,2.25
-1.138443394725117,0.028717690553605724,-66.9055465350807,0.08520907058390219,0.5753127632690652,0.769169080254221,-0.06179324807852142,9.987504007646125,2.5
-1.2232026119273132,0.08026186757975992,-42.33825496366618,0.0988061483891305,0.24643723644148585,0.7498228189312447,-0.08993707414725152,-5.493062436242341,2.75
-0.3298599115586077,0.10071220825971589,-4.809668162648568,0.12231421974276764,0.06063519399985826,0.7263484739403988,-0.09487820624317375,-10.304350824516654,3.0
-0.054928415666019956,0.09922633276168999,0.14293880874174203,0.14743088666881818,0.021623106011692757,0.7030106971602387,-0.09150574924566586,-10.662797595292997,3.25
-0.007819496106506882,0.09531409583013997,0.6323052997735559,0.17175728784758243,0.015419626208032734,0.6806432597265236,-0.08742803647630479,-10.547656349227152,3.5
-9.792755935864039e-5,0.09126983324947673,0.7452666223647313,0.1950794122355474,0.014683549233918023,0.6592900319543668,-0.08341635663825689,-10.374438161042955,3.75
0.0012619025968918368,0.08729380511704757,0.8240459597220164,0.21739804769760632,0.014864664790244201,0.6389236209763077,-0.07953261481159912,-10.17968061847154,4.0
0.0016210160725636663,0.08340452846250586,0.9012118414548365,0.23873348908687514,0.015227794862955014,0.6195114820538538,-0.07577680052529237,-9.966809193432265,4.25
0.00183649482910897,0.07960093158783613,0.9785889207436647,0.25910726156124436,0.015658295859033784,0.6010226588592898,-0.07214232034406003,-9.73560321461581,4.5
0.002047516791816875,0.0758805462285819,1.0554539285494773,0.27854034385257004,0.01614098863880624,0.583427961293956,-0.06862235211600008,-9.485624784547726,4.75
0.002272920048811272,0.07224198837158795,1.1316235927868243,0.29705327118276237,0.01667725923055924,0.566699706098563,-0.06521080511271453,-9.21675435372225,5.0
0.002515873542903932,0.06868381684660327,1.2063719496594452,0.3146665984634441,0.01727094708968637,0.5508112745163215,-0.06190186436644764,-8.928986467940383,5.25
0.0027755292123169267,0.06520510258436797,1.2791152733289781,0.33140108617283515,0.017926392632358512,0.5357369025937927,-0.05869026004921077,-8.622582653605443,5.5
0.0030501277284673833,0.061806493745850344,1.3498705562241842,0.3472760224647963,0.01864738771137205,0.5214534718861557,-0.05557206219475243,-8.298302203002727,5.75
0.0033434584182859828,0.05848661945179618,1.4168357531829674,0.3623101430333941,0.019437974943414496,0.5079394543033532,-0.05254294949300956,-7.956598827237531,6.0
0.003653143893120034,0.055244866269962174,1.4791923480584002,0.3765243669255039,0.020302506879394878,0.49517172322201625,-0.04959911757107732,-7.598352514396112,6.25
0.003974154358469206,0.05208170849253235,1.5367540271641458,0.38993956065760405,0.0212448470634328,0.48312806718656515,-0.04673785495953665,-7.224904503030321,6.5
0.004309663374527289,0.048997521619829315,1.588627669192638,0.4025725335356552,0.022267486832359976,0.471790884527666,-0.04395740633135547,-6.837641499145662,6.75
0.004657661237224137,0.0459910254308174,1.6337383967388623,0.41444404029017023,0.023374115197507702,0.4611392835324711,-0.04125526658026356,-6.437823183521607,7.0
0.005010475629830313,0.04306266922887891,1.6722122773348724,0.42557564396892433,0.024567486356739433,0.4511518599746522,-0.03863027056267644,-6.0273256887119855,7.25
0.005370871269633565,0.0402129786955715,1.7036301871839932,0.43598398081798856,0.025848162688025568,0.4418119975799469,-0.03608229052984552,-5.608018228126678,7.5
0.005735717568363302,0.03744040571454989,1.72728385641501,0.44568911437886355,0.027218345895102757,0.4331002860100575,-0.03361017759260948,-5.181418827155643,7.75
0.0060961477956809895,0.03474534274279399,1.7437647088447887,0.45471283025025594,0.028678629808792006,0.42499535884670153,-0.031214049196318767,-4.7496585474222,8.0
0.00645586114837729,0.03212786932381349,1.7529790242028929,0.46307162992073564,0.03022720086410699,0.41748069999865944,-0.02889466640626936,-4.314628252070878,8.25
0.0068090193015021006,0.029586567103499814,1.7548447120243775,0.470785060438775,0.03186431053562836,0.410537117473058,-0.026651864546288248,-3.877883126494197,8.5
0.00714813937525427,0.02712166435324626,1.7503445701972042,0.4778749470807067,0.03358780658599349,0.40414255313442826,-0.02448631707574828,-3.441422088715687,8.75
0.007478529346432394,0.02473283070552358,1.7395699602834984,0.4843568065812702,0.035393563092254436,0.3982809666311706,-0.022399056550508348,-3.0067967241388667,9.0
0.007791253205905707,0.022418888237036583,1.7230618650301963,0.4902505982846532,0.037280042912385444,0.3929319255731266,-0.020390127332135983,-2.5753489351845302,9.25
0.008084296021253434,0.020179795468854064,1.70192728136922,0.49557743134914645,0.039242257985419304,0.3880731377278857,-0.018459997398412004,-2.1486158865727276,9.5
0.008360786255415392,0.018014890158334733,1.6763608690327847,0.5003520290094176,0.041275279311468994,0.3836888973323349,-0.016609306290601186,-1.7276206019861977,9.75
0.00861404713265601,0.015923197373473,1.6472773874510298,0.5045947427123185,0.04337553602123732,0.37975745776153974,-0.014837653466366577,-1.3133234753847198,10.0
0.008847074388236342,0.013904179281554956,1.615612040495248,0.5083254005232176,0.04553660028262834,0.3762572540692912,-0.013144703185434599,-0.9066293075757134,10.25
0.009059854356370606,0.011957081374160142,1.581636962238806,0.5115584084084703,0.04775370272791483,0.3731726133772039,-0.011530381357834879,-0.5080793788289926,10.5
0.009242054577507708,0.010079875082667562,1.546258568863553,0.5143142228148441,0.05002537257813763,0.370481138220108,-0.009992752575791672,-0.1179444292385886,10.75
0.009397269329188523,0.00827100346776418,1.5097553017034127,0.5166076956384519,0.05234743993844204,0.36816626893347376,-0.008530559241240944,0.26365861290838905,11.0
0.00954867132745274,0.006531290366919861,1.4728342443739528,0.5184575395144903,0.05470661045766814,0.366207652799072,-0.007143510657224211,0.6360155759698695,11.25
0.009689139391608204,0.0048594825505049975,1.436113330847057,0.5198819172949919,0.05710002575496723,0.36458566902872985,-0.005829763535450776,0.9990390456875451,11.5
0.009813494956554258,0.003253788420169313,1.3998908641982117,0.5208967010026739,0.05952600973119283,0.36328317013003536,-0.004587156744505445,1.3529052241767066,11.75
0.009927779526377828,0.0017132592642256084,1.3643520675030443,0.5215179037175134,0.06197894689484866,0.36228306413880523,-0.003413912483396321,1.6976384554366621,12.0
0.010026640315628027,0.0002355889585423203,1.3298200843836834,0.5217619631183356,0.06445857141946977,0.3615678411636972,-0.0023071096116014517,2.0336117593641654,12.25
0.010115361269028178,-0.0011811009462589887,1.2964865594876263,0.5216456868668659,0.06696140870291639,0.3611198761183479,-0.0012639605611438065,2.3611112666746314,12.5
0.010197088862797826,-0.0025370193447958322,1.2641148878544008,0.5211814815168133,0.06948269037185119,0.360926396228185,-0.0002832055081885554,2.680186558041248,12.75
0.010267487871365555,-0.003835255396977773,1.233058063539128,0.5203863430098624,0.07202405061761077,0.36096989390474293,0.000638982654098362,2.9914261522699506,13.0
0.01033265059516203,-0.0050763591724956,1.2031047064216454,0.5192744196271825,0.07458056828856187,0.3612363154992541,0.0015044220667699837,3.294929990547114,13.25
0.010388297961876125,-0.006261785986167931,1.1740812173147543,0.5178576319692144,0.07715249263493452,0.3617137541530373,0.0023154014034340795,3.591065049931583,13.5
0.010439891951659341,-0.007393045247310732,1.1460881871185506,0.5161539717595768,0.07973621185373057,0.3623849866329511,0.0030748331387196112,3.880042224654415,13.75
0.010479846462877584,-0.008470346346350435,1.1185714167531664,0.514171328510706,0.08233182824085193,0.36324245253364396,0.0037838284102144973,4.16206332954129,14.0
0.010513149482622774,-0.009495289548914383,1.0916946156355922,0.5119291978956079,0.08493581540242122,0.36426831345020494,0.004445476239121379,4.437310289637391,14.25
0.01053288204235997,-0.010467117163947232,1.0645651675202799,0.5094339650184676,0.08754672679619736,0.3654567607115463,0.005060147675835597,4.705815748013366,14.5
0.010540772654937192,-0.011386187549456035,1.0372611997620782,0.5067062558958837,0.09015910060565671,0.3667900566796313,0.005630098467481547,4.967464235640874,14.75
0.010526446990257121,-0.012251958052296091,1.008872702626225,0.5037519249006631,0.0927730524031658,0.36826310982700144,0.00615582708343769,5.222344009728894,15.0
0.010489445072203507,-0.013061741086800898,0.9787834228404824,0.5005912105611029,0.09537718645035029,0.36985978934209945,0.006637404451475273,5.4697259280365484,15.25
0.010416369905896228,-0.013815069821317697,0.9463801711673436,0.49723435284117573,0.09797114337318821,0.37157191263408296,0.007075669986774974,5.709597256677417,15.5
0.010302058169024686,-0.014505783380034075,0.9095468322200111,0.49369508082800145,0.1005385399291835,0.37338937808188655,0.0074678914946638905,5.940716435156912,15.75
0.010124554838131017,-0.015129252527970757,0.8678860732426692,0.4899973017190896,0.10306774841137908,0.3752948747551073,0.007812893843035927,6.161889617754136,16.0
0.009871278037214049,-0.015681862288235534,0.8186907282596045,0.48614322406618127,0.10555234457378977,0.37728680322370256,0.008108941711643426,6.372698254637646,16.25
0.009506565654124943,-0.01614435126604445,0.7591231435518606,0.48217381394545644,0.10794534103149572,0.379337856299545,0.00834599667811986,6.568644221206164,16.5
0.009001065340296599,-0.01651287393548697,0.6868555718588363,0.47809554692708084,0.11024145481219319,0.38144370256194493,0.008522335082195721,6.74915749900373,16.75
0.008317567510552237,-0.01676687767905167,0.596328412179149,0.473935354827193,0.11239216283000916,0.38358725625532375,0.008626243710342985,6.909863238696405,17.0
0.007368094573035555,-0.016868032133928682,0.481169217086896,0.4697494306671,0.11431156830449055,0.38573340191918754,0.008635572009907333,7.04215574253661,17.25
0.006126626048941486,-0.016818658651704895,0.33890833256518516,0.46553260114846584,0.11600632113386436,0.38788528201222605,0.00855172976578119,7.1468082316207,17.5
0.004462048723242407,-0.0165416759288997,0.15540918969967432,0.4613798674410076,0.11729388605383931,0.38998460431222687,0.008328467881616293,7.206471387862589,17.75
0.0022811364401806866,-0.015999776921980957,-0.07523783364625558,0.45734121999418437,0.11808393865933539,0.3920007503838451,0.00794278127672609,7.21231445477858,18.0
-0.00044579396085331346,-0.01517742991921029,-0.3552570326799218,0.4534378524209926,0.11832668564240287,0.3939205917043725,0.007383958884868792,7.160021724516789,18.25
-0.003828945455576549,-0.013972614059865766,-0.6954083016486639,0.4498218659546023,0.11774481791458626,0.3956503805083062,0.006588903215135833,7.024146828888475,18.5
-0.007813281901494995,-0.012378445957844458,-1.0850228488496558,0.4465228759760012,0.11628410269500264,0.3971717172102673,0.005550195778872058,6.799990812115932,18.75
-0.012231299112119787,-0.010352001820088642,-1.508074838755243,0.44371281711230526,0.11373130996466996,0.3983769443523963,0.004240734246685786,6.4706092185338315,19.0
-0.016786051564795956,-0.007910734338553771,-1.9308544947389692,0.44143735365416703,0.11004499362498243,0.39923710988973765,0.0026674980609849783,6.033362077978984,19.25
-0.020885529600863317,-0.005159948615870491,-2.2982905868437493,0.4398176653144767,0.10530750249021048,0.39967503139797533,0.0008990136788586053,5.501358645550137,19.5
-0.02400843621433546,-0.002167535936202041,-2.562414256474721,0.4389079506561703,0.09958736487521819,0.3996568071283955,-0.0010209294273169148,4.882778907575112,19.75
-0.02557822311480412,0.0008194336283293864,-2.6717529315500084,0.43874275760957715,0.09336848039473941,0.3991628408830933,-0.0029256422386453734,4.227578217158955,20.0
-0.02536689870325176,0.003711007585810007,-2.6157314651602284,0.43931863892361495,0.08686779818887112,0.3981973035370489,-0.004751255040287117,3.556325616007112,20.25
-0.02358297178837898,0.0062640117892785,-2.408893533616011,0.4405527930829144,0.08072882511775778,0.3968214561820911,-0.006332277431810189,2.929752760988501,20.5
-0.02055997232226639,0.008445379938972961,-2.0905148055897897,0.4424012005002996,0.07510147776654837,0.39506780170590283,-0.007643863284196549,2.361753525064284,20.75
-0.01701901646379181,0.010146800201372382,-1.7155113712473549,0.44469688580593975,0.07037375188633403,0.3930550685525638,-0.008617602841222115,1.88770543406218,21.0
-0.013370040527848903,0.01138886867340769,-1.3219832453109643,0.44739643461946854,0.0665385674839752,0.390814060871161,-0.009268466889731812,1.50830434807397,21.25
-0.00995430003775738,0.012206237114373679,-0.9477602335129496,0.45031965868172796,0.06358298482458838,0.3884698067712899,-0.009628479200634317,1.223440179561742,21.5
-0.00699146716441762,0.012623774626527088,-0.6081687806158422,0.4534253818947314,0.06146488466047597,0.3860504041539329,-0.0097166778972778,1.0302071870572282,21.75
-0.004447634579465842,0.012719590040004784,-0.3135715013692284,0.45658543398512424,0.06002381740829605,0.3836420031229648,-0.009592072383725656,0.9142402442684003,22.0
-0.002329357535310689,0.012535715615828332,-0.06519826560372888,0.45974265066156617,0.05917633480803904,0.3812821028569594,-0.009285632749260891,0.8672879601319257,22.25
-0.00058944374883238,0.012131698340979047,0.14001192576787158,0.46282567591186424,0.05881168892952863,0.379016635077168,-0.008840546354878256,0.8767873698008747,22.5
0.0008400966393620202,0.011557031871384883,0.30690108278900485,0.4657831871613772,0.05883583704909732,0.376877148907159,-0.008292064918822104,0.9318410840194636,22.75
0.002005314027760524,0.010842476695216922,0.44015528276491267,0.4685842578180358,0.05919256608950379,0.37488226551235815,-0.007661950476656777,1.0254615657253778,23.0
0.0029621507457703866,0.010031108213837375,0.5454883944081836,0.4711913383410486,0.0598060642044764,0.373053029261295,-0.00698036848302884,1.1478156288288386,23.25
0.00374583142978549,0.009142641711288941,0.6269295466911151,0.47358842237199117,0.06064165852523302,0.37139762525576575,-0.006260990814812316,1.2941926371214403,23.5
0.004389643844949304,0.008204029153647437,0.688770061441816,0.4757567451755638,0.06165327604582337,0.3699246934381323,-0.005522381027143211,1.458255012676944,23.75
0.004917352330990721,0.007234378984509668,0.734510160837277,0.47768638117471895,0.06280813088741163,0.36863693352438803,-0.004777424613049107,1.6353988906276613,24.0
0.005348679695446612,0.006245758225453191,0.7665865399279976,0.4793717343499456,0.06408502021414114,0.36753540731031753,-0.004034281385176704,1.8226653223997458,24.25
0.005697766341628191,0.00525467382806449,0.7877986262120458,0.4808098432682991,0.06545487770317371,0.3666172245942381,-0.0033036412012571945,2.016044229629377,24.5
0.005977026634598009,0.004267299347222787,0.799460827399169,0.48200033689291505,0.06690601154912702,0.3658806490044974,-0.0025895535383684623,2.2139815781769614,24.75
0.006194553006705489,0.0032959917906065853,0.8036513297082539,0.4829472461155549,0.06841499364059805,0.3653178722201686,-0.001899495648169651,2.4134128449348813,25.0
0.006357226687902229,0.002344471680150728,0.8009450375832787,0.4836523620186925,0.0699741857635046,0.3649261968671125,-0.0012357882983759574,2.613421972028352,25.25
0.006470480149116137,0.001421781355788368,0.792870603189832,0.484125609165921,0.07156408845999025,0.36469399978550704,-0.0006033347916216333,2.8116847211338487,25.5
0.006536138883595499,0.0005305339060637237,0.7794704491295277,0.4843694717183032,0.07317927094245238,0.36461851089988684,-3.6622295123481252e-6,3.0076168317308816,25.75
0.006559316292310768,-0.0003222582673105094,0.7618592868907577,0.48439880944259156,0.07480174567317639,0.3646852581955203,0.0005599373283970838,3.1993247494956734,26.0
0.006536357912469648,-0.0011345500826379293,0.7397958288781639,0.48421694942064836,0.07642764479490667,0.36489096881060423,0.0010864374211312366,3.386400041151145,26.25
0.0064729560378344875,-0.001900436923840395,0.7138258064352705,0.4838406006072817,0.07803946175884255,0.3652211290481769,0.0015732508520816396,3.5672233333614938,26.5
0.006362734781539925,-0.0026174638566467887,0.683986912123653,0.48327962013126985,0.07963097280569585,0.365667281891569,0.00201959406555368,3.741163549317325,26.75
0.00620660926571831,-0.0032814327118215122,0.649619463322848,0.48254162491918073,0.08119073376546587,0.36622328899412865,0.0024232860369684944,3.907281605426802,27.0
0.006003245877389762,-0.0038873664572926653,0.6115091945143913,0.48165233036187793,0.08270133864234074,0.3668690049328305,0.0027828023290068643,4.063986878850819,27.25
0.005742376391120352,-0.004433793396938689,0.56845754370047,0.48061111288921954,0.0841613787195433,0.3676047872558195,0.0030973092270346544,4.21118896143358,27.5
0.005429590408593199,-0.0049130338012744745,0.5207249750027305,0.4794476915590793,0.08554405776219633,0.36840899573012603,0.003363457832162166,4.346618035739158,27.75
0.005054586792894167,-0.005322021928922813,0.46813627611299236,0.47817752192772306,0.08683979880004032,0.36927051663148525,0.0035802036831852485,4.469399480762837,28.0
0.004608318026970537,-0.00565862072402816,0.4092986309394462,0.47680054342343503,0.08804460939789226,0.3701892426399152,0.0037463246209817336,4.579269858980748,28.25
0.004099122185968362,-0.005912398846789412,0.3450211289209848,0.4753636091230248,0.08911909248038494,0.3711334495047483,0.003857114053938439,4.672888540674882,28.5
0.003514852826842607,-0.006080913545076363,0.2749979796207467,0.4738788362144351,0.09005555020526934,0.37209502405581424,0.003911612714036207,4.749556530207321,28.75
0.002845074507712597,-0.006162999659944792,0.19794368141876517,0.47234175927852257,0.09085319107784685,0.3730766708997468,0.0039090116196138225,4.809264131012128,29.0
0.0021099780078728814,-0.006148408065231106,0.11522813335224846,0.4708110689021789,0.09146530675690384,0.37404069700067455,0.0038447588843935343,4.848293305487121,29.25
0.0013084064451848731,-0.006034196587594857,0.02787997793051611,0.46931331470419396,0.09187591711407626,0.37497024474686874,0.0037178614771526605,4.8653088478463316,29.5
0.00043458884652841645,-0.005820555057606539,-0.06402417501676716,0.4678484966845678,0.09208502214936415,0.3758653141383294,0.0035283820075158734,4.860310758089763,29.75
-0.0005074650743269737,-0.00550008203159124,-0.16120299064518306,0.4664155829284756,0.09207425096690505,0.3767259415680842,0.0032713247294066314,4.831649543167813,30.0
-0.0014522693534881337,-0.0050873102903921975,-0.2571296342336533,0.46510877013449625,0.09182845314572012,0.3774949956113999,0.0029591335414753464,4.779650490522538,30.25
-0.0023854922839647297,-0.004585944408775636,-0.3497208995988794,0.46393827422151923,0.09134890938936908,0.3781663731690058,0.0025943584062602595,4.704608490399348,30.5
-0.0032933823641116966,-0.003997189281754302,-0.4373697845380793,0.4629040951895446,0.09063561969785196,0.378740074240902,0.0021775488754856853,4.606523542798241,30.75
-0.004157057680036158,-0.0033204959313839974,-0.5183066648668648,0.46200630582544466,0.08968443459856565,0.379215900864147,0.001708083337532973,4.484969756196147,31.0
-0.0049189399482492124,-0.0025549218898758934,-0.5893496910444105,0.46127503873743314,0.08847226032506472,0.37957449708808094,0.0011861564505042527,4.338545179267355,31.25
-0.005524647628107393,-0.001789741496774664,-0.6426406771883371,0.4607347760443473,0.08717115994345467,0.3798071851112973,0.0006713317180271072,4.185805723364191,31.5
-0.005962885274214846,-0.0010250921588498899,-0.6777267349937683,0.4603855177461872,0.0857811334537355,0.3799139649337961,0.00016373394601356533,4.026751388486655,31.75
-0.006221568363524388,-0.00026110229596232673,-0.6942196832232681,0.4602272638429527,0.08430218085590722,0.3798948365555773,-0.0003365114589463092,3.861382174634748,32.0
-0.006287788488005264,0.0005021069624509267,-0.691795097107037,0.4602600143346439,0.08273430214996981,0.379749799976641,-0.0008292779928683533,3.6896980818084693,32.25
-0.0061844817973011335,0.0012448047113210459,-0.6685526354762974,0.4604883372322835,0.08112654162292582,0.37947660823293405,-0.0013010622370397407,3.5160024855561414,32.5
-0.005926565198839273,0.0019087239548766129,-0.6290503893336825,0.4608701708667244,0.0796132419716295,0.37910885885550544,-0.001714938366874183,3.3547877644702107,32.75
-0.005526547261631487,0.0024917358858200025,-0.5758078535280986,0.4613996099386848,0.0782014346399945,0.378651008209207,-0.0020695769736757616,3.2069959919587334,33.0
-0.004998908886025666,0.0029951391433955497,-0.5102435247779278,0.4620796813013112,0.07688935859136725,0.3781010120258382,-0.0023655422446011987,3.072507959821515,33.25
-0.004361538989129721,0.003412903492245954,-0.43540928942840695,0.46289589446273216,0.0756948152754284,0.37747011083852233,-0.002599484804727485,2.9533510278868884,33.5
-0.003699075190818246,0.00373650141335162,-0.3585290232529901,0.46376488938315324,0.07467442494431481,0.3768158641954217,-0.0027693616935848195,2.854070602928416,33.75
-0.0030315362755946595,0.00396676002359778,-0.28073340485420406,0.4646866660625746,0.07382818759802649,0.3761382720965363,-0.0028756387284903373,2.7746666849460984,34.0
-0.0023754204486936548,0.004104294724315383,-0.20286888858503938,0.4656612245009961,0.07315610323656342,0.375437334541866,-0.002918667559201997,2.715139273939935,34.25
-0.0017293142250142945,0.004149260404388153,-0.12573178143269725,0.46669093625788477,0.07265426584577955,0.3747117443279995,-0.0028984617757934275,2.6754806863084175,34.5
-0.0010953369431334625,0.004120122407822363,-0.05347393267320433,0.46772190390722407,0.07229855251314772,0.3739974051463917,-0.0028298816703668517,2.6529845795840195,34.75
-0.0005071038324637178,0.004026220836978282,0.0125691782430013,0.46872305364328576,0.0720861449494258,0.3733144081933274,-0.002720496851220909,2.646373645417894,35.0
3.307361111018481e-5,0.0038674755321704,0.07256027791393649,0.46969438546606984,0.07201704315461382,0.37266275346880656,-0.0025702604082485994,2.6556478838100412,35.25
0.0005298067883054425,0.003644061227412527,0.1265018905609674,0.4706338024020463,0.07208985605474409,0.372043909917834,-0.0023794133945461704,2.680782354559583,35.5
0.0009768047651129153,0.0033778958530093772,0.17348142556477697,0.4715081651132918,0.07227240911906976,0.37147784835147923,-0.0021639467100086768,2.717582216788123,35.75
0.0013706234418634777,0.003075391319660163,0.21370739201410016,0.47230891617190407,0.07255581826809211,0.37096954248358044,-0.0019284899671716121,2.764749512109795,36.0
0.0017156701791734563,0.002735606246682589,0.24747952652100125,0.4730355527006507,0.07294143163056713,0.37051950112039533,-0.0016724905902876855,2.822451070447389,36.25
0.002011411733027657,0.0023757549481326114,0.27506173484602225,0.47367371841593864,0.07340059198674366,0.3701346112598696,-0.001407825092088387,2.887069993353473,36.5
0.002259264728881105,0.002003320781758536,0.29678394607251724,0.47421855231349525,0.07392040237396402,0.3698168414969515,-0.0011395888749643687,2.9569830325452786,36.75
0.0024629646229064606,0.0016181403605041028,0.3128794533663757,0.4746700543933204,0.07450086279222819,0.3695661918316412,-0.0008676984937776716,3.0321901880228053,37.0
0.0026231274090116052,0.0012247579956707368,0.3236185751681506,0.4750253192789167,0.07513444989269087,0.3693837237808655,-0.0005952332948491804,3.1117018805108176,37.25
0.002742111892154453,0.0008377965222824066,0.3297529888959603,0.47528465784510376,0.07579264129876989,0.36926605171865895,-0.0003315442677810018,3.1921692279009632,37.5
0.002821176449439189,0.00045727945124071287,0.3312972706294297,0.47544807346054574,0.07647541513182822,0.36921317100002216,-7.665156138247226e-5,3.273589772692849,37.75
0.002860699935594846,8.363897808407253e-5,0.3281841908325105,0.47551433902407875,0.07718249773666067,0.3692258950079417,0.00016909623587775535,3.355904185928612,38.0
0.002864679043998064,-0.0002721178655630957,0.3213451843504238,0.4754933195141061,0.07788894718176158,0.369294908086617,0.0003991703332811916,3.4363744666749114,38.25
0.0028335330976839157,-0.0006070021558887417,0.31095636343180866,0.47538877857656175,0.07858779050028072,0.36941691629563866,0.0006118708290722003,3.5142572160797747,38.5
0.0027658606518822237,-0.0009208563174890605,0.2968444662618315,0.4752007162114456,0.07927902769221812,0.36959191963500654,0.0008071134531834195,3.589552434143202,38.75
0.0026624680412383195,-0.0012104261054535874,0.2789339606870125,0.4749313449810251,0.0799552703331162,0.3698178847394346,0.0009829188937209646,3.6615093007776944,39.0
0.002531063541022227,-0.0014684789026012945,0.25853575198215895,0.47460329192983747,0.08059387204600106,0.37007780754685193,0.0011357507749530302,3.7279328111791545,39.25
0.002368561384885448,-0.0016947355964945301,0.23541586457422836,0.4742168920837545,0.08119458880426975,0.37037144282700535,0.0012654756478151577,3.788799925158701,39.5
0.0021714287907871332,-0.0018889314132827725,0.20921624154797724,0.4737704641333392,0.0817578730085762,0.3706999110065416,0.0013718775173130818,3.8441424653411316,39.75
0.0019456073945211538,-0.002047262580517982,0.1802022879891787,0.4732748853170015,0.0822710780843534,0.3710554118685589,0.0014529856157692242,3.8928582058359504,40.0
0.0017011927073817823,-0.002167527412045997,0.14992253161489355,0.4727584606907409,0.08271901237919602,0.3714186529718419,0.001508628605363431,3.9337128084713266,40.25
0.0014350331674221062,-0.0022495813558646924,0.11819178555521104,0.47222119025455733,0.08310167589310406,0.3717896343163906,0.0015387347145020339,3.9667062732472598,40.5
0.001144516972436671,-0.0022933173309111314,0.08486509322867763,0.47166307400845076,0.08341906862607755,0.37216835590220504,0.0015432506631981521,3.9918386001637507,40.75
0.0008257469000051421,-0.0022937665274833617,0.049129514617014314,0.4710761543774183,0.08366370220823136,0.37255933684888737,0.001518645528917624,4.008253968094221,41.0
0.0005066263847434693,-0.002258400038330069,0.013825106311362578,0.4705080071520666,0.08383016838009855,0.37293259102512316,0.0014716595433221097,4.016278347882646,41.25
0.00019210435461752828,-0.002190235424504295,-0.020267938139274966,0.4699698749259334,0.08392002248569097,0.37328120001022796,0.001404693523288876,4.0162592785234645,41.5
-0.00011816179262097437,-0.0020893192372029024,-0.05308857903492625,0.46946175769901877,0.08393326452500861,0.3736051638042017,0.0013177687720173498,4.008196760016676,41.75
-0.0004238959554884736,-0.0019557285816269865,-0.08453864398029243,0.4689836554713227,0.08386989449805148,0.37390448240704444,0.001210921778720661,3.9920907923622817,42.0
-0.0007242024976658046,-0.0017895706389269503,-0.114483180181018,0.4685355682428452,0.08372991240481957,0.37417915581875616,0.0010842041607608613,3.96794137556028,42.25
-0.0010158611521352556,-0.0015897825654404146,-0.14286099805447972,0.4681172454123839,0.08351042825567168,0.374429178740368,0.0009368938251306316,3.935490420594911,42.5
-0.0012787072829255064,-0.0013662143430271528,-0.16836205608209331,0.4677476518329857,0.08322131784933291,0.3746433459953436,0.0007761531528540366,3.8963512523569332,42.75
-0.0015072712247934383,-0.0011300150532911786,-0.18968425895708796,0.46743934633924106,0.08288103056822058,0.3748148992245538,0.0006097278739103651,3.8526141001286374,43.0
-0.0016996122477454523,-0.0008812771441410183,-0.20668729477418157,0.4671923289311499,0.08248956641233468,0.3749438384279986,0.0004376659894569923,3.8042789639100234,43.25
-0.0018533035605224346,-0.0006194519042199906,-0.21920705412232477,0.4670070433438933,0.08204542690706551,0.3750297950881002,0.00025961375916502133,3.7511896160719007,43.5
-0.0019613680584944504,-0.00034787106064523496,-0.2267277288791556,0.4668895958859589,0.08155236495212999,0.3750691847764319,7.798083387206695e-5,3.693895558806224,43.75
-0.002026414207108418,-8.926041100922738e-5,-0.22958931157662477,0.4668317885805459,0.08105983477338341,0.3750701438066151,-9.268438399470669e-5,3.637694110182656,44.0
-0.002048712767410976,0.00015645082423862422,-0.22786776065114145,0.4668336214276543,0.08056783637082576,0.37503267217864966,-0.000252415267198311,3.5825852702011973,44.25
-0.002028535577114743,0.0003893302729016529,-0.22164078838437895,0.46689509442728405,0.08007636974445707,0.3749567698925357,-0.0004012440843380802,3.5285690388618467,44.5
-0.0019661555451230828,0.0006094425105797191,-0.21098778972046484,0.46701620757943524,0.0795854348942773,0.3748424369482731,-0.000539202013247364,3.475645416164605,44.75
-0.0018601280179161295,0.0008151226836364128,-0.19565854048275222,0.4672018348407424,0.07909679557759507,0.37468664415290953,-0.0006649813414953687,3.4240670266891695,45.0
-0.001727630688762194,0.0009937698398632885,-0.17781181562056236,0.46742392459695076,0.07864737603619053,0.37450993012473066,-0.0007715416554198648,3.3774853820098634,45.25
-0.001573436116172,0.0011441955124576741,-0.15795805676155172,0.46767769621913896,0.07824171181246048,0.3743156792314397,-0.0008582950499327752,3.3363322103763373,45.5
-0.001399634229654112,0.0012665128232240766,-0.13624604570402354,0.46796314970730696,0.07787980290640494,0.37410389147303674,-0.0009253012170552799,3.300607511788591,45.75
-0.0012080741352351598,0.0013608159883329585,-0.11280267896882679,0.46828028506145475,0.07756164931802387,0.37387456684952164,-0.0009726102682505733,3.270311286246624,46.0
-0.000995313521343466,0.0014247378115921673,-0.08747788278766855,0.4686347676900555,0.077289298161107,0.3736242495621635,-0.0009984218014103055,3.245838562016943,46.25
-0.0007769799883924899,0.0014613298574256174,-0.06225544682549611,0.46899846475176665,0.07706764718191005,0.37337182252831536,-0.0010060194689733085,3.227301688267778,46.5
-0.0005650997073473052,0.0014745052592274807,-0.038148258887613196,0.4693548117367221,0.07689609012236041,0.373128004872901,-0.00099870109883015,3.2142862951278244,46.75
-0.00036051315025098507,0.0014642811277442644,-0.01517437182074266,0.4697038086449219,0.07677462698245811,0.3728927965959203,-0.0009764762343166811,3.2067923825970825,47.0
-0.00016376779415294695,0.001430660131773169,0.0066654014917113535,0.470045455476366,0.07670325776220314,0.37266619769737336,-0.0009393466365965261,3.2048199506755517,47.25
2.488293310420886e-5,0.0013736304599003164,0.027387454699125957,0.4703797522310545,0.07668198246159551,0.3724482081772602,-0.0008873062685078592,3.2083689993632327,47.5
0.00020549074396891687,0.001293158993876043,0.04702541935164195,0.47070670540735776,0.07671080983085317,0.37223882475790937,-0.0008203366170891693,3.2174408750299137,47.75
0.00038105129140042493,0.001190559916724461,0.06498694696081841,0.47101942502035676,0.07678801800742083,0.3720426904100336,-0.000739639262885082,3.231921886927048,48.0
0.0005375389037967637,0.0010780220333378478,0.08065350020362727,0.4713005553320288,0.07689777407655113,0.37186972397528234,-0.0006539328198761005,3.249526745617391,48.25
0.0006754421606944283,0.0009555142716555082,0.0940714703993013,0.47155009634237394,0.07704007803824404,0.3717199254536555,-0.0005632009512731434,3.2702554511009416,48.5
0.0007953555804568468,0.0008230021891601179,0.10528993383001461,0.47176804805139205,0.07721492989249958,0.371593294845153,-0.00046742561291450435,3.294108003377701,48.75
0.0008979433515430291,0.0006801220425346546,0.11434471632091414,0.47195429746151213,0.07742301124148056,0.3714899663746013,-0.000366381594617847,3.321161142818966,49.0
0.000982117244603009,0.0005294162793889091,0.12108405729848792,0.4721050104379287,0.07766067992722066,0.3714121291775663,-0.00026189582116693116,3.3509394354251985,49.25
0.0010475090392557118,0.0003812989920323924,0.1257487832573112,0.47221966907410245,0.07790766969419109,0.3713583317802497,-0.00016072724321326837,3.3811040220401267,49.5
0.0010943069030583952,0.00023577315482344388,0.12834107583105814,0.47229827337003344,0.07816398054239186,0.3713285741826514,-6.287763105505828e-5,3.411654902663751,49.75
0.0011227018678996448,9.284200561220438e-5,0.1288614434178288,0.4723408233257217,0.078429612471823,0.3713228563847716,3.165113244492368e-5,3.4425920772960708,50.0
0.001132887794523918,-4.74909469865524e-5,0.1273087028883757,0.4723473189411672,0.07870456548248446,0.3713411783866101,0.00012285705041727157,3.473915545937086,50.25
0.0011231523514296793,-0.00018447316180119494,0.1235517106233468,0.47231536852014,0.0789884742986161,0.37138503951499596,0.00021014662008414509,3.5055243901005335,50.5
0.0010988130257538198,-0.0003105478604549586,0.11835781638219034,0.47225554772311923,0.07926215454449376,0.3714459275119726,0.0002891232441274427,3.535433031042563,50.75
0.0010602765844003326,-0.000425002367018177,0.11178839850385414,0.4721693394453303,0.07952364403423032,0.3715227146790383,0.00035939859812709335,3.5634481480605396,51.0
0.0010070985850670344,-0.0005278033652880813,0.1038033920816912,0.47205674368677314,0.0797729427678258,0.37161540101619317,0.00042095559085290196,3.589569741154463,51.25
0.0009388608381282748,-0.0006189201937113996,0.0943648295922288,0.4719177604474478,0.08001005074528021,0.37172398652343713,0.00047377856484363823,3.6137978103243342,51.5
0.0008532528672350881,-0.0006974121523878815,0.08317314133983844,0.4717484208529944,0.08023467040962885,0.3718510148472959,0.0005170856925457365,3.636039605561276,51.75
0.0007590740638537818,-0.0007610057536073037,0.0712440491830324,0.47156530995580853,0.08043549872885733,0.3719849596944417,0.000550135185073887,3.655331320530221,52.0
0.0006598741429756916,-0.0008097167292897348,0.05904698382458129,0.4713762265963708,0.08060949661023807,0.37212056373067115,0.0005732846955569873,3.6714648876901275,52.25
0.00055514642360599,-0.0008435228462684678,0.04655391236546835,0.47118117077468114,0.08075666405377108,0.3722578269559843,0.0005865228707609554,3.684440307040996,52.5
0.0004444730497753513,-0.0008624075620319444,0.033743234491868446,0.47098014249073966,0.08087700105945636,0.37239674937038114,0.0005898412435379544,3.694257578582827,52.75
0.00032752453945011917,-0.0008663600530011174,0.0205998217761052,0.4707731417445463,0.08097050762729391,0.3725373309738617,0.0005832342321548875,3.7009167023156198,53.0
0.000203225719981881,-0.0008540571208025469,0.006990406957397166,0.47055840026844026,0.08103519914890045,0.372680566289886,0.0005657663528010753,3.7041736066269615,53.25
7.734237825651746e-5,-0.0008250005797072295,-0.006661247917354451,0.47034368842745583,0.08106641828344666,0.3728212432842452,0.0005374357541526459,3.7037000921946817,53.5
-4.1258778076036506e-5,-0.0007867238077944767,-0.019320448131909362,0.47014472171877686,0.08107289943081873,0.3729499628940418,0.0005038059060423691,3.700733106601972,53.75
-0.0001525460585787286,-0.0007392352904867852,-0.030974225782541165,0.46996150014240334,0.08105464259101666,0.3730667251192759,0.00046488100045793956,3.6952726498488335,54.0
-0.0002564245790819264,-0.0006825460221623475,-0.04160674583602164,0.46979402369833534,0.08101164776404046,0.3731715299599474,0.0004206665283547281,3.6873187219352648,54.25
-0.00035273617308212435,-0.0006166694875119616,-0.051199325910165516,0.46964229238657274,0.08094391494989012,0.37326437741605634,0.00037116927789697385,3.676871322861267,54.5
-0.0004412592454977049,-0.0005416216407776557,-0.05973045902178731,0.46950630620711564,0.08085144414856564,0.37334526748760266,0.0003163973329827832,3.6639304526268393,54.75
-0.0005217085685782497,-0.0004574208828793322,-0.06717583930071225,0.46938606515996395,0.08073423536006702,0.37341420017458643,0.00025636007205065425,3.6484961112319816,55.0
-0.0005919363735374938,-0.00036460237035752796,-0.07339866452278221,0.46928356869591803,0.0805923161891782,0.37346986937734716,0.00019149663144270995,3.6306273101695288,55.25
-0.000648226556857534,-0.00027092086666292634,-0.07805440015244747,0.4692041204606408,0.08043902606172093,0.3735098552935677,0.00012707473629403054,3.6119052147684085,55.5
-0.0006903965017503455,-0.0001774896830539878,-0.0811158665542866,0.46914800519441946,0.08027652746836078,0.37353414190595796,6.382789954124946e-5,3.592570032741515,55.75
-0.0007183028201369068,-8.431073051371266e-5,-0.08257843060573,0.46911522289725394,0.08010482040909774,0.3735427292145179,1.7572979754479356e-6,3.572621764088849,56.0
-0.0007305971071253636,9.418318336680553e-6,-0.08230832414415934,0.4691077615726499,0.07992145125584685,0.37353417496202845,-5.957498532381533e-5,3.5518244311080824,56.25
-0.0007276625088368793,9.998425013834147e-5,-0.08042998400942203,0.4691241637783223,0.07973440442071318,0.3735100001583341,-0.00011781577113332414,3.5310511960195434,56.5
-0.0007140926201558151,0.000182523095417296,-0.07748058858819551,0.4691567190208943,0.07955667930567253,0.3734760596927735,-0.00017012548615169543,3.511611546695675,56.75
-0.0006901050772009643,0.0002570511154542897,-0.07347993556899768,0.469205427300366,0.07938827591072493,0.3734323535653467,-0.00021651243756670713,3.4935054831364774,57.0
-0.0006559049119165272,0.0003235831514860725,-0.06844651673878799,0.46927028861673736,0.07922919423587037,0.3733788817760537,-0.0002569842395606578,3.4767330053419503,57.25
-0.0006116844675287947,0.0003821326425325622,-0.062397527100368055,0.4693513029700084,0.07907943428110882,0.37331564432489456,-0.0002915478150162798,3.4612941133120936,57.5
-0.0005576233190478508,0.0004327116415312193,-0.05534887358699203,0.4694484703601791,0.07893899604644032,0.37324264121186923,-0.00032020939703794604,3.447188807046907,57.75
-0.000492178244835384,0.0004746154113172453,-0.04715909734606294,0.4695644383081828,0.07880817306434416,0.37315819759849256,-0.0003423935321199001,3.4345039291246846,58.0
-0.0004210198520291919,0.000506587885447992,-0.038536377611861905,0.46968910769178784,0.07869353517708254,0.37306936188324835,-0.00035773379554689816,3.423807852200362,58.25
-0.0003490819303372805,0.0005291836462949229,-0.029999932943557184,0.46981453722672245,0.07859728227146631,0.37298142201307666,-0.0003669410006568105,3.4152004755882657,58.5
-0.0002765517708712695,0.0005424095174365873,-0.021558254589519876,0.46994072691298655,0.07851941434749549,0.37289437798797753,-0.0003700187758862439,3.4086817992883964,58.75
-0.00020357649509550324,0.0005462700461915451,-0.013217126894869757,0.47006767675058014,0.07845993140517005,0.37280822980795086,-0.00036696956026521094,3.4042518233007533,59.0
-0.00013026294844958874,0.0005407675076422661,-0.004979635071471478,0.4701953867395033,0.07841883344449001,0.37272297747299676,-0.0003577946029296522,3.401910547625337,59.25
-5.667762313998903e-5,0.0005259019055417202,0.00315382974368994,0.4703238568797559,0.07839612046545537,0.3726386209831151,-0.0003424939624757928,3.401657972262147,59.5
1.8277851391412803e-5,0.0004993499252065083,0.011184997523201456,0.47045399653742875,0.07839587434792934,0.37255492365589993,-0.00031952170353903575,3.403991497581737,59.75
8.890322259214045e-5,0.0004664411543128383,0.018559843238688867,0.4705759345579822,0.07841151364607976,0.37247777963044904,-0.00029278678101419403,3.407986049250614,60.0
0.00015295058435477182,0.0004301457604491167,0.025133844524233062,0.4706864150737946,0.07843856110275688,0.372408929738382,-0.00026436356339233635,3.413062974086681,60.25
0.00021046608853592108,0.00039046031557227537,0.030912472577421912,0.4707854380848659,0.07847701671796066,0.3723483739796989,-0.00023425027783998548,3.419222272089938,60.5
0.0002615087163255758,0.00034738101399098276,0.03590150248654078,0.47087300359119616,0.07852688049169113,0.37229611235439963,-0.00020244495348741703,3.426463943260385,60.75
0.0003061502539748462,0.0003009036703403613,0.04010701654965221,0.47094911159278535,0.07858815242394827,0.37225214486248426,-0.00016894542138405633,3.434787987598022,61.0
0.0003444752633653958,0.00025102371754462394,0.04353540762868224,0.4710137620896335,0.07866083251473212,0.3722164715039528,-0.0001337493145057711,3.444194405102849,61.25
0.0003765810474432585,0.00019773620476747425,0.04619338253720251,0.47106695508174057,0.07874492076404263,0.37218909227880526,-9.685406781412276e-5,3.454683195774866,61.5
0.000402320083272234,0.0001406603748768491,0.04805252581917996,0.47110821217354315,0.07884135734537977,0.37217038456179014,-5.8033512847333046e-5,3.466352085544927,61.75
0.0004205204706281829,8.2647076906181e-5,0.04903914307017132,0.47113561980591473,0.07894527726844691,0.37216116988238046,-1.9218298594594896e-5,3.478613153259142,62.0
0.0004316416236556653,2.731249363022853e-5,0.04927411590570996,0.47115030014176273,0.07904906264032723,0.3721601313540685,1.729306548503562e-5,3.4906229602346497,62.25
0.00043566789918647597,-2.5340332582463737e-5,0.04875430640099587,0.4711522531810871,0.07915271346102071,0.37216726897685437,5.14990180933636e-5,3.5023815064714494,62.5
0.00043258374717752845,-7.530844184185786e-5,0.04747647876774641,0.4711414789238878,0.07925622973052736,0.37218258275073796,8.3398044104524e-5,3.5138887919695416,62.75
0.0004223737103571934,-0.00012258895774534123,0.04543729863995427,0.47111797737016486,0.0793596114488472,0.37220607267571926,0.00011298867470908164,3.5251448167289263,63.0
0.0004033561900871896,-0.00016704959809817413,0.042439680647804234,0.47107875316120007,0.07946381530564746,0.3722397483450627,0.00014005208359740146,3.5362043622390043,63.25
0.00037843923527347556,-0.00020663343124215083,0.03885431134978523,0.4710293014396319,0.07956252861727357,0.37227956939066587,0.00016349858121725985,3.546453711892361,63.5
0.0003507349101086188,-0.00024073155639866076,0.03505961424774906,0.4709754647231777,0.07965218250326703,0.37232148391536724,0.00018319390386725698,3.555594261629595,63.75
0.0003201481891831337,-0.00026933884026635047,0.031049289174283956,0.47091724301183757,0.07973277696362785,0.3723654919191668,0.00019913541097851123,3.563626011450705,64.0
0.00028659467336683564,-0.00029245088405741373,0.026817852912351725,0.4708546363056115,0.07980431199835601,0.3724115934020644,0.00021132084063333473,3.5705489613556916,64.25
0.00025000055835855406,-0.00031006402685402473,0.022360642317452495,0.47078764460449934,0.07986678760745154,0.37245978836406024,0.0002197483097242242,3.5763631113445546,64.5
0.00021030260718701843,-0.00032217534834536043,0.017673817043143636,0.4707162679085013,0.07992020379091441,0.3725100768051542,0.00022441631406376616,3.5810684614172943,64.75
0.00016744812664704067,-0.0003287826709448931,0.012754361870456865,0.4706405062176172,0.07996456054874464,0.37256245872534627,0.00022532372844513704,3.58466501157391,65.0
0.00012139494765855963,-0.00032988456128716856,0.007600088642036873,0.47056035953184716,0.07999985788094223,0.3726169341246365,0.0002224698066539757,3.5871527618144023,65.25
7.144145528470425e-5,-0.0003214616765105788,0.0021154958200106933,0.47047429666083385,0.08001858395542606,0.37267395018170235,0.00021317335037504548,3.587675698287835,65.5
2.4534375169971145e-5,-0.00031012760835580355,-0.002975067906482831,0.4703941051360457,0.08002912143765152,0.3727265620125877,0.00020224534609648154,3.5873832964183023,65.75
-1.9197545031546248e-5,-0.00029607000440740397,-0.007656129120610977,0.47032001493984604,0.08003175157616411,0.3727746424549761,0.00018981768648156094,3.5863109331371996,66.0
-5.975071369951346e-5,-0.00027928981039240103,-0.0119261010949967,0.4702520260722348,0.08002647437096387,0.37281819150886764,0.0001758908458832642,3.5844586084445273,66.25
-9.711517859445351e-5,-0.00025978819811801196,-0.015783158663669195,0.4701901385332121,0.08001328982205076,0.37285720917426224,0.00016046541697405797,3.5818263223402855,66.5
-0.00013127462390283284,-0.00023756656485290212,-0.019225238984691195,0.4701343523227779,0.0799921979294248,0.37289169545115997,0.00014354211068678957,3.578414074824474,66.75
-0.00016220636545544176,-0.00021262653266513817,-0.0222500423703913,0.4700846674409321,0.07996319869308599,0.3729216503395607,0.00012512175616830046,3.5742218658970932,67.0
-0.00018988134411634938,-0.00018496994771682526,-0.024855033185310127,0.4700410838876748,0.07992629211303433,0.3729470738394646,0.00010520530074505097,3.5692496955581428,67.25
-0.00021426411734110085,-0.00015459887951547666,-0.02703744081175863,0.470003601663006,0.07988147818926981,0.37296796595087156,8.379380990163748e-5,3.5634975638076227,67.5
-0.0002353128489001599,-0.00012151562012194597,-0.02879426068344637,0.4699722207669256,0.07982875692179243,0.3729843266737816,6.088846727111269e-5,3.556965470645533,67.75
-0.00025270230044593944,-8.549650902171801e-5,-0.03009493089003623,0.4699473539739453,0.07976749268530198,0.3729958379260121,3.636281842504113e-5,3.549591178335953,68.0
-0.00026504437506258416,-4.896793265384003e-5,-0.030836871425921952,0.4699308915360232,0.0797017060568496,0.3730015765106499,1.1878670025271265e-5,3.5418650092021218,68.25
-0.0002725940388820791,-1.4173267102284004e-5,-0.031064961819197823,0.4699223840501227,0.07963609115873083,0.37300219672879675,-1.1128525286056845e-5,3.5343023933831943,68.5
-0.0002753577679315833,1.8888745703236898e-5,-0.030780523435268048,0.469921831516244,0.07957064799094563,0.3729976985804528,-3.265939865153278e-5,3.5269033308791697,68.75
-0.00027334200314821366,5.021932139497379e-5,-0.02998491050467189,0.46992923393438696,0.07950537655349402,0.3729880820656179,-5.271456108559697e-5,3.519667821690049,69.0
-0.0002665531502712426,7.981963343169085e-5,-0.02867950995754409,0.46994459130455163,0.07944027684637599,0.3729733471842921,-7.12946035114903e-5,3.5125958658158316,69.25
-0.0002536886079663736,0.00010754393457563377,-0.026725682429995512,0.4699701086563744,0.07937472580444668,0.3729520274747651,-8.820754373804057e-5,3.5056586766801328,69.5
-0.00023561847633846167,0.00013212052204277652,-0.024252403961189994,0.47000407531797994,0.07931194285663598,0.37292547223389816,-0.0001027023752269568,3.499189953157652,69.75
-0.0002163231082041306,0.000153291322049897,-0.02170230550468011,0.47003971371897846,0.07925524691904928,0.37289829747776587,-0.00011490971388959659,3.4934379313676245,70.0
-0.0001958419071208528,0.00017105832856020506,-0.019077846608897886,0.47007702385936984,0.0792046379916866,0.3728705032063683,-0.00012483059627924065,3.4884026113100517,70.25
-0.0001742097343979121,0.00018542324322392417,-0.016381146108681577,0.47011600573915413,0.07916011607454793,0.3728420894197053,-0.00013246590883129322,3.4840839929849325,70.5
-0.00015145690057516425,0.00019638747616462782,-0.013613982921579115,0.47015665935833134,0.07912168116763325,0.37281305611777693,-0.0001378163878902952,3.480482076392268,70.75
-0.00012760915801091066,0.00020395214661706948,-0.01077779673370527,0.47019898471690147,0.0790893332709426,0.37278340330058324,-0.00014088261972712568,3.4775968615320574,71.0
-0.00010268769458293692,0.00020811808341648572,-0.007873688575083637,0.47024298181486446,0.07906307238447595,0.3727531309681242,-0.00014166504054581586,3.4754283484043005,71.25
-7.670912850560319e-5,0.00020888582533902175,-0.004902421284291858,0.47028865065222036,0.0790428985082333,0.37272223912039976,-0.00014016393648032255,3.473976537008998,71.5
-4.9685504262986235e-5,0.00020625562129398048,-0.0018644198622967956,0.4703359912289692,0.07902881164221466,0.37269072775740997,-0.00013637944358134424,3.47324142734615,71.75
-2.1624289661126284e-5,0.0002002274303672981,0.001240228284684175,0.4703850035451109,0.07902081178642004,0.3726585968791548,-0.00013031154779256232,3.4732230194157556,72.0
7.659989029573655e-6,0.00018737402714677845,0.0043073776365099015,0.4704350273427674,0.07902586077683976,0.37262684786371497,-0.00011976868896987347,3.4747097295785347,72.25
3.459857327126059e-5,0.00017370791924967502,0.007092712090302822,0.4704808762245436,0.07903422900588486,0.37259804818776676,-0.00010888305414653854,3.4764957462339496,72.5
5.9094107401957974e-5,0.0001594914340193286,0.009593321387860954,0.4705224310593978,0.07904544950917604,0.3725722367990382,-9.783011213254644e-5,3.4785254058210135,72.75
8.115105871503436e-5,0.00014472430005256845,0.011809737596593983,0.47055969184733,0.07905952228671326,0.37254941369752936,-8.660972286869684e-5,3.4807987083397265,73.0
0.00010077461038632274,0.00012940623497099263,0.013742485952111139,0.4705926585883402,0.07907644733849654,0.3725295788832401,-7.522174028976036e-5,3.4833156537900885,73.25
0.00011797066097052333,0.00011353694540205267,0.015392084931800998,0.47062133128242833,0.07909622466452589,0.3725127323561706,-6.366601232694197e-5,3.4860762421720994,73.5
0.00013274582382988287,9.711612696311836e-5,0.016759046322036397,0.47064570992959454,0.07911885426480128,0.37249887411632077,-5.194238091139891e-5,3.489080473485759,73.75
0.0001451074264952612,8.014346424874835e-5,0.017843875278770405,0.47066579452983864,0.07914433613932274,0.3724880041636906,-4.005068197890371e-5,3.492328347731068,74.0
0.00015506350996141727,6.261863082070163e-5,0.01864707038170188,0.47068158508316077,0.07917267028809026,0.37248012249828005,-2.7990745475763024e-5,3.495819864908026,74.25
0.0001626228279141273,4.4541289201099205e-5,0.01916912368186896,0.4706930815895609,0.07920385671110385,0.37247522912008924,-1.576239536570101e-5,3.4995550250166327,74.5
0.00016779484589041216,2.5911090868691034e-5,0.019410520742750847,0.47070028404903896,0.07923789540836348,0.3724733240291181,-3.365449637943163e-6,3.503533828056889,74.75
0.00017058974037315044,6.727676257894943e-6,0.019371740674749116,0.4707031924615951,0.07927478637986918,0.37247440722536657,9.200279683492518e-6,3.5077562740287935,75.0
0.00017101839781680228,-1.3009325238771269e-5,0.019053256163059196,0.4707018068272291,0.07931452962562094,0.37247847870883477,2.1934986529553724e-5,3.5122223629323472,75.25
0.0001682175998363733,-3.327087400329873e-5,0.018366151589275237,0.4706946933489679,0.07935766942667204,0.3724864936691731,3.475819139543701e-5,3.516965626471227,75.5
0.00016299171764971865,-5.200631610927445e-5,0.01743673253596567,0.4706834696902094,0.07939947064899083,0.37249704146481066,4.6410379716463335e-5,3.5214809124999635,75.75
0.0001560509807320698,-6.87135473723538e-5,0.016349131293044383,0.4706693990672461,0.0794384112687235,0.37250919631769,5.662053664652611e-5,3.525620461355558,76.0
0.00014738152625315415,-8.339169111881706e-5,0.015102277801818165,0.47065248148007804,0.07947449128587003,0.37252295822781095,6.538821136071321e-5,3.52938427303801,76.25
0.00013697063115103436,-9.603996466448286e-5,0.013695199760443977,0.4706327169287053,0.07950771070043042,0.37253832719517366,7.271300137620673e-5,3.532772347547319,76.5
0.0001248067105776296,-0.00010665767954941632,0.012127022790732411,0.4706101054131277,0.07953806951240468,0.372555303219778,7.85945525701992e-5,3.5357846848834855,76.75
0.0001108793164838473,-0.00011524424174284148,0.01039697059156941,0.4705846469333454,0.07956556772179281,0.37257388630162397,8.303255919490937e-5,3.538421285046509,77.0
9.517913634066177e-5,-0.00012179915181778633,0.0085043650790535,0.4705563414893584,0.07959020532859479,0.3725940764407117,8.602676388968361e-5,3.5406821480363897,77.25
7.643598885881397e-5,-0.0001244472807918895,0.0063384152850085584,0.47052321289692184,0.07960906946908572,0.37261692108126276,8.627271699902794e-5,3.5422025221111495,77.5
5.7027027643041794e-5,-0.00012428602693264831,0.004146880766313199,0.47048928399892936,0.07962268568455605,0.37263987438781715,8.465976299001227e-5,3.543115813962573,77.75
3.8673528988175665e-5,-0.00012314946638577323,0.0020922949708142013,0.4704573421073667,0.07963355215389206,0.3726613357508429,8.25013671734362e-5,3.54375499053087,78.0
2.1373074614861043e-5,-0.00012103760511128492,0.00017472763736980923,0.47042738722223393,0.07964166887709374,0.37268130517034004,7.979753060328304e-5,3.5441200518160403,78.25
5.124026483449562e-6,-0.00011795047787787477,-0.001605720724488613,0.47039941934353097,0.0796470358541611,0.37269978264630854,7.65482693834349e-5,3.5442109978180842,78.5
-1.0074473365984105e-5,-0.00011388814824493318,-0.0032489188528486146,0.47037343847125784,0.07964965308509411,0.3727167681787483,7.275361466353714e-5,3.544027828537002,78.75
-2.4222502896631415e-5,-0.00010885070854227408,-0.004754704755054462,0.47034944460541456,0.0796495205698928,0.37273226176765945,6.841361263511259e-5,3.5435705439727925,79.0
-3.731936007822512e-5,-0.00010283827984758354,-0.006122885732736449,0.4703274377460011,0.07964663830855716,0.3727462634130419,6.35283245283072e-5,3.542839144125457,79.25
-4.936356281337595e-5,-9.585101196156465e-5,-0.0073532384101464565,0.4703074178930175,0.07964100630108718,0.37275877311489575,5.809782660907287e-5,3.5418336289949948,79.5
-6.035284878386227e-5,-8.788908338098339e-5,-0.008445508765853926,0.4702893850464637,0.07963262454748286,0.3727697908732209,5.2122210176842876e-5,3.540553998581406,79.75
-7.028417522081387e-5,-7.895270126924425e-5,-0.00939941216783291,0.4702733392063398,0.07962149304774423,0.3727793166880174,4.560158156255434e-5,3.539000252884691,80.0
-7.915371859368303e-5,-6.904210142489806e-5,-0.010214633411825158,0.4702592803726457,0.07960761180187126,0.37278735055928525,3.853606212742694e-5,3.5371723919048494,80.25
-8.695687422383136e-5,-5.8157548247745466e-5,-0.010890826763083616,0.47024720854538143,0.07959098080986396,0.37279389248702444,3.092578826183884e-5,3.535070415641881,80.5
-9.368825581718143e-5,-4.629933470276862e-5,-0.011427616001476348,0.47023712372454707,0.07957160007172233,0.3727989424712349,2.2770911385146253e-5,3.532694324095786,80.75
-9.934169491909728e-5,-3.3467782281818015e-5,-0.011824594469950878,0.4702290259101425,0.07954946958744637,0.37280250051191677,1.4071597945364278e-5,3.530044117266565,81.0
-0.00010376378725429625,-1.956944776431921e-5,-0.012065604968696686,0.470223151501337,0.0795243010508283,0.37280439200299414,4.7776579345168435e-6,3.527092144888855,81.25
-0.00010593736573466517,-5.234174732814817e-6,-0.012060157020640894,0.47022103178571584,0.07949669104549469,0.37280367448668017,-4.633551462893126e-6,3.523936700034444,81.5
-0.00010665893514910652,8.052789468592642e-6,-0.011907836005251138,0.47022130711940946,0.07947018203166406,0.37280149639686067,-1.3258001928091734e-5,3.520948936845667,81.75
-0.00010593255929380874,2.0291776428701253e-5,-0.011609025471181589,0.47022397750241784,0.0794447740093364,0.37279785773353563,-2.1095862966745427e-5,3.518128855322524,82.0
-0.00010376210703733069,3.1483094969968206e-5,-0.011164090193454435,0.47022904293474094,0.07942046697851171,0.372792758496705,-2.8147292608644847e-5,3.5154764554650137,82.25
-0.00010015125212403664,4.162703119723818e-5,-0.010573376192684947,0.4702365034163788,0.07939726093919001,0.37278619868636886,-3.441243741284655e-5,3.512991737273137,82.5
-9.51034729889666e-5,5.0723848542974515e-5,-0.009837210753759873,0.47024635894733136,0.07937515589137129,0.37277817830252713,-3.989143247222493e-5,3.510674700746894,82.75
-8.862205258147737e-5,5.8773787808781564e-5,-0.00895590244400557,0.4702586095275987,0.07935415183505554,0.37276869734517987,-4.45844014177188e-5,3.508525345886284,83.0
-8.071007819865361e-5,6.577706720320431e-5,-0.007929741130837886,0.47027325515718077,0.07933424877024277,0.3727577558143271,-4.849145642212699e-5,3.506543672691308,83.25
-7.062131110446845e-5,7.097628873972e-5,-0.0066900533128060324,0.4702915003015309,0.07931645357211871,0.37274465508158455,-5.106731856124175e-5,3.504865979649578,83.5
-5.8681240777791466e-5,7.363988985640071e-5,-0.005291285060835094,0.4703126568725513,0.07930249348578766,0.37272997278790965,-5.1867300271207784e-5,3.503675782515358,83.75
-4.724931133398558e-5,7.559092894528913e-5,-0.003963431469247158,0.47033284566442957,0.07929034558106819,0.37271605358510485,-5.224721492522871e-5,3.502672592681495,84.0
-3.6327635699329175e-5,7.68294578931579e-5,-0.002706536409680549,0.47035206667716584,0.07928000985796031,0.3727028974731702,-5.220709038922938e-5,3.5018564101479885,84.25
-2.5917974754041673e-5,7.735551385873451e-5,-0.0015206270369714225,0.47037031991076006,0.07927148631646402,0.3726905044521057,-5.174694683370701e-5,3.501227234914839,84.5
-1.6021737215154985e-5,7.716911927234393e-5,-0.00040571379124187956,0.4703876053652122,0.07926477495657933,0.37267887452191134,-5.086679673260708e-5,3.5007850669820457,84.75
-6.639979541867014e-6,7.627028183431611e-5,0.0006382096013899385,0.47040392304052225,0.0792598757783062,0.3726680076825872,-4.9566644861977205e-5,3.5005299063496094,85.0
2.2265941352905827e-6,7.465899451229024e-5,0.0016111661296851487,0.4704192729366903,0.07925678878164469,0.3726579039341331,-4.7846488298974865e-5,3.5004617530175297,85.25
1.0577632061026243e-5,7.233523553746776e-5,0.002513195499458387,0.47043365505371626,0.07925551396659475,0.3726485632765492,-4.570631642081269e-5,3.5005806069858068,85.5
1.8413134878436654e-5,6.929896839956776e-5,0.0033443541373334718,0.4704470693916002,0.07925605133315641,0.3726399857098354,-4.314611090374537e-5,3.5008864682544405,85.75
2.5733455628340618e-5,6.555014184083524e-5,0.004104715195894393,0.470459515950342,0.07925840088132965,0.37263217123399184,-4.016584572232029e-5,3.501379336823431,86.0
3.253929972379943e-5,6.108868984874491e-5,0.004794368560315565,0.47047099472994186,0.07926256261111447,0.37262511984901836,-3.676548714847544e-5,3.502059212692778,86.25
3.8831724902876896e-5,5.5914531647691806e-5,0.005413420856440698,0.4704815057303996,0.0792685365225109,0.37261883155491504,-3.2944993750887164e-5,3.502926095862482,86.5
4.461214115514256e-5,5.002757168946423e-5,0.0059619954603244985,0.4704910489517153,0.07927632261551891,0.3726133063516819,-2.870431639431098e-5,3.503979986332543,86.75
4.988231062635906e-5,4.3427699642627215e-5,0.006440232509233645,0.4704996243938889,0.0792859208901385,0.3726085442393189,-2.4043398239061153e-5,3.50522088410296,87.0
5.464434749874458e-5,3.6114790380768064e-5,0.006848288914120371,0.47050723205692047,0.07929733134636968,0.372604545217826,-1.8962174740462523e-5,3.506648789173734,87.25
5.8900717845977724e-5,2.8088703969534473e-5,0.007186338373523338,0.47051387194081,0.07931055398421247,0.37260130928720325,-1.3460573648572949e-5,3.5082637015448648,87.5
6.241048109312253e-5,1.918509796216064e-5,0.007420025763830829,0.4705190525838603,0.07932610864025391,0.372599194189776,-7.453685092514983e-6,3.510116213900523,87.75
6.456176144881143e-5,9.983282656784997e-6,0.007484906483939735,0.4705216947172281,0.07934327663431895,0.3725988407511093,-1.3654657171208173e-6,3.5121065365186936,88.0
6.588652210537393e-5,1.4102009718020003e-6,0.007469244694445987,0.47052296368778906,0.07935976154469228,0.3725993178992163,4.253886664910833e-6,3.5139941052221437,88.25
6.6383190269248e-5,-6.53401945640425e-6,0.007372896455621891,0.47052285949554334,0.0793755633713739,0.37260062563409707,9.404306658092332e-6,3.5157789200108738,88.5
6.605026824685334e-5,-1.384925918348004e-5,0.007195724791152269,0.4705213821404908,0.0793906821143638,0.37260276395575154,1.4085733065834216e-5,3.5174609808848833,88.75
6.488633339757355e-5,-2.0535406968755915e-5,0.006937599692631746,0.47051853162263146,0.079405117773662,0.3726057328641798,1.829810889156236e-5,3.519040287844173,89.0
6.289003808984672e-5,-2.6592359785693187e-5,0.006598398123998983,0.47051430794196536,0.07941887034926849,0.37260953235938177,2.204138133983513e-5,3.520516840888742,89.25
6.0060109658588434e-5,-3.202002283174757e-5,0.00617800402577906,0.4705087110984925,0.07943193984118327,0.3726141624413575,2.531550181728709e-5,3.5218906400185905,89.5
5.639535036583432e-5,-3.681830953736545e-5,0.00567630831920285,0.4705017410922129,0.07944432624940634,0.372619623110107,2.8120425933510218e-5,3.523161685233719,89.75
5.189463736243738e-5,-4.098714157408853e-5,0.005093208910224689,0.47049339792312644,0.0794560295739377,0.37262591436563014,3.045611350190741e-5,3.524329976534127,90.0
4.655692265431721e-5,-4.4526448862065166e-5,0.0044286106933073555,0.47048368159123327,0.07946704981477735,0.3726330362079271,3.232252854035861e-5,3.525395513919815,90.25
4.0381233067932065e-5,-4.743616957655211e-5,0.0036824255551777263,0.4704725920965333,0.0794773869719253,0.3726409886369978,3.3719639271817536e-5,3.5263582973907828,90.5
3.2537135471910617e-5,-4.775732969107202e-5,0.002792190840738229,0.47045886921663627,0.07948366122151163,0.3726503232281236,3.3319776760493136e-5,3.5268143997657297,90.75
2.4919857868843653e-5,-4.754658027691233e-5,0.0019366308965822476,0.4704456016672534,0.07948869181976555,0.3726592684833971,3.259467592463955e-5,3.5271385013692154,91.0
1.7708684574069267e-5,-4.7080284053584165e-5,0.0011314722038799907,0.4704330750681086,0.07949291105603769,0.37266767376536974,3.173639375679549e-5,3.527384570949764,91.25
1.0903345448121105e-5,-4.6358442255204496e-5,0.0003767258478282187,0.4704212894192019,0.07949631893032806,0.3726755390740414,3.0744930657140845e-5,3.5275526085073765,91.5
4.5036358361505435e-6,-4.538105817930918e-5,-0.0003275951537924371,0.4704102447205333,0.07949891544263668,0.3726828644094121,2.962028811363815e-5,3.527642614042052,91.75
-1.4905834387346495e-6,-4.4148137186224984e-5,-0.00098147585140973,0.47039994097210275,0.07950070059296353,0.37268964977148195,2.8362468701845223e-5,3.527654587553791,92.0
-7.079386079245076e-6,-4.265968669841039e-5,-0.0015848993645173337,0.4703903781739103,0.0795016743813086,0.37269589516025076,2.6971476085012325e-5,3.527588529042593,92.25
-1.2262780315408506e-5,-4.091571619989007e-5,-0.002137846882610983,0.47038155632595585,0.07950183680767192,0.3727016005757187,2.544731501363806e-5,3.527444438508459,92.5
-1.7040708905402546e-5,-3.891623723554019e-5,-0.0026402976660686583,0.47037347542823954,0.07950118787205347,0.3727067660178857,2.3789991325663673e-5,3.527222315951388,92.75
-2.141304913266806e-5,-3.666126341052289e-5,-0.003092229047164885,0.4703661354807613,0.07949972757445325,0.37271139148675175,2.1999511946237116e-5,3.52692216137138,93.0
-2.53796128035777e-5,-3.4150810389429326e-5,-0.0034936164310539475,0.47035953648352113,0.07949745591487127,0.37271547698231683,2.0075884887685302e-5,3.526543974768436,93.25
-2.894014624099661e-5,-3.1384895895728016e-5,-0.0038444332968339268,0.47035367843651904,0.07949437289330752,0.372719022504581,1.8019119249500226e-5,3.5260877561425548,93.5
-3.209433027645536e-5,-2.836353971097036e-5,-0.0041446511986023005,0.470348561339755,0.079490478509762,0.37272202805354426,1.5829225218241816e-5,3.525553505493737,93.75
-3.4841780241934295e-5,-2.508676367400653e-5,-0.004394239766592367,0.47034418519322907,0.07948577276423473,0.37272449362920657,1.3506214067614264e-5,3.5249412228219827,94.0
-3.718204595726249e-5,-2.1554591680291585e-5,-0.004593166708315444,0.47034054999694125,0.07948025565672567,0.3727264192315679,1.1050098158410515e-5,3.524250908127292,94.25
-3.911461171812736e-5,-1.7767049681004232e-5,-0.004741397809762571,0.4703376557508914,0.07947392718723485,0.37272780486062834,8.460890938526144e-6,3.5234825614096645,94.5
-4.063889627997641e-5,-1.372416568237722e-5,-0.004838896936613768,0.4703355024550797,0.07946678735576228,0.3727286505163878,5.738606943028746e-6,3.5226361826691,94.75
-4.175425284169698e-5,-9.425969744743246e-6,-0.004885626035530333,0.4703340901095061,0.07945883616230794,0.3727289561988464,2.8832617942550764e-6,3.5217117719055993,95.0
-4.245996902652038e-5,-4.872493981691872e-6,-0.004881545135417387,0.47033341871417056,0.07945007360687181,0.372728721908004,-1.0512779827220875e-7,3.520709329119162,95.25
-4.275526686109421e-5,-6.377255933748271e-8,-0.0048266123487885615,0.47033348826907306,0.07944049968945394,0.37272794764386064,-3.226544037573942e-6,3.519628854309788,95.5
-4.249012795981555e-5,4.999544998083444e-6,-0.004704274697493904,0.4703345550152609,0.07943000979451012,0.37272646011753285,-6.469210188334018e-6,3.518463311549113,95.75
-4.091218324553392e-5,9.902940154793427e-6,-0.004438810463231135,0.47033786196185423,0.07941891344906918,0.37272348140206185,-9.50877138013867e-6,3.5172708742759924,96.0
-3.91166592159653e-5,1.4333352434326568e-5,-0.004157194755985305,0.47034149172410467,0.07940862419359428,0.3727203565666146,-1.2226870999089423e-5,3.5161754491441335,96.25
-3.7104537992938e-5,1.8290837405943866e-5,-0.00385949463387103,0.47034544430201214,0.07939914202808543,0.3727170856111911,-1.4623537740690584e-5,3.5151770361535357,96.5
-3.487671979734985e-5,2.1775445100399166e-5,-0.003545770826519856,0.4703497196955767,0.07939046695254261,0.3727136685357914,-1.6698797458664094e-5,3.514275635304199,96.75
-3.2434022921246086e-5,2.478722001338432e-5,-0.0032160777379139915,0.4703543179047983,0.07938259896696584,0.37271010534041543,-1.845267316500504e-5,3.513471246596124,97.0
-2.9777183699786214e-5,2.7326201108443526e-5,-0.00287046344907127,0.470359238929677,0.07937553807135511,0.3727063960250632,-1.988518503025921e-5,3.51276387002931,97.25
-2.6906856487540765e-5,2.939242181957194e-5,-0.002508969720389498,0.47036448277021276,0.07936928426571042,0.3727025405897348,-2.0996350383682694e-5,3.512153505603757,97.5
-2.3823613636897445e-5,3.098591005342918e-5,-0.002131631993729677,0.4703700494264056,0.07936383755003178,0.3726985390344301,-2.1786183713130847e-5,3.5116401533194654,97.75
-2.0527945479520415e-5,3.210668819117468e-5,-0.0017384793942514243,0.47037593889825546,0.07935919792431917,0.37269439135914917,-2.2254696665356677e-5,3.5112238131764353,98.0
-1.7020260309863477e-5,3.275477308974442e-5,-0.0013295347319695061,0.47038215118576243,0.0793553653885726,0.37269009756389204,-2.2401898045962265e-5,3.5109044851746662,98.25
-1.3300884372347e-5,3.2930176083006274e-5,-0.0009048145029839638,0.47038868628892644,0.07935233994279209,0.37268565764865863,-2.222779381937101e-5,3.5106821693141583,98.5
-9.370061849867106e-6,3.263290298223531e-5,-0.0004643288905632481,0.47039554420774754,0.0793501215869776,0.372681071613449,-2.173238710885539e-5,3.510556865594912,98.75
-5.227954856301675e-6,3.186295407640871e-5,-8.081765821899012e-6,0.47040272494222574,0.07934871032112917,0.3726763394582631,-2.0915678196474496e-5,3.5105285740169263,99.0
-8.735063250497888e-7,3.061973654842551e-5,0.00046397899412697896,0.4704102296288949,0.07934810672009845,0.3726714605254998,-1.9777236625426187e-5,3.5105973945898463,99.25
3.505583325402739e-6,2.8909260780127233e-5,0.0009265844119208388,0.47041768315477994,0.07934844499431092,0.37266668886091225,-1.8337816238514493e-5,3.510772478192344,99.5
7.592006056045264e-6,2.6807442816748767e-5,0.0013493506344715023,0.47042458670132364,0.07934978651797754,0.37266234891380245,-1.666856057861571e-5,3.511050754036348,99.75
1.1385982694733787e-5,2.4314262231837913e-5,0.001732305572569981,0.4704309402685259,0.07935213129109832,0.3726584406841705,-1.4769459211402824e-5,3.511432222121859,100.0
